歌曲	歌手	播放次数	作词	作曲	编曲
Shadows Of Glory	Stormhammer	103			
NoNTiTlEBoNuSTrAcK	TAKAHASHI KIMIHIRO	102			
Main Na Kuchh Hota	Syed M Fasihuddin Soharwardi	102			
Kelvin (Original Mix)	Mika Vainio	101			
Roses And Skulls (Make A Great Match)	The Setup	99			
不gging The Hb0175, The Ad90040g And The Mw650gs With Some Minor .	Carl Michael Von Hausswolff	99			
Allah Allah Nabi Ka Gharana	Syed M Fasihuddin Soharwardi	98			
Go Home	Codex Of The Heart	95			
Sukeira	Sturqen	95			
Bugging The Hb0175, The Ad90040g And The Mw650gs With Some Minor .	Carl Michael Von Hausswolff	87			
Go 家	Codex Of The Heart	80			
时间都去哪了	王铮亮	63			
I Karen情歌組曲	莫文蔚&张洪量	48			
克卜勒	孙燕姿	47	Hush	Hush	Martin
春天花会开	任贤齐	45	任贤齐	任贤齐	林挥斌
山丘	李宗盛	45	李宗盛	李宗盛	
至少还有你	林忆莲	45	林夕	Davy	刘志远
因为爱情	陈奕迅 & 王菲	43	小柯	小柯	
那些年	胡夏	43	九把刀	木村充利	
春暖花开	那英	42	梁芒	洪兵	
滚滚红尘	陈淑桦	41	罗大佑	罗大佑	花比傲
小情歌	苏打绿	41	吴青峯	吴青峯	
终于等到你	张靓颖	41	陈曦	董冬冬	
蓝莲花	许巍	41			
没那么简单	黄小琥	40	姚若龙	萧煌奇	
光辉岁月	Beyond	40			
最初的梦想	范玮琪	39	姚若龙	中岛美雪	
夜空中最亮的星	逃跑计划	39			
春泥	庾澄庆	38	伊能静	庾澄庆	吴庆隆
我们好像在哪见过	叶蓓&杨宗纬	38			
红日	李克勤	38			
我是我的	张靓颖	38	陈信延	Dion	
梦醒时分	陈淑桦	38	李宗盛	李宗盛	李正帆
答案	杨坤&郭采洁	38			
爱	小虎队	38			
她们的歌	张惠妹 Vs. 孙燕姿	38			
泡沫	邓紫棋	37	G.E.M.	G.E.M.	Lupo
倍儿爽	大张伟	37			
为爱痴狂	刘若英	36	陈升	陈升	
分开旅行	刘若英	36	姚谦	David	陈伟
旅行的意义	陈绮贞	36	陈绮贞	陈绮贞	
时间煮雨	郁可唯	36	郭敬明	刘大江	
My Destiny	린 (Lyn)	36			
春雨里洗过的太阳	王力宏	36	王力宏/易家扬	王力宏	
日不落	蔡依林	36	崔惟楷	Anders	
那些花儿	范玮琪	36	朴树	朴树	
火力全开组曲	王力宏	36			
情人	杜德伟	36			
一生有你	水木年华	36	卢庚戌	卢庚戌	李延亮
随它吧	姚贝娜	36			
城里的月光	许美静	35			
第一次	光良	35	张天成	光良	Mac
奔跑	黄征	35	黄征	黄征&羽凡&海泉	胡海泉
稳稳的幸福	陈奕迅	35	小柯	小柯	小柯
最重要的决定	范玮琪	35	姚若龙	陈小霞	
春天里	汪峰	35	汪峰	汪峰	
看我72变+招牌动作+布拉格广场+说爱你+倒带+睁一只眼闭一只眼(组曲MIX)	蔡依林	35	陈镇川	陈浩然	
Happy (From Despicable Me 2)	Pharrell Williams	34			
掌心	无印良品	34	王欲宗	光良	光良<br
鬼迷心窍	李宗盛	34	李宗盛	李宗盛	Jenny
天使的指纹	孙燕姿	34	林夕	李伟菘	Terence
很爱很爱你	刘若英	34	CHIHARU	TAMASHIRO	
牵手	苏芮	34	李子恒	李子恒	
十年	陈奕迅	34	林夕	伍乐城	伍乐城
小酒窝	蔡卓妍	33	陈少琪	林俊杰	林俊杰/吴剑泓
如果没有你	莫文蔚	33	李焯雄	左安安	周恒毅
胆小鬼	梁咏琪	33	郑淑纪	李偲菘	吴庆隆
爱的初体验	张震岳	33	张震岳	张震岳	
你的背包	陈奕迅	33	林夕	蔡政勋	刘志远
真的爱你	Beyond	33			
暖暖	梁静茹	33	李焯雄	人工卫星	洪敬尧
北京爱情	小柯	33			
K歌之王	陈奕迅	33	林夕	陈辉阳	陈辉阳
我	蔡依林	33			
王妃	萧敬腾	33	陈镇川	李偲菘	
在树上唱歌	郭静	33	姚若龙	陈小霞	洪敬尧
情非得已	庾澄庆	33	张国祥	汤小康	Jamie
普通朋友	陶喆	33	陶喆	陶喆	
喜欢两个人	彭佳慧	32	姚若龙	陈国华	
后来	刘若英	32	玉城千春、施人诚	玉城千春、	
愿得一人心	李行亮	32	胡小健	罗俊霖	
让我欢喜让我忧	周华健	32	李宗盛	Ryo	鲍比达
童话	光良	32	光良	光良	Taichi
忽然之间	莫文蔚	32	周耀辉/李焯雄	林健华	
流年	王菲	32	林夕	陈晓娟	刘志远
把耳朵叫醒	金海心	32	厉曼婷		
深呼吸	羽泉	32			
光辉岁月	陈奕迅	32	黄家驹	黄家驹	
我最亲爱的	张惠妹	32	林夕	Russell	
笑忘书	王菲	31	林夕	C.Y.	C.Y.
女人花	梅艳芳	31	李安修	陈耀川	Ricky
最熟悉的陌生人	萧亚轩	31	姚谦	柯肇雷	
特别的爱给特别的你	伍思凯	31			
爸爸去哪儿	群星	31			
手放开	李圣杰	31	十方	方文良	
伤痕	林忆莲	31	李宗盛	李宗盛	
好久不见	陈奕迅	30			
爱我别走	张震岳	30	张震岳	张震岳	
比我幸福	陈晓东	30	陈静楠	李伟菘/李景升	Terence
独角戏	许茹芸	30	许常德	季忠平	
背叛情歌	动力火车	30	李素珍(阿曼达)/许常德	刘天建	洪敬尧
最浪漫的事	赵咏华	30	姚若龙	李正帆	
流沙	陶喆	30	娃娃	陶喆	
存在	汪峰	30	汪峰	汪峰	
相见恨晚	彭佳慧	30	娃娃	陈国华	
最美	羽泉	30	羽泉	羽泉	长冈成贡
外面的世界	齐秦	30	齐秦	齐秦	
海阔天空	Beyond	30			
我相信	杨培安	30	刘虞瑞	陈国华	陈国华
谢谢侬	陈奕迅	30	林夕	林一峰	刘志远
我怀念的	孙燕姿	30	姚若龙	李偲菘	
陶喆	eCentury Ltd.	30			
一天到晚游泳的鱼	张雨生	30	许常德	陈复明	
一路上有你	张学友	30	谢明训	片山圭司	
心太软	任贤齐	29			
情书	张学友	29			
红豆	王菲	29	林夕	柳重言	Alex
青花瓷	周杰伦	29	方文山	周杰伦	
小手拉大手	梁静茹	29	TSUJIAYANO、Little	TSUJIAYANO	陈建骐
我的未来不是梦	张雨生	29	陈家丽	翁孝良	
倔强	五月天	29	阿信	阿信	五月天
怎样	戴佩妮	29	戴佩妮	戴佩妮	
绿光	孙燕姿	29	天天	李偲菘	Kenn.C
爱情	莫文蔚	29	胡如虹(中文词)	Savan	
千千阕歌	陈慧娴	29	林振强	马饲野康二	
江南	林俊杰	29	李瑞洵	林俊杰	蔡政勋/陈建玮
可爱女人	周杰伦	29	徐若瑄	周杰伦	
龙卷风	周杰伦	29	徐若瑄	周杰伦	
阳光总在风雨后	许美静	29			
勇气	梁静茹	29	瑞业	光良	
我愿意	王菲	29	姚谦	黄国伦	
美丽心情	本多RURU	28			
我的歌声里	婉婷	28	曲婉婷	曲婉婷	
致青春	王菲	28	李樯	窦鹏	
爱上一个不回家的人	林忆莲	28	丁晓雯	陈志远	陈志远
阴天	莫文蔚	28	李宗盛	李宗盛、周国仪	
爱相随	周华健	28			
蒙娜丽莎的眼泪	林志炫	28	郑华娟	郑华娟	
听海	张惠妹	28	林秋离	涂惠源	涂惠源
听说爱情回来过	林忆莲	28	李偲菘	李偲菘	Mac
大海	张雨生	28	陈大力	陈大力、陈秀男	
大城小爱	王力宏	28	王力宏/陈镇川/K.Tee	王力宏	王力宏
简单爱	周杰伦	28	徐若瑄	周杰伦	
我是女生	徐怀钰	28	林文炫	李正帆	
爱的代价	张艾嘉	28	李宗盛	李宗盛	李正帆
突然好想你	五月天	28	阿信(五月天)	阿信(五月天)	
电台情歌	莫文蔚	28	姚谦	王治平	
爱我还是他	陶喆	28	陶喆&娃娃	陶喆	陶喆
不得不爱	潘玮柏	28	Choi	Choi	Free
成全	刘若英	27	施立、姚若龙	陈小霞、许华强	
1-2-3-4 (Original)	Anthony Rother	27			
再见	张震岳	27			
Hello, Goodbye	Hyorin	27			
味道	辛晓琪	27	姚谦	黄国伦	
用心良苦	张宇	27	十一郎	张宇	
黄昏	周传雄	27			
想和你去吹吹风	张学友	27	娃娃	叶良俊	吴庆隆
当时的月亮	王菲	27	林夕	李冰	
太想爱你	张信哲	27	厉曼婷	叶良俊	
隐形的翅膀	张韶涵	27	王雅君	王雅君	
白天不懂夜的黑	那英	27	黄桂兰	林隆璇	Chris
桃花朵朵开	陈庆祥	27			
那么爱你为什么	黄品源	27			
当	动力火车	27			
看海	周迅	27			
当爱已成往事	李宗盛/林忆莲	27	李宗盛	李宗盛	Jenny
风雨无阻	周华健	27	李子恒	李子恒	包小松
怒放的生命	汪峰	27	汪峰	汪峰	
那就这样吧	动力火车	26	颜玺轩	颜玺轩	
爱的海洋 (Love Ocean)	Wanting	26			
约定	周蕙	26			
光脚丫	阿牛	26	阿牛、易桀齐、水水	阿牛	
想你的365天	李玟	26	邬裕康	李伟菘	鲍比达
有没有一首歌会让你想起我	周华健	26	李焯雄/李宗盛	周传雄	
当我想你的时候	汪峰	26	汪峰	汪峰	
我是一只小小鸟	赵传	26	李宗盛　	李宗盛	
旋木	王菲	26	杨明学	袁惟仁	黄中岳
爱如潮水	张信哲	26	李宗盛	黎沸挥	
笑红尘	陈淑桦	26	厉曼婷	李宗盛	鲍比达
启程	范玮琪	26	陈淑秋	伍思凯	
水晶	徐怀钰	26	姚谦	Ahn	
恋爱ing	五月天	26	阿信	阿信	五月天
写一首歌	顺子	26	顺子/Jeff	顺子	顺子&袁述中<br
征服	那英	26	袁惟仁	袁惟仁	王继康
豆浆油条	林俊杰	26	张思尔	林俊杰	
爱的主打歌	萧亚轩	26	周耀辉	陈伟	吕绍淳
为你我受冷风吹	林忆莲	26	李宗盛	李宗盛	
执迷不悔	王菲	26	陈少琪	袁惟仁	唐奕聪
我唱故我在	吉克隽逸	26	吴青峰	吴青峰	
领悟	辛晓琪	26	李宗盛	李宗盛	
一起摇摆	汪峰	26	汪峰	汪峰	
微笑以后	张靓颖	26	方大同、小寒	方大同	
Love Love Love	蔡依林	26			
花心	周华健	26	厉曼婷	喜纳昌吉(Kina	
生如夏花	朴树	26	朴树	朴树	张亚东
爱笑的眼楮	徐若瑄	26			
曾经的你	许巍	26			
爸爸去哪儿	Kimi&林志颖&张悦轩&张亮&郭子睿&郭涛&王诗龄&王岳伦	25			
新鲜	梁咏琪	25	姚若龙	李偲菘	Terence
夜太黑	林忆莲	25	李宗盛	李宗盛/周国仪	
月亮惹的祸	张宇	25	十一郎	张宇	Michael
OK蹦	张韶涵	25			
传奇 (搜啦EP)	王菲	25	左右	李健	
卷珠帘	霍尊	25			
你是我的眼	萧煌奇	25	萧煌奇	萧煌奇	洪筠惠<br
冰雨	刘德华	25	刘德华/李密	潘协庆	Ricky
一个像夏天一个像秋天	范玮琪	25	陈小霞		
老男孩	筷子兄弟	25			
Honey Honey	孙燕姿	25			
飘洋过海来看你	娃娃	25	李宗盛	李宗盛	屠颖
我要我们在一起	范晓萱	25	李泉	李泉	李泉/安栋
囚鸟	彭羚	25	十一郎	张宇	
无与伦比的美丽	苏打绿	25	青峰	青峰	
TRUE LOVE	蔡健雅	25	姚谦	Tanya	Bernhard
就现在	吴莫愁	25			
一颗滚石	赵传	25			
唯一	王力宏	25	王力宏	王力宏	
遇见	孙燕姿	25	易家扬	林一峰	
剪爱	张惠妹	25	林秋离	涂惠源	涂惠源
危险世界	方大同	25	方大同	方大同	方大同
明天，你好	牛奶@咖啡	25		牛奶咖啡	格非
星晴	周杰伦	25	周杰伦/方文山/刘畊宏/张震岳	周杰伦/张震岳	
相见不如怀念	那英	25	那英	飞鸟凉	
你是我的眼	林宥嘉	25			
光阴的故事	黄晓明&邓超&佟大为	25			
心中的日月	王力宏	25	陈宇佐	王力宏	王力宏
等你爱我	陈奕迅	25	李小龙,小柯	小柯	
Yang Cong	杨宗纬	24			
下个,路口,见	李宇春	24			
铿锵玫瑰	林忆莲	24	李宗盛	林忆莲	
单身情歌	林志炫	24	易家扬	陈耀川	韩贤光
娱乐天空	陈奕迅	24	火星电台	火星电台	火星电台
忘情水	刘德华	24	李安修	陈耀川	苏德华
中国话	S.H.E	24			
海阔天空	信乐团	24	Gi	Jun	
这，就是爱	张杰	24	易家扬	曲世聪&文一丁	
一辈子的孤单	刘若英	24	深白色	深白色	
夜夜夜夜	齐秦	24	熊天平	熊天平	
Us Ne Kya Dekh Liya	Syed M Fasihuddin Soharwardi	24			
屋顶	周杰伦	24			
想神马有神马	李代沫&吴莫愁	24			
情关	陈淑桦	24	小虫	小虫	
有多少爱可以重来	迪克牛仔	24	何厚华	黄卓颖	
一笑而过	那英	24	那英	刘国明/刘志文	
为你写诗	吴克群	24			
呼吸	蔡健雅	24	徐世珍	陈伟	
真的假的	陶晶莹	24	林夕	周杰伦	Jae
Roar	Katy Perry	24			
彩虹	羽泉	24			
记事本	陈慧琳	24	周传雄/陈信荣	周传雄	吴庆隆
男人哭吧不是罪	刘德华	24	刘德华	刘天健	
三万英尺	迪克牛仔	24	谢铭佑	谢铭佑	
飞得更高	汪峰	24	汪峰	汪峰	
时光	许巍	24			
依然爱你	王力宏	24	王力宏	王力宏	
漫步	许巍	24			
在我生命中的每一天	成龙/苏慧伦	24	陈家丽	李宗盛	
最近比较烦	周华健	24	李宗盛	李宗盛&周华健&黄品冠	
花田错	王力宏	24	陈镇川	王力宏	
过火	张信哲	24	陈佳明	曹俊鸿	
北京北京	汪峰	24	汪峰	汪峰	
爱久见人心	梁静茹	24	彭学斌、陈没	彭学斌	杨朝焰、李祥熙
痴心绝对	李圣杰	24	蔡伯南	蔡伯南	
宝贝对不起	草蜢	24	蔡一智/何启弘/刘虞瑞/谢明训	V.Barber/Chatree	
红色高跟鞋	蔡健雅	24	蔡健雅	蔡健雅	Adam
东风破	周杰伦	24	方文山	周杰伦	林迈可
是爱	陶晶莹	24	陶晶莹	方大同	方大同
我好想你	苏打绿	24	吴青峰	吴青峰	苏打绿、林暐哲
心墙	郭静	24	姚若龙	林俊杰	洪信杰
Pei Wo Kan Ri Chu (Ot: Nada So So)	蔡淳佳	23			
当爱在靠近	刘若英	23	潘协庆	潘协庆	
孤单北半球	欧得洋	23			
快乐崇拜	潘玮柏	23	林夕Rap：潘玮柏	Turtles	
挪威的森林	伍佰	23	伍佰	伍佰	
一场游戏一场梦	王杰	23	王文清	王文清	
亲爱的你怎么不在身边	江美琪	23			
矜持	王菲	23	许常德	郭子	屠颖
开始懂了	孙燕姿	23	姚若龙	李偲菘	Kenn
中意他	梁咏琪	23	陈镇川	Eric	Snowman
原来你也在这里	刘若英	23	NAKAJIMA	MIYUKI	
练习	刘德华	23	李安修/王裕宗	黎沸挥	杜自持
广岛之恋	莫文蔚	23	张洪量	张洪量	
乘客	王菲	23	林夕	Sophie	郭亮
解脱	张惠妹	23	姚若龙	许华强	许华强
Da Yue Zai Dong Ji	Chyi Chin	23			
爱你一万年	刘德华	23	刘德华	Grogio	
你被写在我的歌里	苏打绿 & 陈嘉桦	23	青峰	青峰	
青春纪念册	可米小子	23	陈忠义	Si/Nsc	
再给我放一首	王啸坤	23			
值得	郑秀文	23	廖莹如	黄明洲	钱幽兰
再回首	姜育恒	23			
太傻	巫启贤	23	陈佳明	巫启贤	钟兴民
会呼吸的痛	梁静茹	23	姚若龙	宇珩	安栋
你的甜蜜	范晓萱	23	Mike	陈冠蒨	
身骑白马	徐佳莹	23	徐佳莹	徐佳莹/苏通达	打打
为爱而活	张韶涵	23	Aitken,	Aitken,	Jae
私奔到月球	陈绮贞/五月天	23			
你把我灌醉	邓紫棋	23	姚若龙	黄大炜	Lupo
Our Memory	孙燕姿	23			
分手快乐	梁静茹	23	姚若龙	郭文贤	
一言难尽	张宇	23	十一郎	张宇	涂惠元
You Exist In My Song	Wanting	23			
兄弟本色	张震岳	23	张震岳	张震岳	张震岳、Ayal
你怎么舍得我难过	黄品源	23	黄品源	黄品源	黄品源
吻别	张学友	23	何启弘	殷文琦	殷文琦
旅行	许巍	23			
有一点动心	张信哲	23	厉曼婷	曹俊鸿	Ken
Rolling In The Deep	Adele	23			
笨小孩	刘德华	23	刘德华	高枫	江建民
白桦林	朴树	23	朴树	朴树	
人间	王菲	23	林夕	中岛美雪	
看得最远的地方	张韶涵	23	姚若龙	陈小霞	于京廷(阿滚＠动静音乐)
Dao Xiang	周杰伦	22			
天空	王菲	22	黄桂兰	杨明煌	屠颖
姊姊妹妹站起来	陶晶莹	22			
泪海	许茹芸	22	季忠平/许常德	季忠平	陈进兴
好心分手	卢巧音	22	黄伟文	雷颂德	雷颂德/Ted
爱一个人好难	苏永康	22	季忠平	季忠平	黄尚伟
七月七日晴	许慧欣	22	木兰号Aka陈韦伶	木兰号Aka陈韦伶	吴庆隆
对面的女孩看过来	任贤齐	22	阿牛	阿牛	
画心	张靓颖	22	陈少琪	藤原育郎	
短发	梁咏琪	22		陈绮贞	谢浩文
明天也要作伴	锦绣二重唱	22	姚若龙	伍思凯	许华强
一生何求	陈百强	22	潘伟源	王文清	苏德华
新不了情	万芳	22	黄郁	鲍比达	
Get Lucky	Daft Punk Feat. Pharrell Williams	22			
追梦人	凤飞飞	22	罗大佑	罗大佑	罗大佑
就是爱你	陶喆	22	娃娃	陶喆	陶喆
Ai Qing Zhuan Yi	Christopher Chak & Eason Chan	22			
梦一场	那英	22	袁惟仁	袁惟仁	
너의 집 앞	김수현 (배우)	22			
说,你爱我	陈淑桦	22	孙维君	王治平	Dain
一起吃苦的幸福	周华健	22	姚若龙	陈小霞	余大豪
原来你什么都不要	张惠妹	22			
热情的沙漠	庾澄庆	22	李洁心	加濑邦彦	吴庆隆
你的眼睛	熊天平	22	许常德	熊天平	
容易受伤的女人	王菲	22	何启弘	MIYUKI	TONY
High歌	黄龄	22	常石磊	常石磊	
Us Under The Sunshine	Wanting	22			
Perhaps Love	张学友	22			
把悲伤留给自己	陈升	22	陈升	陈升	
朋友	周华健	22			
你要的爱	戴佩妮	22	戴佩妮	戴佩妮	
修炼爱情	林俊杰	22	易家扬	林俊杰	吴庆隆
明天你是否依然爱我	童安格	22	杨立德	童安格	
每天爱你多一些	张学友	22	林振强	桑田佳佑	杜自持<br
我一个人住	苏慧伦	22	陈家丽	李宗盛	涂惠源
爱就爱了	陈琳	22	杨立德、李琪	张亚东	
爱情也有生命	古巨基 & 容祖儿	22	林夕	黄韵玲	黄韵玲
爱的代价	李宗盛	22	李宗盛	李宗盛	李正帆
별에서 온 그대	윤하 (Younha & ンナ)	22			
你的眼神	蔡琴	22	苏来	苏来	
同桌的你	老狼	22	高晓松	高晓松	吴庆隆
其实都没有	杨宗纬	22	杨宗纬	易桀齐、伍冠谚	于京延
可惜不是你	梁静茹	22	李焯雄	曹轩宾	陈飞午
最爱的人伤我最深	张惠妹/张雨生	22	邬裕康	陈志远	Ricky
原来的我	齐秦	21	吕承明	齐秦	
寓言	张韶涵	21	王雅君	小安	陈伟
Kiss Goodbye	王力宏	21			
爱要怎么说出口	赵传	21	李宗盛　	李宗盛	
说谎	林宥嘉	21	施人诚	李双飞	吕绍淳
我要的幸福	群星	21			
爱得比你深	张学友	21	简宁	陆孔生	
Cappuccino	萧亚轩	21	姚谦	Jae	Jae
让我取暖	彭羚	21	林利男	游鸿明	江建民
月亮代表我的心	齐秦	21	翁清溪	孙仪	卢东尼
断点	张敬轩	21	张敬轩	张敬轩	
约定	光良	21	光良	光良	
爱就一个字	张信哲	21	陈佳丽	Jean-Michel	
光阴的故事	罗大佑	21	罗大佑	罗大佑	
女人们的咖啡	蔡淳佳/金海心	21	姚谦	陈孟奇	Adam
你不在北京	曹轩宾	21	文雅	曹轩宾	
好想好好爱你	周蕙	21	邬裕康	陈建宁/陈建卿	吴庆隆
你知道我在等你吗	张洪量	21	张洪量	张洪量	
知足	五月天	21	阿信	阿信	周恒毅+五月天
不想长大	S.H.E	21			
完美生活	许巍	21			
下沙	游鸿明	21	林利南	游鸿明	洪敬尧
Hohtokivi	Vladislav Delay Quartet	21			
你快乐所以我快乐	王菲	21	林夕	张亚东	
走路去纽约	陶晶莹	21	林秋离	张蔚源	许环良
蝴蝶泉边	黄雅莉	21	彭青	彭青	
你把我灌醉	黄大炜	21	姚若龙	黄大炜	黄大炜
遗憾	许美静	21			
诗人的眼泪	游鸿明	21	林利南	游鸿明	涂惠源
复刻回忆	薛凯琪/方大同	21	易家扬	桑田佳佑	阿滚<br
明天过后	张杰	21			
爱你不是两三天	梁静茹	21	潘协庆/葛大为	潘协庆	
但愿人长久	王菲	21	苏轼	梁弘志	
制造浪漫	郑中基/陈慧琳	21	黄桂兰<br	雷颂德<br	江建民<br
直来直往	孙燕姿	21	方文山	李偲菘	Kenn
Zui Chu De Meng Xiang	Wei Qi Fan	21			
走在红毯那一天	彭佳慧	21	李安修	陈国华	
今天你要嫁给我	陶喆&蔡依林	21			
Si Nian Shi Yi Zhong Bing	Zhang Zhen Yue	21			
街角的祝福	戴佩妮	21	戴佩妮	戴佩妮	陈达伟
那个女孩	韩庚	21			
Lemon Tree	苏慧伦	21	许常德	Hinkel/Fredent	
Lydia	F.I.R	20			
第一天	孙燕姿	20	阿信	五月天/Fir	五月天/孙燕姿/Fir
思念是一种病	蔡健雅	20			
闷	王菲	20	林夕	张亚东	
让我一次爱个够	庾澄庆	20	陈家丽	庾澄庆	洪敬尧
不要对他说	张信哲	20			
她来听我的演唱会	张学友	20	梁文福	黄明洲	黄中岳<br
亲爱的路人	刘若英	20	林夕	木村充利	泽近泰辅
一想到你呀	张惠妹	20	张雨生	张雨生	Koji
Melody	陶喆	20	陶喆/娃娃	陶喆	
想见你	无印良品	20	瑞业、于光中	光良	
Let It Go	Demi Lovato	20			
离人	林志炫	20	厉曼婷	何家文	林庭逸;韩贤光
爱的就是你	王力宏	20			
外滩十八号	袁成杰&戚薇	20			
刘芳	冯晓泉	20			
倒带	蔡依林	20	Wonderful、方文山	古皓、周杰伦	
菊花台	周杰伦	20	方文山	周杰伦	钟兴民
一千零一个愿望	4 In Love	20	徐世珍	潘协庆	吕绍淳
我们都是好孩子	王筝	20			
我的骄傲	容祖儿	20	黄伟文	陈光荣	陈光荣
明天的明天的明天	动力火车	20	许常德/阿曼达	尤秋兴	
不潮不用花钱	林俊杰	20	林怡凤	林俊杰	
一见钟情	蓝心湄	20	谢明训	卢东尼	
Let It Go	Idina Menzel	20			
一念之间	陶喆	20	娃娃	陶喆	
我们说好的	张靓颖	20	文雅	于立桄/李伟菘	
一千年以后	林俊杰	20	李瑞洵	林俊杰	
我学雷锋好榜样	王蓉	20			
想你的夜	关喆	20			
喜欢你	Beyond	20			
淋雨一直走	张韶涵	20	Hermanni	Hermanni	
独家记忆	陈小春	20			
小天堂	周华健	20	陈没	周华健	Easy
从开始到现在	张信哲	20	李焯雄	Oh	
梁山伯与茱丽叶	曹格/卓文萱	20			
寂寞寂寞就好	田馥甄	20	施人诚/杨子朴	施人诚/杨子朴	钟兴民
恋爱达人	Zhi Xiang Luo & Xiao S	20			
被风吹过的夏天(林俊杰+金莎)	林俊杰	20	冯欣慧	林俊杰	
都是夜归人	许美静	20			
马德里不思议	蔡依林	20	毛毛、黄俊郎、周启民	Lever,	
一个人的行李	戴佩妮	20	戴佩妮	戴佩妮	
心有独钟	陈晓东	20	洪尧斌	洪尧斌	
醉清风	弦子	20	薛永嘉	Marko	
Di Da Di	李玟	20	姚谦	Maria	屠颖
Moves Like Jagger	Maroon 5 Feat. Christina Aguilera	20			
夜空中最亮的星	张杰	20			
每天一点新	萧敬腾	20			
我是一只鱼	任贤齐	20	刘思铭	刘志宏	
Gai Bian Zi Ji	王力宏	20			
I Believe	范逸臣	20			
虹之间 (Full Version)	金贵晟	20	大风刮过	金贵晟	
Timber	Pitbull Feat. Ke$ha	20			
给你们	张宇	20	十一郎	张宇	
我喜欢	梁静茹	20	潘协庆	潘协庆	王豫民
Julia	王力宏	20	施立	王力宏	
Xiang Ba Wo Chang Gei Ni Ting	老狼	20			
瘦瘦的	梁静茹	20	姚若龙	陈小霞	吕圣斐
谢谢你的爱	刘德华	20	刘德华	熊美玲	Alex
灰姑娘	郑钧	19			
我很丑可是我很温柔	赵传	19			
上弦月	许志安	19	方文良	方文良	吴庆隆
是你变了吗	无印良品	19	林慧思	光良	George
Missed Call	杨乃文	19			
Xu Yuan Chi De XI La Shao Nu	Jolin Tsai	19			
问	陈淑桦	19			
流星雨	F4	19			
Call Me Maybe	Carly Rae Jepsen	19			
牧马人	杨坤	19	文雅	杨坤	
心酸的浪漫	那英	19	那英	张宇	
他还是不懂	S.H.E	19			
喜欢你	邓紫棋	19			
命中注定	DJ小可	19			
爱情发的光	吉克隽逸	19	姚谦	方大同	
红尘客栈	周杰伦	19	方文山	周杰伦	黄雨勋
Dong Xiao Jie	Dongye Song	19			
Crying In The Party	陈奕迅	19	黄伟文	黎小田	
A.I.N.Y. (爱你)	邓紫棋	19	G.E.M.Lupo	Lupo	
一个人的精彩	萧亚轩	19	常玉	Voravit	Azlan
你看你看月亮的脸	孟庭苇	19			
天天想你	张雨生	19	陈乐融	陈志远	
趁早	张宇	19	十一郎	张宇	
矜持	姚贝娜	19			
听袁惟仁弹吉他	S.H.E	19			
富士山下	陈奕迅	19	林夕	Christopher	
趁早	张惠妹	19	十一郎	张宇	Martin
有故事的人	周华健	19	姚若龙	潘协庆	
回家	顺子	19	顺子/Jeff	顺子	贾敏恕
野花	田震	19			
渺小	田馥甄	19	周耀辉	杨子朴	JerryC
北极与赤道	紫流星	19			
十七岁的雨季	吴俊余	19			
Below The Line	Fausto Rossi	19			
梁山伯与茱丽叶	卓文萱	19	曹格	曹格	涂惠源
橄榄树	齐豫	19	三毛	李泰祥	
The Smile On Your Face	F.I.R.	19			
又见炊烟	王菲	19	庄奴	海沼实	
Tian Tian De	周杰伦	19			
Fan Nao Ge	张学友	19			
恋恋风尘	老狼	19			
好男人	张镐哲	19	姚若龙	张翰群	张翰群
Counting Stars	OneRepublic	19			
难以抗拒你容颜	张信哲	19	林隆璇	林隆璇	
Yi Ge Xiang Xia Tian Yi Ge Xiang Qiu Tian	Wei Qi Fan	19			
Dark Horse	Katy Perry Feat. Juicy J	19			
恋爱频率	许慧欣/许志安	19	易家扬	Wee	
单恋一枝花	张宇	19	十一郎	张宇	
凡人歌	李宗盛	19	李宗盛	李宗盛	鲍比达
寂寞在唱歌	阿桑	19	施人诚	Dylan	屠颖
亲爱的那不是爱情	张韶涵	19	方文山	周杰伦	
Home	Nouela	19			
跟着感觉走	苏芮	19	陈家丽	陈志远	陈志远
Fa Ru Xue	周杰伦	19			
张三的歌	蔡琴	19	张子石	李寿全	鲍比达
羞答答的玫瑰静悄悄地开	孟庭苇	19	梁文福	梁文福	黄雨勋
飘雪	陈慧娴	19	简宁	K.	
下一站天后	Twins	19			
被风吹过的夏天	金莎/林俊杰	19	冯欣慧	林俊杰	
左边	杨丞琳	19			
海芋恋	萧敬腾	19			
美梦成真	未知	19			
별처럼	케이윌 (K.will)	19			
亲亲我的宝贝	周华健	19	周华健	周华健	鲍比达
Hey Jude	孙燕姿	19			
我可以抱你吗	张惠妹	19	小虫(Johnny	小虫(Johnny	江建民
睫毛弯弯	王心凌	19	严云农	曹格	
Say Something	A Great Big World Feat. Christina Aguilera	19			
快乐老家	陈明	19			
寒冰	王馨平	19	C.Y.Kong	C.Y.Kong	C.Y.Kong
朋友	无印良品	19			
Bai Yue Guang	张信哲	19			
想太多	李玖哲	19	林燕岑	Jae	
欧若拉	张韶涵	19	施立	李天龙	吕绍淳
梦	尚雯婕	19			
七里香	周杰伦	18	方文山	周杰伦	钟兴民
真心英雄	成龙/黄耀明/李宗盛/周华健	18	李宗盛	李宗盛	
寂寞难耐	李宗盛	18	李宗盛	李宗盛	陈志远
突发奇想	蔡淳佳	18	詹辉振	蔡立章	Eric
亲密爱人	梅艳芳	18	小虫	小虫	王治平
数字恋爱	范晓萱	18	范晓萱	范晓萱	黄中岳
勇敢一点(赵传)	影视原声	18			
姊妹	张惠妹	18	张雨生	张雨生	王继康
那一天	杨坤	18	杨坤	杨坤	
爱如空气	孙俪	18			
爱不爱我	零点乐队	18			
风中有朵雨做的云	孟庭苇	18			
笔记(周笔畅)	群星	18			
Yi Shou Jian Dan De Ge	王力宏	18			
我和春天有个约会	邝美云	18	黄舒骏	钟志荣	鲍比达
Ni Shi Wo Xin Nei De Yi Shou Ge	王力宏	18			
一个人跳舞	张惠妹	18	于光彦	伍思凯	
For Dear Love/亲密爱人	梅艳芳	18			
爱着爱着就永远	田馥甄	18	徐世珍，吴辉福	张简君伟	游政豪，樊哲忠
太委屈	陶晶莹	18	郑华娟	郑华娟	陈伟/Mickey
We Will Rock You	Queen	18			
只要你过得比我好	钟镇涛	18	小虫	小虫	
是非题	范玮琪	18	王雅君	王雅君	
宽容	张信哲	18	马兆骏	马兆骏	鲍比达
新贵妃醉酒	李玉刚	18	胡力	胡力	
可不可以不勇敢	范玮琪	18	姚若龙	陈小霞	
猜不透	丁当	18	黄婷	林迈可	林迈可
顺其自然	黄小琥	18	姚若龙	萧煌奇	
咖啡	张学友	18	何启弘	黄韵玲	吴庆隆
明明很爱你(with梁静茹)	品冠	18	改编：姚若龙/原词：Jang	Cho	项仲为
即刻出发	吉克隽逸	18	姚谦	Fingazz	
恋人未满	S.H.E	18			
超快感	孙燕姿	18	孙燕姿	林夕	
Gei Wo Yi Shou Ge De Shi Jian	周杰伦	18			
疼你的责任	品冠	18	姚若龙	黄品冠	吴庆隆
不只是朋友	黄小琥	18	王中言	伍思凯	
他不爱我	莫文蔚	18	杨立德	陈小霞	
下雨天	南拳妈妈	18	LARA	张杰	
其实不想走	周华健	18	刘志宏	刘志宏	洪敬尧
棉花糖	至上励合	18	马雪阳　张彰	马雪阳	
越来越不懂	蔡健雅	18	蔡健雅	蔡健雅	
如果的事	范玮琪/张韶涵	18	王蓝茵	王蓝茵	屠颖
还是要幸福	田馥甄	18	徐世珍/司鱼	张简君伟	卢家宏、JerryC
一千个伤心的理由	张学友	18	邢增华	李菘	
小酒窝	林俊杰/蔡卓妍	18	王雅君	林俊杰	
Xia Yi Ge Tian Liang	Claire Guo	18			
美丽的神话	成龙;金喜善	18			
没有如果	梁静茹	18	Soulja、严爵	Soulja	严爵、朱敬然
我是不是该安静的走开	郭富城	18			
越长大越孤单	牛奶@咖啡	18			
Someone Like You	Adele	18			
依恋	蔡淳佳	18	张乐声	J.F.Porry/G.Salesses	Terence
Lu.Yi Zhi Du Zai	陈奕迅	18			
Wen Bie	张学友	18			
Locked Out Of Heaven	Bruno Mars	18			
暧昧	杨丞琳	18	姜忆萱/颜玺轩	小冷	
鸭子	苏慧伦	18	许常德	Ju	
恋曲1990	罗大佑	18	罗大佑	罗大佑	罗大佑
Xiang Ai Hen Nan	张学友 & Anita Mui	18			
爱一点	王力宏&章子怡	18	李斌	莫艳琳	
What Makes You Beautiful	One Direction	18			
爱情三十六计	蔡依林	18			
漫步人生路	邓丽君	18	郑国江	中岛美雪	渡边茂树
暗香	沙宝亮	18			
忘记你我做不到	张学友	18	陈家丽	郭子	屠颖
我期待	张雨生	18	张雨生	张雨生	The
Wo Zuo Zai Zhe Li	林忆莲	18			
Let Her Go	Passenger	17			
亲密爱人	王若琳	17	小虫	小虫	
喜欣恋旧	许慧欣	17			
雨一直下	张宇	17	十一郎	张宇	MICHAEL
为你写诗+不屑纪念+残废+吴克群(remix)	吴克群	17			
孤枕难眠	周华健	17			
被风吹过的夏天	林俊杰	17	冯欣慧	林俊杰	
Wo Men De Ge	王力宏	17			
我们没有在一起	刘若英	17	黄婷	木兰号	
刀剑如梦	周华健	17	詹德茂/周华健	周华健	
没那种命	陈小春	17	易家扬	包小柏	洪敬尧
Yi Qian Ling Yi Ye	Michelle & Vickie	17			
如果这都不算爱	张学友	17	李焯雄	伍佰	Davy
北京一夜	陈升	17	陈升	陈升	
其实你不懂我的心	童安格	17	陈桂珠	童安格	陈玉立
无所谓	杨坤	17			
十七岁的雨季	林志颖	17	潘芳烈	潘芳烈	屠颖
那些花儿	朴树	17	朴树<br	朴树<br	张亚东<br
生何求	陈百强	17	潘伟源	王文清	苏德华
如果云知道	许茹芸	17	季忠平/许常德	季忠平	屠颖
只爱陌生人	王菲	17	林夕	张亚东	张亚东
时间都去哪儿了	周笔畅	17			
Ting Ma Ma De Hua	周杰伦	17			
成长	胡彦斌	17	胡彦斌	胡彦斌	谷僳
背叛 (曹格)	群星	17			
爱情证书	孙燕姿	17	徐世珍	李偲菘	Terence
温柔	五月天	17	阿信	阿信	
你的样子	林志炫	17	罗大佑	罗大佑	Tony
爱你等于爱自己	王力宏	17	林夕	Gicho/S'oderqvust	
偏偏喜欢你	陈百强	17			
流光飞舞	陈淑桦	17	黄沾	黄沾	
刀马旦	李玟	17	方文山	周杰伦	
外面的世界	莫文蔚	17	齐秦	齐秦	
失恋阵线联盟	草蜢	17	蔡一智/何启弘/刘虞瑞/谢明训	V.Barber/Chatree	
如果	胡彦斌	17	胡彦斌	胡彦斌	谷僳
给我感觉	张惠妹	17	邬裕康/阿怪	陈志远	Martin
牡丹江	南拳妈妈	17	方文山	盖瑞	
黑色柳丁	陶喆	17	陶喆/娃娃	陶喆	
我是不是你最疼爱的人	小虫	17	小虫	小虫	涂惠源
安妮	王杰	17			
爱情多恼河	熊天平	17	熊天平/许常德	熊天平	
Bad Boy	张惠妹	17	张雨生	张雨生	Martin
信仰	张信哲	17	陈耀川/易家扬	陈耀川	
Rather Be	Clean Bandit Feat. Jess Glynne	17			
是否我真的一无所有	王杰	17	陈乐融	陈志远	
你的柔情我永远不懂	陈琳	17	洛兵	周笛	
遗失的美好	张韶涵	17	姚若龙	黄汉青	吴庆隆
星语心愿	张柏芝	17			
Halo	Beyoncé	17			
那么骄傲	金海心	17			
不再让你孤单	陈升	17	陈升	陈升	Fire
Good Time	Owl City & Carly Rae Jepsen	17			
爱·转角	罗志祥	17			
大舌头	吴克群	17			
寂寞的恋人啊	莫文蔚	17	李宗盛	王一隆	
明明白白我的心	陈淑桦/成龙	17	李宗盛	李宗盛	
红豆	方大同	17	林夕	柳重言	
Dream	苏醒	17			
人在雨中	张学友	17	吴旭文	吴旭文	钟兴民
打错了	王菲	17	林夕	蔡健雅	梁翘柏
一起去巴黎	侯湘婷	17	陈绮贞	李雨寰	
当我开始偷偷地想你	张惠妹	17	张雨生	张雨生	Martin
伤心太平洋	任贤齐	17	陈没	中岛美雪	
冻结	林俊杰	17	张思尔	林俊杰	吴庆隆
爱，不解释	张杰	17	李焯雄	萧煌奇	讴
我爱的人	陈小春	17			
父亲	筷子兄弟	17	筷子兄弟	筷子兄弟	
天下有情人	齐豫	17	林夕	周华健	洪敬尧
亲亲	梁静茹	17	陈没	五月天怪兽	周恒毅
我就是我REMIX	萧亚轩	17			
我爱他	丁当	16	黄婷	陈威全	WAVE
寂寞沙洲冷	周传雄	16	陈信荣	周传雄	周传雄
小小	容祖儿	16	方文山	周杰伦	Michael
加速度	瞿颖	16			
Unqualified	佳佳	16			
美丽笨女人	李玟	16	吴旭文	吴旭文	江建民
爱爱爱	方大同	16			
活着	郝云	16			
别找我麻烦	蔡健雅	16	蔡健雅	蔡健雅	
因为爱所以爱	谢霆锋	16	林夕	谢霆锋	Davy
背叛	曹格	16	阿丹/邬裕康	曹格	涂惠源
Injection (Joseph Diel Remix)	LMR	16			
傻瓜	温岚	16	吴克群	吴克群	周恒毅
心要让你听见	邰正宵	16	姚若龙	邰正宵	洪信杰
我要轻轻为你唱首歌	许慧欣	16	天天/Someone	Reshmonu	Martin
向往	李健	16	李健	李健	
不见不散	孙楠	16			
黄色月亮	苏慧伦	16	吴俊霖	吴俊霖	王继康
爱江山更爱美人	李丽芬	16	小虫	小虫	
远走高飞	林忆莲	16	汪一平/卡门	汪一平	刘志远
East Wind	周杰伦	16			
记得	张惠妹	16	易家扬	林俊杰	吴庆隆
好想好想	古巨基	16	琼瑶	尤景仰	尤景仰
下大雨	伊能静	16	伊能静/王新莲	吴青蓉	
若你碰到他	蔡健雅	16	蔡健雅	蔡健雅	蔡健雅/Doug
烟花易冷	周杰伦	16	方文山	周杰伦	黄雨勋(梦想之翼)
我是不是你最疼爱的人	潘越云	16	小虫	小虫	涂惠源
门没锁	品冠	16	林宇中/李志清	梁伟丰	Huang
甲乙丙丁	许志安/张学友/郑中基	16	厉曼婷	雷颂德	雷颂德
Royals	Lorde	16			
花香	许绍洋	16	陈信荣	周传雄	
祝福	张学友	16	丁晓雯	郭子	王豫民
戒情人	郑中基	16	梁文福	梁文福/吴庆隆	吴庆隆<br
我是真的爱你	张信哲	16	李宗盛	李宗盛	
如果这就是爱情	张靓颖	16	阿弟仔	阿弟仔	廖伟杰
You Exist In My Song (Demo Version)	Wanting	16			
早上好	牛奶咖啡	16			
爱情诺曼底	黄征	16	胡海泉	陈羽凡	江建民
鱼	陈绮贞	16	陈绮贞	陈绮贞	
爱的代价	梁咏琪	16	李宗盛	李宗盛	李正帆
I Think I	范玮琪	16	王雅君	Park	
且行且珍惜	张信哲	16	陈道明/厉曼婷	伍思凯	伍思凯
像风一样自由	许巍	16	许巍	许巍	
不让我的眼泪陪我过夜	齐秦	16	白进法	吕祯晃·张	
Susan Said	David Tao	16			
我爱你	卢广仲	16	卢广仲	卢广仲	
分享	伍思凯	16			
傻子才悲伤	朴树	16	朴树	朴树	张亚东
过完冬季	李玟	16	楼南蔚	李正帆	李正帆
他不懂	张杰	16	周振霆/	唐湘智	
Just Give Me A Reason	P!nk Feat. Nate Ruess	16			
花好月圆夜	任贤齐	16	任贤齐	任贤齐	伍乐城
(Unlisted Track)	General Lee	16			
青春无悔(叶蓓+老狼)	高晓松	16			
用情	张信哲	16	陈家丽	薛忠铭	
等你爱我	陈明	16			
月光爱人	李玟	16	易家扬	谭盾/Jorge	
日光倾城	卡奇社	16			
至尊排行串串烧	王绍珏	16			
爱要坦荡荡	萧潇	16			
新鸳鸯蝴蝶梦	黄安	16	黄安	黄安	詹宏达
猜心	万芳	16	十一郎	张宇	
幸福不是情歌	刘若英	16	木兰号	木兰号	Jerry
想你的夜	茜拉	16			
Si Lu	梁静茹	16			
蓝旗袍	范晓萱	16	曹峻/李泉	李泉	黄中岳
Similar To Love	萧亚轩	16	易家扬	小安	钟成虎
因为爱	孙楠	16			
对你爱不完	金池	16			
魔鬼中的天使	田馥甄	16	姚若龙	陈小霞	王治平
自由	张震岳	16			
身边	无印良品	16	于光中、李宗盛	品冠	
真情人	李玟	16	易家扬	增田武史	增田武史
When It's Lonely	Wanting	16			
童年	罗大佑	16	罗大佑	罗大佑	罗大佑
吴奇隆vs苏有朋	小虎队	16			
情网	张学友	16	刘虞瑞	伍思凯	孙崇伟
突然想起你	萧亚轩	16	林夕	陈伟	陈伟
爱你不是两三天	未知	16			
突然想到理想这个词	郝云	16			
爱情电影	许茹芸	16	许常德	黄怡	屠颖
月牙湾	F.I.R.	16			
明明很爱你(黄品冠+梁静茹)	黄品冠	16			
陌生人	蔡健雅	16	姚谦	蔡健雅	Kevin
Need You Now	Lady Antebellum	16			
回家真好	刘德华	16	刘德华/李安修/陈富荣	梁文福	钟兴民
Airport Take Off	陶喆	16			
Zhi Fei Ji	林忆莲	16			
爱上未来的你	潘玮柏	16	Choi	Choi	Free
我们的小世界	彭坦	16	王旭东	王旭东	
寂寞三个人	金志文	16			
美丽人生	梁静茹	16	刘思铭	刘志宏	黄中岳
Yi Ge Ren De Jing Cai	萧亚轩	16			
罗马假期	古巨基	16	林家敏	张佳添	Billy
叶子	阿桑	16	陈晓娟	陈晓娟	钟兴民
祝我幸福	杨乃文	16	施立	陈小霞	
忘忧草	周华健	15	陈没	宇德敬子	
爱我的人和我爱的人	游鸿明	15	许常德	游鸿明	
忘忧草(周华健)	合辑	15	宇德敬子	宇德敬子	
Qian Li Zhi Wai	周杰伦	15			
你那么爱她	林隆璇, 李圣杰	15			
Super Star	S.H.E	15			
天涯	任贤齐	15	陈没	中岛美雪	蔡宗政
Ut Re Mi February 2005	Sean Luciw	15			
站在高岗上	张惠妹	15	姚敏	司徒明	Martin
出卖	那英	15	林夕	周传雄	吴庆隆
你的眼睛背叛你的心	郑中基	15	古倩敏	古倩敏	赵增熹
我真的受伤了	张学友	15	王菀之	王菀之	江建民
蓝色土耳其	周传雄	15	陈信荣　	周传雄　	Terence
你就不要想起我	Hebe	15			
Xiao Fu Qi	蔡淳佳	15			
孤独患者	陈奕迅	15	小寒	方大同	Edward
丝路	梁静茹	15	五月天阿信	王力宏	王力宏
Tik Tok	Ke$ha	15			
新不了情	萧敬腾	15	黄郁	鲍比达	
愿赌服输	那英	15	那英	吴大卫	
你的每个瞬间	成诗京	15			
洋葱	杨宗纬	15			
左右为难	郑中基	15	娃娃	Andy	Andy
天生一半	郑秀文	15	陈少琪	陈奂仁	
情人	Beyond	15			
酒矸倘卖呒	苏芮	15	侯德建	侯德建	Ricky
到不了	范玮琪	15	范玮琪	张洪量	
那女孩对我说	黄义达	15	易家扬	李偲菘	Adam
告诉我	陈绮贞	15	陈绮贞	陈绮贞	林暐哲/陈绮贞
Love Song	方大同	15	林夕	方大同	
爱的路上只有你和我	任贤齐	15	阿弟	阿弟	佚名
我们的纪念日	范玮琪	15	姚若龙	陈小霞	于京延
小小的太阳	张宇	15	十一郎	张宇	
我是真的爱你	周华健/李宗盛	15			
As Long As You Love Me	Backstreet Boys	15			
第三天	谢雨欣	15	小柯　	小柯	
Can't Remember To Forget You	Shakira Feat. Rihanna	15			
Fu Kua	陈奕迅	15			
Nobody	Wonder Girls	15			
I Won't Let You Be Lonely (Wo Bu Yuan Rang Ni Yi Ge Ren)	五月天	15			
夏天的风	温岚	15	天天	周杰伦	林迈可
寂寞的季节	陶喆	15	娃娃	陶喆	
祝你一路顺风	吴奇隆	15	吴奇隆	李子恒	Ricky
两只恋人	曹格	15	徐世珍	曹格	涂惠源
狠狠爱	徐若瑄	15	徐世珍	Marcus	陈伟
小夫妻	蔡淳佳	15	陈静楠	方文良	许恒瑞
生来徬徨	汪峰	15			
蛋炒饭	庾澄庆	15	彭承吉	彭承吉	钟成虎
Payphone	Maroon 5 Feat. Wiz Khalifa	15			
Yue Ban Wan	Kun Chen	15			
爱我的人和我爱的人	裘海正	15	许常德	游鸿明	涂惠源/徐德昌
好心情	李玟	15	姚谦	季龙祥	李伯杰
海浪	黄品源	15			
坏童话	何洁	15			
浪花一朵朵	陈庆祥	15			
Don't Break My Heart	黑豹	15	窦唯	窦唯	
珊瑚海(周杰伦+Lara)	周杰伦	15	方文山	周杰伦	
一天一点爱恋	梁朝伟	15	周治平	周治平	王继康
梦田	齐豫	15	三毛	翁孝良	
Stronger (What Doesn't Kill You)	Kelly Clarkson	15			
I Remember	飞儿乐团	15	阿沁、吴易纬	阿沁	
你给我一片天	成龙	15	厉曼婷	偲菘/伟菘	
不可能错过你	王力宏	15	余光中	陈伟	
青苹果乐园	小虎队	15	丁晓雯	Jimmy	
爱上你等于爱上寂寞	那英	15	徐光义	徐光义	鲍比达
爱×无限大	元若蓝	15			
对你爱不完	郭富城	15			
恋曲1990(罗大佑)	影视原声	15			
兄弟	任贤齐	15			
一比一	范玮琪	15	李焯雄	陶喆	陶喆
龙的传人	王力宏	15	侯德健/王力宏(改编)	侯德健	
月亮代表我的心	邓丽君	15	孙仪	汤尼	卢东尼
为什么你背着我爱别人	许志安	15	张翠华	张洪量	屠颖
花火	梁咏琪	15	梁咏琪	梁咏琪	
月亮可以代表我的心	杨坤	15			
Ru Guo Bu Neng Hao Hao Ai	Kenji Wu	15			
来生缘	刘德华	15	刘德华	胡伟立	李伯杰
流浪者之歌	陈绮贞	15	陈绮贞	陈绮贞	李雨寰
梦醒了	那英	15	袁惟仁	袁惟仁	陈飞午
真心真意过一生	叶倩文	15			
栀子花开	何炅	15			
Xiao Sa Zou Yi Hui	Sally Yeh	15			
晴朗	老狼	15	词	词	许巍吉它：梁剑峰小打：刘效松鼓：郑朝晖贝司
淘汰	陈奕迅	15	周杰伦	周杰伦	C.Y.Kong
Shuo Ai Ni	Jolin Tsai	15			
彩云追月	爱戴	15	爱戴Edell	佚名	
出发 (亡命之徒)	纵贯线	15			
离歌	信乐团	15	姚若龙	Gyoon	
Forever Love	王力宏	15	王力宏/十方/何启宏/于景雯	王力宏	王力宏/吴庆隆
九百九十九朵玫瑰	邰正宵	15	林利南	邰正宵	
Sing For Lonely Souls	佳佳	15			
思念谁	巫启贤	15	沈庆	逯学军	
爱在西元前	周杰伦	15	方文山	周杰伦	
一直很安静	阿桑	15	方文山	如花如岳	屠颖
Super Duper Fly	张震岳&MC Hotdog&顽童MJ116	15			
离开我	陶晶莹	15	袁惟仁	袁惟仁	江建民
我多么羡慕你	江美琪	15	姚谦	张洪量	
男人女人	许茹芸+阿穆隆	15	吴克群	吴克群	
我的要求不算高	黄渤	15			
棋子	王菲	15	潘丽玉	杨明煌	屠颖
耶利亚女郎	童安格	15	童安格	童安格	
我为你伤心	苏永康	14			
可以爱你真好	蔡健雅	14	徐世珍	张佳添	Kennc
别怕我伤心	张信哲	14	李宗盛	李宗盛	鲍比达
歌未央	杨宗纬	14	杨宗纬	陈建骐	
Gong Zhuan Zi Zhuan	王力宏	14			
爸爸妈妈	王蓉	14			
每天想你一遍	林志炫	14	潘协庆	潘协庆	
二十二	陶喆	14	陶喆/娃娃	陶喆	陶喆
铁血丹心	罗文/甄妮	14	邓伟雄	顾嘉辉	
月光	王心凌	14	Sugiyama	桥本淳	Terence
永远在身边	大嘴巴	14	Soulja	Soulja	
Deep	孙燕姿	14			
拥抱你的微笑	郭静	14	王雅君	纪佳松	
残酷月光	林宥嘉	14	向月娥	陈小霞	陈辉阳
闪闪惹人爱	萧亚轩	14	陈镇川	Magnus	蔡庭贵
得意的笑	李丽芬	14	小虫	小虫	
北极雪	陈慧琳	14			
半糖主义	S.H.E	14			
满满的爱	满文军	14			
牵手	张惠妹	14	阿怪	阿怪	Martin
My Heart Will Go On	Céline Dion	14			
谢谢你的爱1999	谢霆锋	14	林利南	陈俊廷	Terence
别在伤口洒盐	张惠妹	14	邬裕康	郭子	王豫民
恭喜发财	刘德华	14			
Shi Fei Ti	Ya Jun Wang & Wei Qi Fan	14			
眼泪	范晓萱	14			
冬天里的一把火	费翔	14			
Hotel California	Eagles	14			
我只在乎你	邓丽君	14	慎芝	Takashi	
西厢	后弦	14	后弦	后弦	后弦
给自己的歌	纵贯线	14	李宗盛	李宗盛	纵贯线
Wo Men De Ji Nian Ri	Wei Qi Fan	14			
你不是真正的快乐	五月天	14	阿信	阿信	五月天<br
爱情抗体	许慧欣	14	易家扬	Han	Kim
好听	许茹芸	14	吴克群	吴克群	Op.dan(鸦片丹)
情歌	梁静茹	14	陈没	伍冠谚	陈建骐
这样爱你对不对	陈淑桦	14	李宗盛	李宗盛	
蝴蝶飞呀	小虎队	14	李子恒	李子恒	Ricky
Team	Lorde	14			
他一定很爱你	阿杜	14	李志清	李志清	David
A Perfect Day	孙燕姿	14			
散了吧	林志炫	14	SA：姚若龙	Goldman、Jean-Jacques	
春泥	内地合辑	14			
如果这就是爱情 (我相信)	张靓颖	14	阿弟仔	阿弟仔	廖伟杰
奈斯男孩	曹格	14			
热带雨林	S.H.E	14			
爱转角	终止一切	14			
可爱的玫瑰花	辛晓琪	14	晓燕	京平	
当你	王心凌	14	张思尔	林俊杰	Martin
爱笑的眼睛	林俊杰	14	瑞业	林俊杰	
荷塘月色	凤凰传奇	14	张超	张超	
尚好的青春	孙燕姿	14	潘协庆	郭文贤	蔡明耀
记得	林俊杰	14	林秋离	林俊杰	蔡政勋
被遗忘的时光	蔡琴	14	陈宏铭	陈宏铭	
你不知道的事	王力宏	14			
愚人码头	熊天平	14	许常德	刘天健	陈飞午
壮志在我胸	成龙	14	李宗盛	李宗盛	
空城	杨坤	14			
坐在巷口的那对男女	自然卷	14			
Ocean	彭坦&春晓	14			
不醉不会	田馥甄	14	林夕	刘大江	JerryC
遗憾	方炯镔	14	陈佳明	陈佳明	非非
Zhu Fu	张学友	14			
深情相拥	张国荣	14	黄郁/莫如升	张国荣	Chris
心跳	王力宏	14			
柴米油盐酱醋茶	王力宏	14	徐若瑄	王力宏	
I Will Always Love You	Whitney Houston	14			
相信自己	零点乐队	14			
你爱我像谁	张卫健	14	林夕	陈德建	苏德华
把你宠坏	杜德伟	14	姚谦	Yang	Yang
初恋的地方	王菲	14	孙仪	刘家昌	
张三的歌	齐秦	14	张子石	张子石	
雨蝶	李翊君	14	许常德/琼瑶	张宇	
安静	周杰伦	14	周杰伦	周杰伦	钟兴民
Forget The Trip	Tia Ray	14			
祝我生日快乐	温岚	14	郑中庸	周杰伦	林迈可＠铁竹堂
姐妹	张惠妹	14	张雨生	张雨生	王继康
偶阵雨	梁静茹	14	陈没	木兰号aka陈韦伶	于京延
梦醒了(那英,王菲)	那英	14	袁惟仁	袁惟仁	陈飞午
心会跟爱一起走	陈洁仪	14	刑增华	郭峰	
火力全开	王力宏	14			
最长的电影	茜拉	14			
我也不想这样	王菲	14	林夕	Alex	
许愿	古巨基	14	何启弘	凌伟文	
死了都要爱	信乐团	14	Lee	Yoo	
Take Care	黑豹	14	黄小茂	窦唯	
雪人	范晓萱	14	许常德	季忠平	涂惠元
打起手鼓唱起歌	莫文蔚	14	韩伟	施光南	郑伟
Clint Eastwood	Gorillaz	14			
那个遥远的今天	波菜00	14			
分飞	徐怀钰	14	黄郁	陈国华	
钟爱一生	杜德伟	14	林姿伶/小虫	小虫	
悬崖	齐秦	14	许常德	季忠平	
飄雪	韩雪	14			
风中的承诺	李翊君	14	吕国梁	马凯诺(Koji	
天黑黑	孙燕姿	14	廖莹如&April	李偲菘	吴庆隆
千年之恋	大山	14			
回家乡	羽·泉	14			
Qing Fei De Yi	庾澄庆	14			
风往北吹	孙楠	14			
波斯猫	S.H.E	14			
垭口2014	齐秦&Steve Vai	14			
Red Bean	方大同	14	林夕	柳重言	
懂你	满文军	14			
一路向北	周杰伦	14	方文山	周杰伦	蔡科俊
花房姑娘	林志炫	14	崔健	崔健	韩贤光
流星雨	F4乐队	14			
我这个你不爱的人	迪克牛仔	14	十方	凌伟文	许华强
姐姐妹妹站起来	陶晶莹	14	刘思铭	刘志宏	王继康
我终于失去了你	赵传	14	沈光远　	赵传	
两个人的烟火	黎明	14	林夕	雷颂德	
美	王力宏	14			
突然的自我	伍佰	14	徐克/伍佰	伍佰	
淡淡的歌	许飞	14			
寂寞让我如此美丽	陈明	14			
晚霞中的红蜻蜓	杨钰莹	14			
Fall In Love	曹格	14	詹兆源	曹格	
我的心太乱	周传雄	14	丁晓雯	周传雄	
风继续吹	张国荣	14	郑国江	Ryudo	
蜀绣	李宇春	14	郭敬明	刘佳、严丹丹	
青春再见	水木年华&老狼&李健&叶世荣	14			
男人KTV	胡彦斌	14	林文炫	胡彦斌	
情人节	吴克群	14			
潇洒走一回	叶倩文	14			
不想让你知道	周蕙	14	姚谦	陈文华/周炳星	王豫民
爱的海洋	婉婷	14	曲婉婷	曲婉婷	
Cai Hong	周杰伦	14			
步步	五月天	14	阿信	阿信+Cola	五月天
空气中等待	EricLdc	14			
三天三夜	张惠妹	14	阿怪	阿怪	Martin
再遇见	苏打绿	14	吴青峰	吴青峰	苏打绿、林暐哲
香水百合	张韶涵	13	李天龙	李天龙	
天使旅行箱	赵薇	13	林乔/李泉	李泉	安栋
You Yi Dian Dong Xin	张信哲	13			
