﻿[
	{title: "Tab1", url: "pages/page1.html", refreshOnClick: true},
	{title: "Tab2", url: "pages/page2.html", showCloseButton: true},
	{title: "Tab3", url: "pages/page3.html"},
	{title: "Tab4", url: "pages/page4.html"},
	{title: "Tab5", url: "pages/page5.html"}
]