23933:贵州|20063|贵州新闻广播|94.6
5047:贵州|5047|黔东南新闻综合广播|104.9
1775:贵州|1775|贵阳都市女性频率|104.0
78221:贵州|20741|贵州遵义交通广播|
23935:贵州|20065|贵州经济广播|98.9
1773:贵州|1773|贵阳新闻综合广播|88.9
5046:贵州|5046|黔西南交通旅游广播|88.3
4874:贵州|4874|贵阳SimulRadio|90.9
1774:贵州|1774|贵阳交通广播|102.7
23929:贵州|20059|贵州旅游广播|97.2
23937:贵州|20067|贵州音乐广播|91.6
23925:贵州|20055|V-FM106.2汽车广播|106.2
23931:贵州|20061|贵州故事广播|90.0
5045:贵州|5045|黔西南新闻广播|107.9
23927:贵州|20057|贵州交通广播|95.2
80437:贵州|20699|兴义新闻综合广播|
1220:河南|1220|郑州新闻广播|98.6
1219:河南|1219|河南私家车广播|99.9
1226:河南|1226|洛阳经济广播|106.5
59438:河南|20206|濮阳音乐广播|99.2
61640:河南|20382|安阳好朋友881|88.1
82615:河南|20805|焦作生活文艺广播|
1224:河南|1224|郑州电台FM88.9|88.9
1212:河南|1212|南阳电台交通广播|97.7
1223:河南|1223|郑州电台经典1079|107.9
1209:河南|1209|河南交通广播|104.1
78033:河南|20509|郑州豫剧广播|
1227:河南|1227|洛阳交通广播|92.7
1218:河南|1218|河南社区广播|107.4
2123:河南|2123|安阳汽车音乐台|100.8
87811:河南|20901|焦作交通旅游广播 |
1207:河南|1207|河南电台城市之声|106.6
1216:河南|1216|河南经济广播|103.2
1215:河南|1215|河南新闻广播|95.4
1206:河南|1206|河南Myradio|90.0
1222:河南|1222|郑州私家车|91.8
2138:河南|2138|安阳交通广播|89.0
1225:河南|1225|洛阳新闻广播|88.1
1211:河南|1211|郑州交通广播|91.2
5050:河南|5050|濮阳新闻综合广播|100.1
78219:河南|20575|商丘电台交通频道|
1208:河南|1208|河南音乐广播|88.1
1213:河南|1213|南阳新闻频率|104.2
1221:河南|1221|郑州经济生活|93.1
4921:河南|4921|郑州音乐广播|94.4
1540271:山东|21253|烟台环球广播|88.4
1678:山东|1678|淄博新闻广播|
1673:山东|1673|青岛新闻广播|107.6
1561087:山东|21255|潍坊最爱调频983|98.3
1681:山东|1681|淄博音乐广播|92.6
60264:山东|20244|山东乡村广播|91.9
1668:山东|1668|济南经济广播|90.9
4001:山东|4001|德州评书故事广播|98.9
1672:山东|1672|济南故事广播|104.4
60334:山东|20296|济宁经典音乐广播|89.0
24466:山东|20142|东营交通音乐广播|88.1
1671:山东|1671|济南Music887|88.7
1684:山东|1684|烟台交通广播|103.0
60180:山东|20234|山东新闻广播|95
1683:山东|1683|烟台经济广播|105.9
1677:山东|1677|青岛音体广播|91.5
60262:山东|20242|山东交通广播|101.1
1679:山东|1679|淄博私家车广播|106.7
84511:山东|20839|潍坊爱家广播|
4956:山东|4956|青岛故事广播|100.8
4003:山东|4003|德州文艺生活广播|104.1
1669:山东|1669|济南交通广播|103.1
60258:山东|20238|山东女主播电台|97.5
82617:山东|20807|即墨新闻交通电台|101.7
24323:山东|20089|济宁音乐广播|103.1
52478:山东|20184|潍坊欢乐调频|89.9
4008:山东|4008|济宁经济生活广播|99.3
1663725:山东|21301|日照广播都市频率|
1666:山东|1666|邹平故事音乐频道|103.4
4865:山东|4865|潍坊908音乐广播|90.8
24468:山东|20144|东营经济广播|105.3
1685:山东|1685|烟台音乐广播|91.2
1663701:山东|21299|日照文艺体育频率|104
1680:山东|1680|淄博交通文艺|100.0
60260:山东|20240|山东生活广播|105
1682:山东|1682|烟台新闻广播|101.0
1675:山东|1675|青岛私家车电台|96.4
84515:山东|20843|青州人民广播电台|95.4
4014:山东|4014|潍坊交通音乐广播|95.9
1626601:山东|21291|TOP RADIO 934|93.4
24321:山东|20087|济宁交通广播|104.2
4004:山东|4004|德州新闻综合广播|92.9
3994:山东|3994|临沂财富广播|93.2
84509:山东|20837|潍坊故事广播|107.1
1670:山东|1670|936私家车广播|93.6
1676:山东|1676|青岛交通广播|89.7
1674:山东|1674|青岛经济广播|102.9
1626591:山东|21289|FIRST RADIO 988|98.8
60266:山东|20246|山东体育广播|102.1
4006:山东|4006|日照新闻综合广播|95.0
60358:山东|20320|潍坊新闻频率|100.2
24325:山东|20129|济南文艺广播|100.5
4002:山东|4002|德州交通音乐广播|94.1
79189:山东|20671|威海文艺电台|
1665:山东|1665|山东城市之音|99.1
79187:山东|20669|威海新闻电台|
24470:山东|20146|东营新闻广播|91.0
78141:山东|20519|滨州交通音乐广播|
93655:山东|21211|菏泽交通广播|94.8
1667:山东|1667|济南新闻广播|106.6
4901:山东|4901|济宁新闻广播|104.2
1176409:山东|21217|长岛之声品味音乐|107.2
91899:山东|21175|菏泽音乐广播|89.1
4015:山东|4015|潍坊音乐广播|88.7
3992:山东|3992|临沂新闻广播|97.6
4005:山东|4005|日照交通生活广播|88.1
33446:山东|20176|青岛开发区广播|92.6
60198:山东|20236|山东经济广播|98.6
1122:四川|1122|乐山新闻综合|102.8
4887:四川|4887|四川私家车广播|90.0
78149:四川|20529|自贡文化旅游广播|
4931:四川|4931|成都环球资讯广播|96.5
1117:四川|1117|成都飞跃在线|
4905:四川|4905|攀枝花汽车电台|91.0
4926:四川|4926|四川健康894|89.4
5012:四川|5012|成都快乐私家车|105.1
78159:四川|20541|宜宾交通广播 |
79191:四川|20673|江油电台阳光调频|
4027:四川|4027|眉山综合广播|90.8
4023:四川|4023|唯一音乐广播|103.2
4904:四川|4904|攀枝花综合广播|88.5
1115:四川|1115|四川民族频率|AM954
4892:四川|4892|成都经典946|94.6
52318:四川|20180|遂宁交通音乐广播|87.8
78151:四川|20531|自贡新闻综合广播|
4024:四川|4024|绵阳新闻广播|96.7
1110:四川|1110|四川岷江音乐频率|95.5
1121:四川|1121|成都经济广播|105.6
78595:四川|20603|宜宾酒都音乐广播|
1116:四川|1116|四川旅游生活广播|97.0
4025:四川|4025|绵阳音乐广播|91.2
4927:四川|4927|四川财富广播|94.0
1111:四川|1111|四川城市之音|102.6
78157:四川|20539|宜宾新闻广播|
78145:四川|20525|四川南部新闻综合广播|
52320:四川|20182|遂宁新闻故事广播|99.7
4026:四川|4026|绵阳交通广播|103.3
4906:四川|4906|四川新闻资讯广播|106.1
86745:四川|20865|仪陇新闻综合广播|98.7
24227:四川|4987|德阳音乐交通广播|107.8
4897:四川|4897|成都新闻广播|99.8
4939:四川|4939|四川私家车925|92.5
4076:四川|4076|凉山之声|95.8
1319383:四川|21231|四川南充交通音乐频率|91.5
4864:四川|4864|乐山音乐交通广播|100.5
4907:四川|4907|四川公共新闻广播|98.1
4886:四川|4886|四川交通广播|101.7
4891:四川|4891|成都交通广播|91.4
4957:四川|4957|四川什邡聆悦调频|92.0
1525:香港|1525|香港电台普通话台|100.9
1521:香港|1521|电台故障|96.3
1520:香港|1520|香港电台一台|93.5
1523:香港|1523|香港电台四台|98.1
5084:香港|5084|鳳凰URadio综合台|
5085:香港|5085|鳳凰URadio音樂台|
1519:香港|1519|电台故障|88.1
1524:香港|1524|电台故障|99.4
24319:香港|20127|新城数码音乐台|
4120:香港|4120|电台故障|90.3
1522:香港|1522|香港电台三台|106.8
4999:江苏|4999|高淳人民广播电台|
4966:江苏|4966|南京体育广播|104.3
60570:江苏|20330|盐城新闻综合频率|99.6
4586:江苏|4586|淮安交通文艺|94.9
4962:江苏|4962|南京交通广播|102.4
4054:江苏|4054|江苏交通广播|101.1
3982:江苏|3982|宜兴交通广播|90.9
2796:江苏|2796|常州交通广播|90.0
2778:江苏|2778|无锡经济广播|104.0
2806:江苏|2806|苏州交通广播|104.8
4924:江苏|4924|徐州交通广播|103.3
77837:江苏|20503|泰州新闻广播|103.7
1606731:江苏|21275|南通音乐广播|91.8
2800:江苏|2800|常州资讯娱乐|103.4
5055:江苏|5055|江苏新闻综合广播|702
2795:江苏|2795|常州怀旧广播|92.7
2775:江苏|2775|连云港交通广播|92.7
2808:江苏|2808|苏州新闻广播|91.1
2809:江苏|2809|邳州人民广播电台|103.5
23885:江苏|20016|南京炫动106.6|106.6
2782:江苏|2782|无锡江南之声|92.6
78819:江苏|20631|如皋汽车广播|
4588:江苏|4588|淮安汽车音乐|104.2
3985:江苏|3985|镇江交通广播|88.8
2773:江苏|2773|连云港新闻广播|93.6
1322891:江苏|21239|常州戏曲广播|747
61178:江苏|20344|昆山新闻生活广播|88.9
4964:江苏|4964|南京经济广播|98.1
24459:江苏|20135|泰州交通广播|92.1
23877:江苏|20012|江苏故事广播|585
2789:江苏|2789|飞扬907江阴汽车电台|90.7
4960:江苏|4960|南京新闻广播|106.9
4959:江苏|4959|南京新闻综合广播|1008
4925:江苏|4925|徐州文艺广播|89.6
2783:江苏|2783|无锡都市生活|98.7
5071:江苏|5071|丹阳交通音乐广播|88.3
2794:江苏|2794|常州城市调频|105.2
23879:江苏|20013|江苏文艺广播|91.4
5004:江苏|5004|宿迁交通音乐广播|88.5
4589:江苏|4589|淮安新闻综合|106.7
3983:江苏|3983|宜兴新闻广播|96.1
2799:江苏|2799|常州爱听音乐|93.5
2803:江苏|2803|苏州音乐广播|94.8
2805:江苏|2805|扬州音乐广播|94.9
2781:江苏|2781|无锡故事戏曲|1008
5005:江苏|5005|宿迁爱心广播|106.3
2780:江苏|2780|无锡交通广播|106.9
5006:江苏|5006|镇江城市905|90.5
2807:江苏|2807|苏州汽车广播|102.8
23881:江苏|20014|江苏健康广播|846
4587:江苏|4587|淮安经济生活|91.8
4963:江苏|4963|南京音乐广播|105.8
78147:江苏|20527|宿迁新闻广播|92.1
4944:江苏|4944|江苏新闻广播|93.7
5001:江苏|5001|仪征广播电台|94.3
3984:江苏|3984|镇江新闻广播|104
2793:江苏|2793|常熟音乐广播|927
2779:江苏|2779|无锡音乐频率|91.4
60274:江苏|20254|新沂之声|99.9
4605:江苏|4605|镇江音乐广播|96.3
2804:江苏|2804|扬州交通广播|103.5
5056:江苏|5056|江苏汽车调频|99.7
5070:江苏|5070|丹阳新闻综合广播|97.9
24465:江苏|20141|泰州音乐广播|
2798:江苏|2798|常州新闻广播|846
3987:江苏|3987|镇江健康生活广播|94.0
2801:江苏|2801|苏州生活广播|96.5
60572:江苏|20332|盐城黄海明珠广播|93.9
2792:江苏|2792|常熟新闻广播|1116
24476:江苏|20150|武进动听886|88.6
2790:江苏|2790|江阴快乐生活调频 |106
63158:江苏|20410|南京心动885|88.5
23883:江苏|20015|江苏财经广播|1206
4938:江苏|4938|江苏经典流行音乐|97.5
2769:江苏|2769|南京MYFM1035|103.5
4922:江苏|4922|徐州新闻广播|93.0
4923:江苏|4923|徐州电台调频916|91.6
2797:江苏|2797|常州生活健康|100.1
2774:江苏|2774|连云港城市之声|90.2
5000:江苏|5000|扬州新闻广播|98.5
5003:江苏|5003|睢宁人民广播电台|93.1
3988:江苏|3988|镇江私家车电台|102.7
1611381:江苏|21277|魅力蓝南通综合广播|97.0
4961:江苏|4961|966私家车广播|96.6
60566:江苏|20326|盐城交通广播|105.3
2777:江苏|2777|无锡资讯广播|93.7
2776:江苏|2776|无锡新闻广播|1161
4936:江苏|4936|江苏音乐魅力897 |89.7
2791:江苏|2791|常熟交通广播|100.8
1570089:江苏|21265|宿迁音乐广播|105.5
5008:青海|5008|青海经济广播|107.5
5007:青海|5007|青海新闻综合广播|98.9
5009:青海|5009|青海交通音乐|97.2
5010:青海|5010|青海藏语广播|99.7
1922:新疆|1922|乌鲁木齐综合广播|792
4029:新疆|4029|新疆MYFM1039|103.9
1925:新疆|1925|克拉玛依新闻综合|1179
1903:新疆|1903|新疆蒙柯语广播|95.5
1906:新疆|1906|新疆维语综合广播|93.4
1916:新疆|1916|伊犁哈语新闻综合|88.4
1908:新疆|1908|新疆哈语广播|88.9
1921:新疆|1921|乌鲁木齐经济广播|927
67138:新疆|20440|乌鲁木齐交通文艺广播|103.3
1923:新疆|1923|乌鲁木齐维语广播|104.6
1603283:新疆|21273|哈密电台维语综合广播|107.9
1919:新疆|1919|乌鲁木齐交通广播|97.4
1902:新疆|1902|新疆961新闻广播|96.1
78923:新疆|20639|新疆电台维语文艺广播|
89881:新疆|21001|新疆990新闻音乐广播|99.0
1924:新疆|1924|克拉玛依都市调频|92.6
1904:新疆|1904|新疆绿色广播|738
1911:新疆|1911|新疆故事广播|102.8
76186:新疆|20480|新疆民生广播|92.4
1909:新疆|1909|新疆城市广播|92.9
1918:新疆|1918|乌鲁木齐新闻广播|100.7
1920:新疆|1920|乌鲁木齐旅游音乐|106.5
1915:新疆|1915|伊犁交通文艺广播|100.8
60356:新疆|20318|克拉玛依维语广播|
1603279:新疆|21271|哈密电台交通文艺广播甜蜜之声|98.1
1913:新疆|1913|伊犁新闻综合频率|96.3
1914:新疆|1914|伊犁经济广播|95.3
1917:新疆|1917|伊犁维语新闻综合|93.4
78067:新疆|20517|1053怀旧金曲广播 |
1910:新疆|1910|新疆交通广播|94.9
1744:福建|1744|海峡之声新闻广播|AM666
24283:福建|4846|893女主播电台|89.3
1736:福建|1736|987私家车广播|98.7
78143:福建|20523|平潭人民广播电台|98.5
1737:福建|1737|厦门新闻广播|99.6
5033:福建|5033|海峡之声综合广播|97.9
5032:福建|5032|海峡之声阳光调频|99.6
1734:福建|1734|福建东南广播|585
4585:福建|4585|福建汽车音乐调频|91.3
1741:福建|1741|厦门旅游广播|94.0
5034:福建|5034|宁德人民广播电台|101.7
1743:福建|1743|漳州交通广播|92.7
24281:福建|3937|福州左海之声|90.1
1740:福建|1740|厦门闽南之声广播|101.2
24279:福建|5026|福州交通之声|87.6
1742:福建|1742|漳州综合广播|96.2
1746:福建|1746|海峡之声闽南语广播|AM783
80449:福建|20711|龙岩旅游之声|
3881:福建|3881|德化人民电台|FM91.9
1738:福建|1738|厦门经济交通广播|107.0
1731:福建|1731|福建新闻广播|103.6
1733:福建|1733|福建交通频率|100.7
1739:福建|1739|厦门音乐广播|90.9
80447:福建|20709|龙岩新闻综合频道|
5031:福建|5031|海峡之声汽车生活|90.6
1732:福建|1732|财经961·福建经济电台|96.1
60344:浙江|20306|武义人民广播电台|87.1
4522:浙江|4522|浙江交通之声|93.0
1145:浙江|1145|台州新闻综合 |FM98.7
92129:浙江|21181|东阳城市广播|100.2
23863:浙江|1156|温州交通广播|103.9
1163:浙江|1163|杭州西湖之声|105.4
4866:浙江|4866|浙江音乐调频|96.8
4521:浙江|4521|浙江民生996|99.6
1158:浙江|1158|温州绿色之声|93.8 
78153:浙江|20533|义乌电台交通广播|
4523:浙江|4523|浙江城市之声|107.0
5054:浙江|5054|绍兴音乐广播|103.5
2810:浙江|2810|湖州新闻综合|105.0
1148:浙江|1148|萧山人民广播|107.9
23865:浙江|1149|温州私家车音乐|100.3
68230:浙江|20444|衢州新闻广播|105.3
87817:浙江|20967|富阳人民广播电台|100.4
1162:浙江|1162|舟山城市生活|FM91.0
2812:浙江|2812|湖州交通广播|103.5
23871:浙江|20005|FM96.4乐活广播|96.4
1136:浙江|1136|嘉兴生活广播|88.2
58828:浙江|20204|乐清人民广播|99.5
1141:浙江|1141|宁波老少广播|90.4 
1146:浙江|1146|台州交通广播|102.7
1151:浙江|1151|玉环人民广播|91.3
1161:浙江|1161|舟山交通经济|FM97.0
1138:浙江|1138|宁波新闻电台|92.0
77891:浙江|20505|杭州华语之声|96.0
1137:浙江|1137|金华新闻广播|104.4
5052:浙江|5052|绍兴新闻广播|93.6
23909:浙江|20035|1001甬江之声|100.1
1154:浙江|1154|嘉兴新闻广播|104.1
4524:浙江|4524|浙江女主播电台|104.5
88375:浙江|20975|三门人民广播电台|104.6
23867:浙江|1157|温州经济生活|88.8
1131:浙江|1131|余杭丽人广播|102.1
1152:浙江|1152|宁波经济广播|102.9
23861:浙江|1155|温州新闻广播|94.9
1153:浙江|1153|宁波快乐之声|100.8
4518:浙江|4518|浙江之声|101.6
2422:浙江|2422|绍兴经典汽车广播|106.0
1133:浙江|1133|杭州交通91.8电台|91.8
4519:浙江|4519|浙江财富广播|95.0
1140:浙江|1140|宁波交通广播|93.9
4579:浙江|4579|浙江悦动之音|95.4
1142:浙江|1142|宁波私家车986|98.6
1144:浙江|1144|台州音乐广播|100.0
78277:浙江|20597|金华经济广播私家车101 |101.4
5053:浙江|5053|绍兴交通广播|94.1
68228:浙江|20442|衢州交通广播|97.5
1147:浙江|1147|萧山有线广播|
1132:浙江|1132|杭州新闻综合|
28134:浙江|20162|金华交通广播|94.2
4567:浙江|4567|温岭人民广播电台|103.6
78155:浙江|20537|义乌新闻广播|
23901:浙江|20033|宁波私家车音乐台|104.7
60330:浙江|20292|普陀人民广播|93.3
1134:浙江|1134|杭州之声|89.0
2811:浙江|2811|湖州都市文艺|98.5
1164:浙江|1164|余杭有线广播|102.1 
1160:浙江|1160|舟山新闻综合|99.8
1135:浙江|1135|嘉兴交通广播|92.2
1289:湖北|1289|楚天音乐广播|105.8
1306:湖北|1306|湖北时尚女性广播|102.6
1307:湖北|1307|襄阳之声|104.0
5066:湖北|5066|荆门城市生活广播|89.7
1308:湖北|1308|襄阳交通广播|89.0
52756:湖北|20198|武汉新闻广播|88.4
3964:湖北|3964|黄石交通经济广播|103.3
1290:湖北|1290|湖北资讯广播|AM1179
90653:湖北|21023|930私家车音乐广播|93.0
4665:湖北|4665|武汉交通广播|89.6
78209:湖北|20565|宜昌新闻综合台|
1624965:湖北|21285|ONE RADIO 933|93.3
1291:湖北|1291|楚天交通广播|92.7
1312:湖北|1312|荆广交通音乐频率汽车广播|90.1
90657:湖北|21027|随州交通台|96.2
61100:湖北|20342|十堰交通音乐广播|101.9
61094:湖北|20338|十堰新闻广播|94.1
77499:湖北|20495|荆广交通音乐频率丽人音乐|96.3
4671:湖北|4671|湖北私家车广播|107.8
1295:湖北|1295|湖北经济广播|99.8
1296:湖北|1296|湖北经典音乐广播|103.8
1309:湖北|1309|襄阳汽车广播|105.3
60808:湖北|20336|荆门交通音乐频率|99.3
1300:湖北|1300|黄石新闻频率|101.2
5067:湖北|5067|咸宁新闻广播|88.1
1297:湖北|1297|武汉经典音乐广播|101.8
5057:湖北|5057|襄阳经济广播|90.9
90655:湖北|21025|鄂州新闻频率|94.0
78211:湖北|20567|宜昌汽车台|
1293:湖北|1293|湖北生活广播|96.6
5064:湖北|5064|荆门新闻综合广播|96.6
1303:湖北|1303|湖北之声|104.6
52758:湖北|20200|武汉长江经济广播|100.6
1302:湖北|1302|湖北农村广播|91.6
5063:湖北|5063|公安县广播电台|102.6
85635:湖北|20853|随州新闻台|
78207:湖北|20563|宜昌交通音乐台|105.9
5011:湖北|5011|武汉品味936|93.6
23851:湖北|20075|荆州之声|97.2
5068:湖北|5068|咸宁交通广播|95.9
1178:天津|1178|天津音乐中波|1008
1169:天津|1169|天津生活广播|91.1
1174:天津|1174|天津文艺广播|104.6
4028:天津|4028|天津北方调频广播|92.1
1171:天津|1171|天津小说广播|666
1180:天津|1180|天津古典音乐|
1181:天津|1181|天津外语广播|
1173:天津|1173|天津经济广播|101.4
1165:天津|1165|塘沽电台滨海之声|100.1
1170:天津|1170|天津音乐广播|99.0
23869:天津|20003|天津MYFM100.5|100.5
1168:天津|1168|天津交通广播|106.8
1167:天津|1167|天津新闻广播|97.2 
1175:天津|1175|天津相声广播|92.1
1172:天津|1172|天津滨海广播|87.8
61636:江西|20380|南昌MYFM96.9|96.9
4606:江西|4606|江西FM98.5|98.5
60336:江西|20298|成功992财经之声|99.2
24405:江西|20133|江西旅游广播|97.4
1813:江西|1813|江西民生广播|FM101.9
41120:江西|20178|新余新闻广播|94.0
4920:江西|4920|南昌大眼睛897电台 |89.7
1811:江西|1811|江西交通广播|105.4
4942:江西|4942|赣州音乐广播|94.5
4941:江西|4941|赣州交通广播 |99.2
24231:江西|20093|新余交通广播|96.2
1810:江西|1810|江西都市广播|106.5
1802:江西|1802|江西音乐广播|103.4
23889:江西|20022|赣江之声FM92.3|92.3
62626:江西|20404|赣州红色广播|98.4
4870:江西|4870|南昌凤凰879|87.9
1176541:江西|21219|One Radio1009|100.9
60280:江西|20260|宜春电台明月之声|101.1
1804:江西|1804|南昌交通音乐频率|95.1
60342:江西|20304|鄱阳湖之声|97.4
1809:江西|1809|江西新闻广播|104.4
1803:江西|1803|南昌电台新闻频率|91.7
1805:江西|1805|南昌音乐故事频率|90.6
1807:江西|1807|上饶交通音乐|96.6
4933:江西|4933|南昌青山湖之声|93.4
1808:江西|1808|上饶新闻综合|93.4
60286:江西|20266|赣州新闻广播|
1316:西藏|1316|西藏都市生活广播|98.0
3960:黑龙江|3960|大庆交通广播|95.0
4975:黑龙江|4975|龙广北大荒之声|
4977:黑龙江|4977|龙广乡村台|945
4974:黑龙江|4974|龙广新闻台|94.6
90849:黑龙江|21049|哈尔滨城市广播|
23947:黑龙江|20077|哈尔滨新闻频率|106.2
3963:黑龙江|3963|大庆百湖之声|91.9
3959:黑龙江|3959|大庆新闻广播|97.5
3962:黑龙江|3962|大庆长书广播|90.9
4973:黑龙江|4973|龙广交通台|99.8
68236:黑龙江|20450|龙广天涯之声|104.6
839:黑龙江|839|哈尔滨音乐广播|90.9
4968:黑龙江|4968|龙广都市女性台|102.1
4976:黑龙江|4976|龙广高校台|99.3
3961:黑龙江|3961|大庆音乐广播|106.8
5073:黑龙江|5073|黑河广播电台|103.8
837:黑龙江|837|哈尔滨经济广播|97.2
4972:黑龙江|4972|龙广97频道|97.0
4969:黑龙江|4969|龙广音乐台|95.8
4970:黑龙江|4970|龙广生活台|104.5
68234:黑龙江|20448|龙广朝鲜语广播|873
3955:黑龙江|20083|哈尔滨文艺频率|98.4
838:黑龙江|838|哈尔滨交通广播|92.5
1561367:黑龙江|21261|哈尔滨快乐广播|97.3
1498:重庆|1498|重庆新闻广播|96.8
23857:重庆|4836|开县人民广播电台|89.0
1499:重庆|1499|重庆经济广播|101.5
1502:重庆|1502|重庆都市广播|93.8
647:重庆|647|重庆音乐广播|88.1
1501:重庆|1501|重庆文艺广播|103.5
1500:重庆|1500|重庆交通广播|95.5
4994:云南|4994|红河交通广播 |99.7
23943:云南|20023|云南蒙自广播电台|98.4
1928:云南|1928|云南交通之声|91.8
1536043:云南|21247|昭通鹤都之声|94.1
1934:云南|1934|昆明阳光频率|100.8
1935:云南|1935|昆明都市调频|102.8
4032:云南|4032|云南农村广播|1242
1929:云南|1929|云南音乐广播|97.0
1939:云南|1939|普洱茶都调频|106.9
86349:云南|20863|云南屏边广播电台|
1933:云南|1933|云南民族广播|7210
1938:云南|1938|普洱茶都之声|93.1
4030:云南|4030|楚雄新闻广播|106.1
1927:云南|1927|云南经济广播|88.7
1930:云南|1930|云南教育广播|100.0
4035:云南|4035|楚雄音乐广播|96.3
1536047:云南|21249|昭通乌蒙之声|97.5
1937:云南|1937|昆明幸福频率|105.0
1936:云南|1936|昆明汽车广播|95.4
24463:云南|20139|FM99香格里拉之声|99
1940:云南|1940|大理电台苍洱调频|99.9
4033:云南|4033|红河新闻广播|92.9
1931:云南|1931|云南少儿广播|101.7
24461:云南|20137|香格里拉之声|6035
77569:云南|20497|醉青春网络电台|
4034:云南|4034|红河民族广播|98.4
1926:云南|1926|云南新闻广播|105.8
342:北京|342|北京长书广播|104.3
345:北京|345|北京城市管理|107.3
340:北京|340|北京怀旧金曲|107.5
335:北京|335|北京体育广播|102.5
347:北京|347|北京爱家广播|927
68746:北京|20462|经典调频北京969|96.9
344:北京|344|北京古典音乐|98.6
337:北京|337|北京故事广播|603
334:北京|334|北京外语广播|774
333:北京|333|北京文艺广播|87.6
336:北京|336|北京交通广播|103.9
338:北京|338|北京教学广播|99.4
339:北京|339|北京新闻广播|100.6
343:北京|343|北京戏曲曲艺|105.1
341:北京|341|北京欢乐时光|106.5
346:北京|346|北京通俗音乐|97.0
332:北京|332|北京音乐广播|97.4
1428:台湾|1428|中广古典网|
1398:台湾|1398|苹果线上|
1366:台湾|1366|飞扬调频895|FM89.5
76563:台湾|20481|1557音乐互动网|
60268:台湾|20248|大爱网络电台|
1391:台湾|1391|佳音CCM|
1430:台湾|1430|中广音乐网|96.3
1389:台湾|1389|佳音电台FM90.9|FM90.9
1365:台湾|1365|飞碟电台|FM92.1
1395:台湾|1395|KissRadio台南|FM97.1
1432:台湾|1432|中广流行网|FM103.3
1415:台湾|1415|太阳广播电台|89.1
90777:台湾|21045|非凡音廣播電台|
1423:台湾|1423|银河流行音乐台|
1400:台湾|1400|奇美古典音乐|
1399:台湾|1399|POP Radio|FM97.5 
1392:台湾|1392|KissRadio大众台|FM99.9
60338:台湾|20300|银河演奏音乐台|
1383:台湾|1383|HitFm高雄|90.1
1396:台湾|1396|KissRadio南投|FM99.7
1404:台湾|1404|台北爱乐|99.7
1393:台湾|1393|KissRadio音樂台|
1385:台湾|1385|HitFm臺中|FM91.5
1384:台湾|1384|HitFm臺北|107.7
1394:台湾|1394|KissRadio大苗粟|FM98.3
60340:台湾|20302|银河东洋音乐台|
60288:台湾|20268|台中古典音乐台|
1014:国家台|1014|CRI中文环球|
4575:国家台|4575|CRI Sydney|
4996:国家台|4996|CRI环球伦敦台|
4986:国家台|4986|CNR香港之声|
998:国家台|998|CRI环球旅游|
398:国家台|398|CNR娱乐广播|747
396:国家台|396|CNR老年之声|1053
62624:国家台|20402|CRI南海之声|101.0
391:国家台|391|CNR神州之声|684
387:国家台|387|CNR经济之声|96.6
389:国家台|389|CNR都市之声|101.8
1009:国家台|1009|CRI英语漫听电台|
1539851:国家台|1012|CRI Beyond Beijing|
4574:国家台|4574|CRI Washington|
4995:国家台|4995|CRI中文环球广播|
4991:国家台|4991|银河台中国民乐|
386:国家台|386|CNR中国之声|106.1
394:国家台|394|CNR民族之声|1143
1539857:国家台|4584|CRI英语环球|846
1539849:国家台|1006|CRI轻松调频|91.5
999:国家台|999|CRI都市流行|
395:国家台|395|CNR文艺之声|106.6
4993:国家台|4993|银河台古典音乐|
1000:国家台|1000|CRI写意民谣|
392:国家台|392|CNR华夏之声|87.8
1002:国家台|1002|CRI闽南之音|
1001:国家台|1001|CRI客家之声|
4992:国家台|4992|银河台经典评书|
1007:国家台|1007|CRI HIT FM|88.7
1016:国家台|1016|CRI Capital 2|
24035:国家台|1005|CRI环球资讯|90.5
390:国家台|390|CNR中华之声|549
1008:国家台|1008|CRI Music Mix|
1018:国家台|1018|银河台综合频道|
1017:国家台|1017|CRI国际在线|
1013:国家台|1013|CRI Vientiane|93.0
4985:国家台|4985|CNR高速广播|99.6
388:国家台|388|CNR音乐之声|90.0
397:国家台|397|CNR藏语频率|1098
5039:国家台|5039|CNR乡村之声|720
4990:国家台|4990|银河台相声小品|
4988:国家台|4988|CNR维语广播|
78215:广西|20571|柳州交通广播|99.1
1760:广西|1760|桂林飞扬调频|88.3
1756:广西|1756|广西私家车930|93.0
93275:广西|21207|海豚之声|FM88.9 
5044:广西|5044|贺州交通音乐广播|95.5
4875:广西|4875|广西Music Radio|95.0
4599:广西|4599|梧州交通音乐之声|107.5
80793:广西|20767|南宁交通音乐|
78183:广西|20555|柳州音乐广播|105.9
78035:广西|20511|北海交通广播|99.1
1763:广西|1763|玉林交通音乐广播|99.2
1758:广西|1758|广西交通台|100.3
61206:广西|20356|成功895|89.5
1753:广西|1753|广西电台新闻910|91.0
5041:广西|5041|梧州新闻综合频道|100.8
61208:广西|20358|南宁新闻综合广播|101.4
60270:广西|20250|广西对外广播|
5043:广西|5043|贺州新闻综合广播|88.2
1762:广西|1762|玉林综合广播|97.8
87635:广西|20879|防城港热线广播|
90765:广西|21043|柳州新闻广播|102.9
80797:广西|20771|南宁成功895|
1757:广西|1757|广西北部湾之声|96.4
80435:广西|20697|贵港新闻综合广播|
1759:广西|1759|桂林新闻综合广播|97.7
80795:广西|20769|南宁经典1049|
5042:广西|5042|钦州新闻综合广播|98.6
1754:广西|1754|广西女主播电台|97.0
1603:陕西|1603|陕西896汽车调频|89.6
4873:陕西|4873|陕西音乐广播|98.8
1609:陕西|1609|陕西都市广播|101.8
1604:陕西|1604|陕西秦腔广播|101.1
1606:陕西|1606|陕西戏曲广播|747
1600:陕西|1600|陕西新闻广播|106.6
1608:陕西|1608|陕西故事广播|603
4885:陕西|4885|西安MYFM105.5|105.5
1176565:陕西|21221|西安NewRadio|FM105.3
1566447:陕西|21263|陕西都市快报广播|99.9
1602:陕西|1602|陕西农村广播|900
1601:陕西|1601|陕西交通广播|91.6
1536851:甘肃|21251|天水音乐文艺广播|93.7
1712:甘肃|1712|兰州新闻综合|97.3
3939:甘肃|3939|甘肃交通广播|103.5
3941:甘肃|3941|甘肃农村广播|92.2
4675:甘肃|4675|甘肃青春调频|104.8
1713:甘肃|1713|兰州生活文艺|100.8
4045:甘肃|4045|甘肃经济广播|93.4
3938:甘肃|3938|甘肃都市调频|102.2
5040:甘肃|5040|白银人民广播电台|100.5
68744:甘肃|20460|天水新闻综合广播|98.2
68742:甘肃|20458|甘肃新闻综合广播|96.6
3940:甘肃|3940|甘肃少儿广播|104.8
1711:甘肃|1711|兰州交通音乐|99.5
60282:河北|20262|保定城乡联盟广播|101.3
3949:河北|3949|飞扬105|105
4601:河北|4601|邯郸音乐广播 |102.8
3950:河北|3950|邯郸交通广播|106．8 
4871:河北|4871|唐山音乐广播|94.0
1650:河北|1650|河北农民广播|98.1
1652:河北|1652|石家庄新闻广播|88.2
3948:河北|3948|畅行951|95.1
85651:河北|20859|秦皇岛之声|103.8
1649:河北|1649|河北音乐广播|102.4
1659:河北|1659|唐山交通文艺|96.8
84495:河北|20835|秦皇岛体育音乐广播|97.3
1655:河北|1655|石家庄交通广播|94.6
4868:河北|4868|河北私家车907|90.7
28138:河北|20166|保定经济广播|99.7
78821:河北|20633|廊坊交通长书频率|100.3
1654:河北|1654|石家庄音乐广播|106.7
1657:河北|1657|唐山新闻综合|91.7
1644:河北|1644|河北新闻广播|104.3
85339:河北|20849|秦皇岛交通广播|100.4
1651:河北|1651|河北旅游文化广播|100.3
85647:河北|20855|秦皇岛综合广播|89.1
1653:河北|1653|石家庄经济广播|100.9
4867:河北|4867|河北生活广播|89.0
1660:河北|1660|唐山曹妃甸之声|90.0
1656:河北|1656|石家庄915绿色之声|91.5
1658:河北|1658|唐山经济生活|95.5
3951:河北|3951|邯郸大眼睛广播|100.3
28136:河北|20164|保定新闻广播|93.7
1646:河北|1646|河北交通广播|99.2
1661:河北|1661|唐山文化娱乐|105.9
3954:河北|3954|沧州交通音乐广播|93.8
85649:河北|20857|秦皇岛对农故事广播|92.4
62628:河北|20406|保定城市服务广播|101.6
28140:河北|20168|保定交通广播|104.8
5072:河北|5072|邯郸新闻综合广播|96.4
1645:河北|1645|河北经济广播|107.9
1829:吉林|1829|通化评书广播|97.9
3977:吉林|3977|吉林乡村广播|97.6
24037:吉林|4889|延广交通文艺台|105.9
4952:吉林|4952|吉林健康娱乐广播|101.9
4984:吉林|4984|长春都市音乐广播|106.4
5077:吉林|5077|敦化人民广播电台|95.5
52684:吉林|20188|吉林市音乐之声|91.3
5015:吉林|5015|长春乡村广播|99.6
5014:吉林|5014|长春生活故事广播|90.0
3976:吉林|3976|吉林经济广播 |95.3
1823:吉林|1823|吉林市都市110|90.3
4945:吉林|4945|吉林交通广播|103.8
5013:吉林|5013|长春新闻广播|88.9
1820:吉林|20031|吉林市汽车生活台|88.3
1819:吉林|1819|吉林市交通频率|105.3
4967:吉林|4967|长春交通之声|96.8
1828:吉林|1828|通化交通广播|93.8
60362:吉林|20324|延边电台朝鲜语广播|103.0
1821:吉林|1821|吉林市都市生活|89.3
23899:吉林|20032|吉林市老年之声|AM702
1826:吉林|1826|长白山旅游之声|105.0
1827:吉林|1827|通化新闻综合广播|102.8
3978:吉林|3978|吉林资讯广播|100.1
52682:吉林|20186|吉林市健康之声|92.6
76731:吉林|20487|吉林旅游广播|103.3
4850:吉林|4850|长春MYFM88.0|88.0
1831:吉林|1831|吉林音乐广播|92.7
1818:吉林|1818|吉林市新闻频率|AM927
4953:吉林|4953|吉林新闻综合广播 |91.6
5083:吉林|5083|白山人民广播电台|98.4
3980:吉林|3980|吉林教育广播|96.3
23903:吉林|20034|吉林市故事台|AM1143
4804:广东|4804|怀集音乐之声|
1276:广东|1276|东莞新闻综合频道|100.8
4594:广东|4594|潮州交通音乐广播|91.4
1269:广东|1269|佛山电台高明台|88.3
5017:广东|5017|惠州交通广播|98.8
5061:广东|5061|新会人民广播电台|98.3
1274:广东|1274|珠海电台先锋951|95.1
3947:广东|3947|阳江音乐台|96.4
80439:广东|20701|恩平FM97.7|
3945:广东|3945|吴川广播电台|103.0
1285:广东|1285|连州广播电台|106.0
5037:广东|5037|开平广播电台|95.6
1265:广东|1265|佛山电台真爱946|94.6
4595:广东|4595|潮州戏曲广播|103.1
1259:广东|1259|广东珠江经济电台|97.4
1280:广东|1280|汕头新闻资讯之声|99.3
87921:广东|20971|汕尾广播综合频道|103.5
24173:广东|1257|梅州广播新闻台|94.8
23893:广东|20026|郁南网络电台|
28132:广东|20160|龙岗电台星光991|99.1
1266:广东|1266|佛山电台千色985|98.5
1268:广东|1268|佛山电台顺德台|90.1
76112:广东|20472|湛江交通音乐广播|102.1
1279:广东|1279|汕头电台交通之声|107.2
1273:广东|1273|深圳生活广播|94.2
468:广东|468|广东南方生活广播|93.6
78611:广东|20617|湛江新闻综合广播|
4847:广东|4847|广东股市广播|95.3
4955:广东|4955|广州交通广播|106.1
93619:广东|21209|东莞交通FM104|104.0
1260:广东|1260|广东音乐之声|99.3
52710:广东|20192|广州汽车音乐电台|102.7
78051:广东|20515|广东故事频道|
469:广东|469|广东爱车SunFM|103.6
5069:广东|5069|湛江经济广播|95.1
24195:广东|1258|梅州广播交通台|105.8
5016:广东|5016|惠州新闻综合广播|100.0
1288:广东|1288|东莞电台畅享1075|107.5
24578:广东|20156|郁南人民广播|91.7
1277:广东|1277|中山电台新锐967|96.7
1275:广东|1275|珠海电台交通875|87.5
1254:广东|1254|广东新闻频道|91.4
87631:广东|20877|化州人民广播电台|105.5
3946:广东|3946|阳江新闻资讯广播|91.6
78049:广东|20513|广东HIFI频道|
1282:广东|1282|江门新闻综合|100.2
1281:广东|1281|汕头电台音乐之声|102.5
5036:广东|5036|从化流溪河之声|99.8
1283:广东|1283|江门旅游音乐|93.3
1263:广东|1263|花都广播电台|100.5
1267:广东|1267|佛山电台飞跃924|92.4
1231599:广东|21225|深圳动听102|102
52712:广东|20194|广州青少年广播|88.0
1271:广东|1271|深圳飞扬971|97.1
4596:广东|4596|潮州综合频率|94.0
5038:广东|5038|台山广播电台|90.4
1286:广东|1286|鹤山电台|104.7
471:广东|471|广东电台经典1077|107.7
1270:广东|1270|深圳先锋898|89.8
470:广东|470|广东电台优悦广播|105.7
1278:广东|1278|中山电台快乐888|88.8
1262:广东|1262|广东羊城交通台|105.2
4848:广东|4848|广州新闻资讯广播|96.2
1272:广东|1272|深圳交通频率|106.2
89951:广东|21003|汕尾农村广播|91.3
1264:广东|1264|佛山电台三水台|90.6
90763:宁夏|21041|银川汽车生活频率|90.5
90761:宁夏|21039|银川都市经济频率|95.0
1842:宁夏|1842|宁夏都市广播|103.7
0:宁夏|21035|银川新闻综合广播|801
90759:宁夏|21037|银川交通音乐频率|100.6
1839:宁夏|1839|宁夏新闻广播|106.1
1840:宁夏|1840|宁夏交通广播|98.4
1841:宁夏|1841|宁夏经济广播|92.8
1594473:湖南|21269|湘潭交通广播|104.2
23897:湖南|20028|芒果Radio湘西之声|93.0
4237:湖南|4237|长沙城市之声|101.7
4879:湖南|4879|湖南交通频道|91.8
78007:湖南|20507|娄底交通广播|
4855:湖南|4855|芒果Radio永州之声|94.8
76765:湖南|20489|郴州汽车音乐电台|99.2
4983:湖南|4983|湖南经广魅力901  |90.1
4930:湖南|4930|FM1022音乐广播|102.2
79193:湖南|20675|常德新闻105.6|105.6
24472:湖南|20148|畅行954邵阳交通频道|95.4
23895:湖南|20027|芒果Radio郴州之声|88.3
3967:湖南|3967|长沙交通1061|106.1
84899:湖南|20847|长沙快乐886|
5075:湖南|5075|凤凰之声旅游广播|94.4
4981:湖南|4981|湖南旅游频道  |106.9
4937:湖南|4937|湖南金鹰955电台|95.5
3971:湖南|3971|株洲交通广播|98.4
86747:湖南|20867|郴州交通频道|102.8
88931:湖南|20987|岳阳交通音乐广播|106.1
4877:湖南|4877|105私家车电台|105.0
1319363:湖南|21229|衡阳好朋友1054|105.4
5076:湖南|5076|芒果Radio张家界之声|93.2
62432:湖南|20394|长沙幸福999电台|FM99.9
3970:湖南|3970|株洲新闻广播|101.2
4914:湖南|4914|湖南快乐1045|104.5
29206:湖南|20170|益阳交通频率|88.1
4982:湖南|4982|湖南电台潇湘之声|93.8
4980:湖南|4980|湖南电台青春975|97.5
87529:湖南|20875|郴州私家车广播|
3975:湖南|3975|浏阳交通生活广播|95.9
638639:湖南|21213|娄底综合广播|98.0
4978:湖南|4978|湖南电台新闻频道|102.8
60352:湖南|20314|芒果Radio益阳之声|99.7
2412:湖南|2412|大眼睛湘潭1065|106.5
84513:湖南|20841|衡阳新闻频道|
4979:湖南|4979|893汽车音乐电台|89.3
79161:湖南|20667|衡阳交通频道|101.8
86807:湖南|20869|吉首交通音乐频道|101
88933:湖南|20989|岳阳新闻综合广播|104.1
4854:安徽|4854|天长人民广播电台|104.8
4841:安徽|4841|淮南新闻综合广播|101.8
4577:安徽|4577|蚌埠交通文艺广播|98.4
1613253:安徽|21281|ONE RADIO 1024|102.4
1956:安徽|1956|安徽网络音乐台|
1949:安徽|1949|安徽交通广播|90.8
1951:安徽|1951|安徽小说评书广播|107.4
4916:安徽|4916|安徽旅游广播|96.1
1975:安徽|1975|HOTFM87.6|87.6
1957:安徽|1957|安徽网络旅游台|
24478:安徽|20152|蚌埠经济生活广播|104.2
1969:安徽|1969|黄山交通旅游广播|100.4
1663861:安徽|21307|铜陵音乐故事广播|92.4
5023:安徽|5023|宣城交通文艺广播|106.1
79135:安徽|20653|马鞍山新闻广播|
1950:安徽|1950|安徽农村广播|95.5
5027:安徽|5027|芜湖交通经济广播|96.3
4838:安徽|4838|合肥MYFM96.1|96.1
1960:安徽|1960|合肥交通广播|102.6
5022:安徽|5022|宣城新闻综合广播|100.6
1952:安徽|1952|安徽戏曲广播|99.5
1663785:安徽|21303|铜陵新闻综合广播|95.9
1611399:安徽|21279|CAR RADIO 983|98.3
78237:安徽|20593|当涂人民广播电台|90.1
4843:安徽|4843|淮南交通文艺广播|97.9
81615:安徽|20781|桐城交通音乐广播|
1948:安徽|1948|安徽生活广播|105.5
1663837:安徽|21305|铜陵交通生活频率|88.7
1958:安徽|1958|合肥徽商广播|100.3
5029:安徽|5029|芜湖新闻综合广播|100.4
1613529:安徽|21283|Real Radio 91.7|91.7
4918:安徽|4918|安徽网络综艺台|
1946:安徽|1946|安徽经济广播|97.1
79133:安徽|20651|马鞍山音乐广播|
91483:安徽|21287|GREAT RADIO 106|10.6
24480:安徽|20154|蚌埠新闻综合广播|107.9
79109:安徽|20649|马鞍山交通广播|
1968:安徽|1968|黄山新闻综合广播|93.3
4919:安徽|4919|安徽新闻综合广播|103.6
5028:安徽|5028|芜湖音乐故事广播|98.2
4839:安徽|4839|池州交通旅游广播|96.6
1961:安徽|1961|合肥故事广播|98.8
1947:安徽|1947|安徽音乐广播|89.5
1966:安徽|1966|安庆交通音乐广播|97.7
1954:安徽|1954|安徽网络新闻台|
1893:内蒙古|1893|巴彦淖尔河套之声|107.0
1889:内蒙古|1889|包头新闻综合广播|94.9
23923:内蒙古|20053|呼伦贝尔汉语新闻|99.9
4935:内蒙古|4935|iRadio音乐台iPlay |
61202:内蒙古|20352|鄂尔多斯交通广播|100.8
1894:内蒙古|1894|巴彦淖尔黄河之声|97.7
88177:内蒙古|20973|内蒙古草原之声广播|105.0
79347:内蒙古|20685|科尔沁之声|
1887:内蒙古|1887|内蒙古评书曲艺广播|102.8
1890:内蒙古|1890|包头交通文艺广播|89.2
80521:内蒙古|20727|锡林郭勒综合文艺广播|
23921:内蒙古|20051|呼伦贝尔蒙语新闻|954
1895:内蒙古|1895|巴彦淖尔交通广播|95.8
1891:内蒙古|1891|包头生活娱乐广播|105.9
80519:内蒙古|20725|锡林郭勒交通之声|
1897:内蒙古|1897|赤峰蒙语广播|89.4
4910:内蒙古|4910|103.9HappyRadio|103.9
1886:内蒙古|1886|内蒙古音乐之声广播|93.6
1899:内蒙古|1899|赤峰交通广播|102.4
79345:内蒙古|20683|通辽之声|
1882:内蒙古|1882|内蒙古蒙古语广播|95.9
23919:内蒙古|20049|呼伦贝尔城市交通|104.6
1892:内蒙古|1892|包头城乡音乐广播|100.1
80523:内蒙古|20729|锡林郭勒汉语综合广播|
1884:内蒙古|1884|内蒙古交通之声广播|105.6
1898:内蒙古|1898|赤峰文艺广播|900
61198:内蒙古|20348|鄂尔多斯蒙语广播|93.5
1883:内蒙古|1883|内蒙古新闻综合广播|89.0
1228855:内蒙古|21223|锡林郭勒蒙语综合广播|972
1896:内蒙古|1896|赤峰汉语广播|96.0
61204:内蒙古|20354|鄂尔多斯综艺广播|97.3
1881:内蒙古|1881|内蒙古新闻广播|95.0
1888:内蒙古|1888|内蒙古绿野之声广播|91.9
1885:内蒙古|1885|内蒙古经济生活广播|101.4
61200:内蒙古|20350|鄂尔多斯新闻广播|89.6
275:上海|275|上海东广新闻台|90.9
2411:上海|2411|嘉定人民广播电台|100.3
4893:上海|4893|上海东方都市广播|89.9
4857:上海|4857|上海浦江之声|1422
274:上海|274|上海动感101|101.7
273:上海|273|上海Love Radio|103.7
267:上海|267|上海经典947|94.7
276:上海|276|上海第一财经频率|97.7
268:上海|268|上海故事广播|107.2
269:上海|269|上海戏剧曲艺广播|97.2
5090:上海|5090|上海奉贤广播电台|95.9
4928:上海|4928|上海五星体育|94.0
266:上海|266|上海交通广播电台|105.7
270:上海|270|上海人民广播电台|93.4
4022:上海|4022|金山人民广播电台|99.0
58826:上海|20202|闵行人民广播电台|102.7
1582:网络|1582|青檬音乐台|
91019:网络|21055|明星fm|
80681:网络|20743|520电台|
60284:网络|20264|话匣子电台|
79097:网络|20647|聆悦FM|
4492:网络|4492|时尚NJ吧|
23941:网络|20071|AsiaFM亚洲天空台|
78613:网络|20619|积木音乐台 |
23887:网络|20020|随身听音乐台|
87527:网络|20873|国腾卫士金融之声|
4863:网络|4863|完美音乐在线|
4576:网络|4576|青苹果音乐台|
5030:网络|5030|芝麻电台|
4637:网络|4637|怀集网络电台|
91249:网络|21073|NJ梦网络电台|
1584:网络|1584|猫扑网络电台|
4915:网络|4915|清晨音乐电台|
4831:网络|4831|九九音乐台|
66934:网络|20428|麦田之声广播剧台|
1591:网络|1591|中国同志之声|
90779:网络|21047|桔子音乐广播|
1576225:网络|21267|西华师范大学新传之声|
3936:网络|3936|顺义人民广播电台|92.9
1590:网络|1590|珊瑚虫之声|
4998:网络|4998|萤火虫网络电台|
1583:网络|1583|wradiofm|
4856:网络|4856|左右电台|
24229:网络|20091|中国校园之声|
638787:网络|21215|iRadio音乐台iRemember|
2205:网络|2205|YoungD网络电台|88.0
4917:网络|4917|态度电台 |
60574:网络|20334|麦田之声音乐台|
68728:网络|20456|MYRadio 音乐台|
1352941:网络|21241|中国文化旅游之声|
5062:网络|5062|Tiktok网络电台|
78235:网络|20591|客家网络电台|
60272:网络|20252|肇庆网络电台|
1279409:网络|21227|哈理工校园广播台|
4935:网络|4935|iRadio音乐台iPlay |
1512937:网络|21245|江苏金陵之声|
1585:网络|1585|花开网络电台|
4581:网络|4581|AsiaFM亚洲音乐台|
23873:山西|20006|太原新闻广播|91.2
4018:山西|4018|太原私家车Radio|104.4
4899:山西|4899|吕梁交通广播 |90.5
4020:山西|4020|吕梁综合新闻广播|4841
4932:山西|4932|山西音乐广播|94.0
23875:山西|20007|山西交通广播|88
72464:山西|20470|山西健康之声|105.9
1185:山西|1185|太原音乐广播|102.6
1186:山西|1186|山西农村广播|101.5
4900:山西|4900|太原交通台|107.0
76729:山西|20485|山西文艺广播|101.5
77387:山西|20491|山西综合广播FM904|90.4
4951:山西|4951|山西综合广播AM819|819
77809:山西|20501|山西经济广播|
1511803:海南|21243|海南民生广播|10.8
4911:海南|4911|海南交通广播|100.0
4878:海南|4878|海南音乐广播|94.5
1862:海南|1862|国际旅游岛之声|103.8
1861:海南|1861|海南新闻广播|88.6
3997:辽宁|3997|大连交通广播 |100.8
80457:辽宁|20719|朝阳交通娱乐广播|
80455:辽宁|20717|朝阳新农村广播|
4908:辽宁|4908|大连彩虹网络台|
1088:辽宁|1088|大连财经广播|93.1
1099:辽宁|1099|辽宁都市广播|92.1
1091:辽宁|1091|丹东交通频率|101.7
1090:辽宁|1090|丹东新闻频率|103.6
1092:辽宁|1092|丹东评书频率|88.0
1084:辽宁|1084|大连少儿广播|106.7
23801:辽宁|20025|辽宁交通广播|97.5
1096:辽宁|1096|抚顺音乐台|FM100.6
87813:辽宁|20903|东港交通广播|
1101:辽宁|1101|辽宁音乐广播|98.6
23795:辽宁|20021|辽宁文艺广播|95.9
3996:辽宁|3996|营口交通文艺广播|95.1
1098:辽宁|1098|盘锦生活娱乐广播|97.1
1086:辽宁|1086|大连都市广播|99.1
23891:辽宁|20024|沈阳新闻广播|104.5
23797:辽宁|20019|辽宁经济广播|88.8
1359:辽宁|1359|盘山电台939|93.9
23799:辽宁|20018|辽宁乡村广播|96.9
5078:辽宁|5078|盘山评书娱乐广播|94.9
60354:辽宁|20316|大耳朵广播秀|
1094:辽宁|1094|抚顺交通台|106.1
1097:辽宁|1097|盘锦新闻广播|104.2
1093:辽宁|1093|丹东都市频率|103.4
28130:辽宁|20158|抚顺新闻广播|93.0
23793:辽宁|1103|辽宁综合广播|102.9
1085:辽宁|1085|大连体育广播|105.7
78785:辽宁|20625|大连新城乡|
68238:辽宁|20452|辽宁瓢虫台|
52686:辽宁|20190|海城交通娱乐广播|106.9
1102:辽宁|1102|辽宁生活广播|103.4
87815:辽宁|20965|东港新农村广播|
1089:辽宁|1089|大连新闻广播|103.3
