KGR 1 加央 118010100 玻璃市 118010000 马来西亚 118000000
SRB 1 芙蓉 118020100 森美兰 118020000 马来西亚 118000000
JEP 2 仁保 118020200 森美兰 118020000 马来西亚 118000000
PDI 3 波德申 118020300 森美兰 118020000 马来西亚 118000000
REM 4 林茂 118020400 森美兰 118020000 马来西亚 118000000
KPI 5 瓜拉庇劳 118020500 森美兰 118020000 马来西亚 118000000
TAI 6 淡边 118020600 森美兰 118020000 马来西亚 118000000
JEL 7 日叻务 118020700 森美兰 118020000 马来西亚 118000000
VIC 1 维多利亚 118030100 纳闽 118030000 马来西亚 118000000
LBU 2 纳闽 118030200 纳闽 118030000 马来西亚 118000000
LGK 1 浮罗交怡 118040100 吉打 118040000 马来西亚 118000000
BMA 2 万拉峇鲁 118040200 吉打 118040000 马来西亚 118000000
BLZ 3 华玲 118040300 吉打 118040000 马来西亚 118000000
KLM 4 居林 118040400 吉打 118040000 马来西亚 118000000
KMU 5 瓜拉姆达 118040500 吉打 118040000 马来西亚 118000000
PEN 6 笨筒 118040600 吉打 118040000 马来西亚 118000000
KPA 7 古邦巴素 118040700 吉打 118040000 马来西亚 118000000
PGT 8 巴东得腊 118040800 吉打 118040000 马来西亚 118000000
KOR 9 哥打士打 118040900 吉打 118040000 马来西亚 118000000
AOG 1 亚罗牙也 118050100 马六甲 118050000 马来西亚 118000000
MEL 2 马六甲市 118050200 马六甲 118050000 马来西亚 118000000
JAS 3 野新 118050300 马六甲 118050000 马来西亚 118000000
GOM 1 鹅麦 118060100 雪兰莪 118060000 马来西亚 118000000
KLG 2 瓜拉冷岳 118060200 雪兰莪 118060000 马来西亚 118000000
SEP 3 雪邦 118060300 雪兰莪 118060000 马来西亚 118000000
HUL 4 乌鲁冷岳 118060400 雪兰莪 118060000 马来西亚 118000000
PJA 5 八打灵 118060500 雪兰莪 118060000 马来西亚 118000000
HUS 6 乌鲁雪兰莪 118060600 雪兰莪 118060000 马来西亚 118000000
KSL 7 瓜拉雪兰莪 118060700 雪兰莪 118060000 马来西亚 118000000
SBM 8 沙白安南 118060800 雪兰莪 118060000 马来西亚 118000000
KEM 1 甘马挽 118070100 丁加奴 118070000 马来西亚 118000000
SET 2 实兆 118070200 丁加奴 118070000 马来西亚 118000000
HUL 3 乌鲁 118070300 丁加奴 118070000 马来西亚 118000000
DGN 4 龙运 118070400 丁加奴 118070000 马来西亚 118000000
MAR 5 马江 118070500 丁加奴 118070000 马来西亚 118000000
TGG 6 瓜拉丁加奴 118070600 丁加奴 118070000 马来西亚 118000000
BES 7 勿述 118070700 丁加奴 118070000 马来西亚 118000000
TMR 1 丹那美拉 118080100 吉兰丹 118080000 马来西亚 118000000
KUG 2 瓜拉吉赖 118080200 吉兰丹 118080000 马来西亚 118000000
MAC 3 马樟 118080300 吉兰丹 118080000 马来西亚 118000000
JEL 4 日里 118080400 吉兰丹 118080000 马来西亚 118000000
BAC 5 登卓 118080500 吉兰丹 118080000 马来西亚 118000000
PPU 6 巴西富地 118080600 吉兰丹 118080000 马来西亚 118000000
KBR 7 哥打巴鲁 118080700 吉兰丹 118080000 马来西亚 118000000
PMA 8 巴西马 118080800 吉兰丹 118080000 马来西亚 118000000
GMU 9 话望生 118080900 吉兰丹 118080000 马来西亚 118000000
TUM 10 道北 118081000 吉兰丹 118080000 马来西亚 118000000
BAT 1 峇株巴辖 118090100 柔佛 118090000 马来西亚 118000000
JHB 2 新山 118090200 柔佛 118090000 马来西亚 118000000
KLA 3 居銮 118090300 柔佛 118090000 马来西亚 118000000
POW 4 笨珍 118090400 柔佛 118090000 马来西亚 118000000
MUA 5 麻坡 118090500 柔佛 118090000 马来西亚 118000000
KTI 6 哥打丁宜 118090600 柔佛 118090000 马来西亚 118000000
SGM 7 昔加末 118090700 柔佛 118090000 马来西亚 118000000
MEP 8 丰盛港 118090800 柔佛 118090000 马来西亚 118000000
JER 1 而连突 118100100 彭亨 118100000 马来西亚 118000000
MAR 2 马兰 118100200 彭亨 118100000 马来西亚 118000000
BEN 3 文冬 118100300 彭亨 118100000 马来西亚 118000000
TEM 4 淡马鲁 118100400 彭亨 118100000 马来西亚 118000000
KUL 5 立卑 118100500 彭亨 118100000 马来西亚 118000000
TOM 6 云冰 118100600 彭亨 118100000 马来西亚 118000000
RAU 7 劳勿 118100700 彭亨 118100000 马来西亚 118000000
CAH 8 金马仑高原 118100800 彭亨 118100000 马来西亚 118000000
PEK 9 北根 118100900 彭亨 118100000 马来西亚 118000000
BER 10 百乐 118101000 彭亨 118100000 马来西亚 118000000
KUA 11 关丹 118101100 彭亨 118100000 马来西亚 118000000
PAP 1 吧巴 118110100 沙巴 118110000 马来西亚 118000000
NAB 2 纳巴湾 118110200 沙巴 118110000 马来西亚 118000000
BEL 3 比鲁兰 118110300 沙巴 118110000 马来西亚 118000000
BEF 4 保佛 118110400 沙巴 118110000 马来西亚 118000000
KUN 5 古纳 118110500 沙巴 118110000 马来西亚 118000000
KMU 6 哥打马鲁都 118110600 沙巴 118110000 马来西亚 118000000
KUD 7 古达 118110700 沙巴 118110000 马来西亚 118000000
KPU 8 瓜拉班尤 118110800 沙巴 118110000 马来西亚 118000000
TAW 9 斗湖 118110900 沙巴 118110000 马来西亚 118000000
PMP 10 兵南邦 118111000 沙巴 118110000 马来西亚 118000000
TEN 11 丹南 118111100 沙巴 118110000 马来西亚 118000000
SPT 12 西比陶 118111200 沙巴 118110000 马来西亚 118000000
BKI 13 哥打基纳巴鲁 118111300 沙巴 118110000 马来西亚 118000000
KBD 14 古打毛律 118111400 沙巴 118110000 马来西亚 118000000
LDU 15 拿笃 118111500 沙巴 118110000 马来西亚 118000000
PIT 16 必达士 118111600 沙巴 118110000 马来西亚 118000000
KBT 17 京那巴登岸 118111700 沙巴 118110000 马来西亚 118000000
TAB 18 担布南 118111800 沙巴 118110000 马来西亚 118000000
KEG 19 根地咬 118111900 沙巴 118110000 马来西亚 118000000
TUR 20 斗亚兰 118112000 沙巴 118110000 马来西亚 118000000
SMM 21 仙本那 118112100 沙巴 118110000 马来西亚 118000000
RNU 22 兰脑 118112200 沙巴 118110000 马来西亚 118000000
SDK 23 山打根 118112300 沙巴 118110000 马来西亚 118000000
TPG 1 太平 118120100 霹雳 118120000 马来西亚 118000000
BGA 2 华都牙也 118120200 霹雳 118120000 马来西亚 118000000
TAS 3 安顺 118120300 霹雳 118120000 马来西亚 118000000
IPH 4 怡保 118120400 霹雳 118120000 马来西亚 118000000
SSP 5 和丰 118120500 霹雳 118120000 马来西亚 118000000
KAR 6 江沙 118120600 霹雳 118120000 马来西亚 118000000
TAM 7 丹绒马 118120700 霹雳 118120000 马来西亚 118000000
LUM 8 紅土坎 118120800 霹雳 118120000 马来西亚 118000000
BWH 1 北海 118130100 槟榔屿 118130000 马来西亚 118000000
BMJ 2 大山脚 118130200 槟榔屿 118130000 马来西亚 118000000
PEN 3 槟城 118130300 槟榔屿 118130000 马来西亚 118000000
NTE 4 高渊 118130400 槟榔屿 118130000 马来西亚 118000000
KUL 1 吉隆坡 118140100 吉隆坡 118140000 马来西亚 118000000
MYY 1 美里 118150100 沙捞越 118150000 马来西亚 118000000
BTU 2 民都鲁 118150200 沙捞越 118150000 马来西亚 118000000
SAR 3 泗里街 118150300 沙捞越 118150000 马来西亚 118000000
SAM 4 斯里阿曼 118150400 沙捞越 118150000 马来西亚 118000000
MKM 5 木胶 118150500 沙捞越 118150000 马来西亚 118000000
KCH 6 古晋 118150600 沙捞越 118150000 马来西亚 118000000
BTG 7 木中 118150700 沙捞越 118150000 马来西亚 118000000
LMN 8 林梦 118150800 沙捞越 118150000 马来西亚 118000000
SMH 9 三马拉汉 118150900 沙捞越 118150000 马来西亚 118000000
KPI 10 加帛 118151000 沙捞越 118150000 马来西亚 118000000
SBW 11 泗务 118151100 沙捞越 118150000 马来西亚 118000000
BFS 1 贝尔法斯特 167010100 北爱尔兰 167010000 英国 167000000
DRY 2 德里 167010200 北爱尔兰 167010000 英国 167000000
NYM 3 纽里 167010300 北爱尔兰 167010000 英国 167000000
LSB 4 利斯本 167010400 北爱尔兰 167010000 英国 167000000
DND 1 丹迪 167020100 苏格兰 167020000 英国 167000000
STG 2 斯特灵 167020200 苏格兰 167020000 英国 167000000
ABD 3 阿伯丁 167020300 苏格兰 167020000 英国 167000000
EDH 4 爱丁堡 167020400 苏格兰 167020000 英国 167000000
GLG 5 格拉斯哥 167020500 苏格兰 167020000 英国 167000000
INV 6 因弗内斯 167020600 苏格兰 167020000 英国 167000000
BAN 1 班戈 167030100 威尔士 167030000 英国 167000000
SWA 2 斯旺西 167030200 威尔士 167030000 英国 167000000
CDF 3 卡迪夫 167030300 威尔士 167030000 英国 167000000
NWP 4 纽波特 167030400 威尔士 167030000 英国 167000000
EXE 1 埃克塞特 167040100 英格兰 167040000 英国 167000000
BAS 2 巴斯 167040200 英格兰 167040000 英国 167000000
GLO 3 格洛斯特 167040300 英格兰 167040000 英国 167000000
NGM 4 诺丁汉 167040400 英格兰 167040000 英国 167000000
DER 5 德比 167040500 英格兰 167040000 英国 167000000
WLS 6 威尔斯 167040600 英格兰 167040000 英国 167000000
LIV 7 利物浦 167040700 英格兰 167040000 英国 167000000
CAX 8 卡莱尔 167040800 英格兰 167040000 英国 167000000
CAM 9 剑桥 167040900 英格兰 167040000 英国 167000000
KUH 10 赫尔河畔京斯敦 167041000 英格兰 167040000 英国 167000000
CEG 11 切斯特 167041100 英格兰 167040000 英国 167000000
OXF 12 牛津 167041200 英格兰 167040000 英国 167000000
PRE 13 普雷斯顿 167041300 英格兰 167040000 英国 167000000
WKF 14 韦克菲尔德 167041400 英格兰 167040000 英国 167000000
BST 15 布里斯托尔 167041500 英格兰 167040000 英国 167000000
PTE 16 彼得伯勒 167041600 英格兰 167040000 英国 167000000
COV 17 考文垂 167041700 英格兰 167040000 英国 167000000
POR 18 朴茨茅斯 167041800 英格兰 167040000 英国 167000000
RIP 19 里彭 167041900 英格兰 167040000 英国 167000000
LDS 20 利茲 167042000 英格兰 167040000 英国 167000000
SOT 21 特伦特河畔斯多克 167042100 英格兰 167040000 英国 167000000
SUN 22 桑德兰 167042200 英格兰 167040000 英国 167000000
LND 23 伦敦 167042300 英格兰 167040000 英国 167000000
ELY 24 伊利 167042400 英格兰 167040000 英国 167000000
BIR 25 伯明翰 167042500 英格兰 167040000 英国 167000000
LHF 26 利奇菲尔德 167042600 英格兰 167040000 英国 167000000
WOV 27 伍尔弗汉普顿 167042700 英格兰 167040000 英国 167000000
STH 28 南安普敦 167042800 英格兰 167040000 英国 167000000
HAF 29 赫里福德 167042900 英格兰 167040000 英国 167000000
SLS 30 索尔斯堡 167043000 英格兰 167040000 英国 167000000
CNG 31 坎特伯雷 167043100 英格兰 167040000 英国 167000000
BNH 32 布莱顿与赫福 167043200 英格兰 167040000 英国 167000000
SHE 33 谢菲尔德 167043300 英格兰 167040000 英国 167000000
CST 34 奇切斯特 167043400 英格兰 167040000 英国 167000000
DUR 35 德罕 167043500 英格兰 167040000 英国 167000000
WOR 36 伍斯特 167043600 英格兰 167040000 英国 167000000
TRU 37 特鲁罗 167043700 英格兰 167040000 英国 167000000
YOR 38 约克 167043800 英格兰 167040000 英国 167000000
LAN 39 兰开斯特 167043900 英格兰 167040000 英国 167000000
WNE 40 温彻斯特 167044000 英格兰 167040000 英国 167000000
PLY 41 普利茅斯 167044100 英格兰 167040000 英国 167000000
SLF 42 索福特 167044200 英格兰 167040000 英国 167000000
LCE 43 列斯特 167044300 英格兰 167040000 英国 167000000
NCL 44 纽卡斯尔 167044400 英格兰 167040000 英国 167000000
TBL 45 圣阿本斯 167044500 英格兰 167040000 英国 167000000
LCN 46 林肯 167044600 英格兰 167040000 英国 167000000
BRD 47 布拉德福德 167044700 英格兰 167040000 英国 167000000
NRW 48 诺里奇 167044800 英格兰 167040000 英国 167000000
MAN 49 曼彻斯特 167044900 英格兰 167040000 英国 167000000
MEL 1 墨尔本 265010100 维多利亚 265010000 澳大利亚 265000000
GEX 2 吉朗 265010200 维多利亚 265010000 澳大利亚 265000000
BUY 1 班伯里 265020100 西澳大利亚 265020000 澳大利亚 265000000
ALH 2 奥尔巴尼 265020200 西澳大利亚 265020000 澳大利亚 265000000
FRE 3 弗里曼特尔港 265020300 西澳大利亚 265020000 澳大利亚 265000000
GET 4 杰拉尔顿 265020400 西澳大利亚 265020000 澳大利亚 265000000
PER 5 珀斯 265020500 西澳大利亚 265020000 澳大利亚 265000000
KGI 6 卡尔古利 265020600 西澳大利亚 265020000 澳大利亚 265000000
MDU 7 曼哲拉 265020700 西澳大利亚 265020000 澳大利亚 265000000
DPO 1 德文波特 265030100 塔斯马尼亚 265030000 澳大利亚 265000000
HBA 2 霍巴特 265030200 塔斯马尼亚 265030000 澳大利亚 265000000
LST 3 朗塞斯顿 265030300 塔斯马尼亚 265030000 澳大利亚 265000000
BWT 4 伯尼港 265030400 塔斯马尼亚 265030000 澳大利亚 265000000
CBR 1 堪培拉 265040100 堪培拉 265040000 澳大利亚 265000000
TWB 1 图文巴 265050100 昆士兰 265050000 澳大利亚 265000000
CNS 2 凯恩斯 265050200 昆士兰 265050000 澳大利亚 265000000
OOL 3 黄金海岸 265050300 昆士兰 265050000 澳大利亚 265000000
CUD 4 日光海岸 265050400 昆士兰 265050000 澳大利亚 265000000
TSV 5 汤斯维尔 265050500 昆士兰 265050000 澳大利亚 265000000
BNE 6 布里斯班 265050600 昆士兰 265050000 澳大利亚 265000000
PAL 1 北帕默斯顿 265060100 北部地区 265060000 澳大利亚 265000000
DRW 2 达尔文 265060200 北部地区 265060000 澳大利亚 265000000
MGB 1 甘比亚山 265070100 南澳大利亚 265070000 澳大利亚 265000000
PPI 2 皮里港 265070200 南澳大利亚 265070000 澳大利亚 265000000
PUG 3 奥古斯塔港 265070300 南澳大利亚 265070000 澳大利亚 265000000
WAY 4 怀阿拉 265070400 南澳大利亚 265070000 澳大利亚 265000000
PLO 5 林肯港 265070500 南澳大利亚 265070000 澳大利亚 265000000
ADL 6 阿德莱德 265070600 南澳大利亚 265070000 澳大利亚 265000000
MYB 7 默里布里奇 265070700 南澳大利亚 265070000 澳大利亚 265000000
VHA 8 维克托港 265070800 南澳大利亚 265070000 澳大利亚 265000000
WOL 1 伍伦贡 265080100 新南威尔士 265080000 澳大利亚 265000000
NTL 2 纽卡斯尔 265080200 新南威尔士 265080000 澳大利亚 265000000
HBS 3 悉尼 265080300 新南威尔士 265080000 澳大利亚 265000000
TTW 1 塔科马 287010100 华盛顿 287010000 美国 287000000
GEG 2 斯波坎 287010200 华盛顿 287010000 美国 287000000
SEA 3 西雅图 287010300 华盛顿 287010000 美国 287000000
DOR 1 多佛 287020100 特拉华 287020000 美国 287000000
ILG 2 威明顿 287020200 特拉华 287020000 美国 287000000
NWK 3 纽瓦克 287020300 特拉华 287020000 美国 287000000
WAS 1 华盛顿哥伦比亚特区 287030100 哥伦比亚特区 287030000 美国 287000000
MKE 1 密尔沃基 287040100 威斯康星 287040000 美国 287000000
LSE 2 拉克罗斯 287040200 威斯康星 287040000 美国 287000000
RAC 3 拉辛 287040300 威斯康星 287040000 美国 287000000
OSH 4 奥什科什 287040400 威斯康星 287040000 美国 287000000
GBK 5 格林贝 287040500 威斯康星 287040000 美国 287000000
ATW 6 阿普尓顿 287040600 威斯康星 287040000 美国 287000000
AUW 7 沃索 287040700 威斯康星 287040000 美国 287000000
ENW 8 基诺沙 287040800 威斯康星 287040000 美国 287000000
MTW 9 马尼托沃克 287040900 威斯康星 287040000 美国 287000000
EAU 10 欧克莱尓 287041000 威斯康星 287040000 美国 287000000
QMD 11 迈迪逊 287041100 威斯康星 287040000 美国 287000000
SBM 12 希博伊根 287041200 威斯康星 287040000 美国 287000000
PKB 1 帕克斯堡 287050100 西佛吉尼亚 287050000 美国 287000000
HNU 2 亨廷顿 287050200 西佛吉尼亚 287050000 美国 287000000
CRW 3 查尔斯顿 287050300 西佛吉尼亚 287050000 美国 287000000
KHH 1 凯卢阿 287060100 夏威夷 287060000 美国 287000000
ITO 2 希洛 287060200 夏威夷 287060000 美国 287000000
HNL 3 檀香山 287060300 夏威夷 287060000 美国 287000000
TPA 1 坦帕 287070100 佛罗里达 287070000 美国 287000000
JAX 2 杰克逊维尔 287070200 佛罗里达 287070000 美国 287000000
MIA 3 迈阿密 287070300 佛罗里达 287070000 美国 287000000
PIE 4 圣彼德斯堡市 287070400 佛罗里达 287070000 美国 287000000
ORL 5 奥兰多 287070500 佛罗里达 287070000 美国 287000000
FLL 6 罗德岱堡 287070600 佛罗里达 287070000 美国 287000000
EYW 7 基韦斯特 287070700 佛罗里达 287070000 美国 287000000
TLH 8 塔拉哈西 287070800 佛罗里达 287070000 美国 287000000
CPV 9 卡纳维尔角 287070900 佛罗里达 287070000 美国 287000000
CYS 1 夏延 287080100 怀俄明 287080000 美国 287000000
SHR 2 谢里登 287080200 怀俄明 287080000 美国 287000000
RKS 3 罗克斯普林斯 287080300 怀俄明 287080000 美国 287000000
EVD 4 埃文斯顿 287080400 怀俄明 287080000 美国 287000000
CPR 5 卡斯珀 287080500 怀俄明 287080000 美国 287000000
LAR 6 拉勒米 287080600 怀俄明 287080000 美国 287000000
ASH 1 纳舒厄 287090100 新罕布什尔 287090000 美国 287000000
MHT 2 曼彻斯特 287090200 新罕布什尔 287090000 美国 287000000
CON 3 康科德 287090300 新罕布什尔 287090000 美国 287000000
NRK 1 纽瓦克 287100100 新泽西 287100000 美国 287000000
JEC 2 泽西城 287100200 新泽西 287100000 美国 287000000
PAT 3 帕特森 287100300 新泽西 287100000 美国 287000000
ABQ 1 阿尔伯克基 287110100 新墨西哥 287110000 美国 287000000
ROW 2 罗斯韦尔 287110200 新墨西哥 287110000 美国 287000000
LRU 3 拉斯克鲁塞斯 287110300 新墨西哥 287110000 美国 287000000
SAF 4 圣菲 287110400 新墨西哥 287110000 美国 287000000
CRP 1 哥帕斯基斯蒂 287120100 德克萨斯 287120000 美国 287000000
LRD 2 拉雷多 287120200 德克萨斯 287120000 美国 287000000
DAL 3 达拉斯 287120300 德克萨斯 287120000 美国 287000000
TXC 4 麦亚伦 287120400 德克萨斯 287120000 美国 287000000
AUS 5 奥斯汀 287120500 德克萨斯 287120000 美国 287000000
HOU 6 休斯敦 287120600 德克萨斯 287120000 美国 287000000
ELP 7 埃尔帕索 287120700 德克萨斯 287120000 美国 287000000
GLS 8 交维斯顿 287120800 德克萨斯 287120000 美国 287000000
SAT 9 圣安东尼奥 287120900 德克萨斯 287120000 美国 287000000
BTR 1 巴吞鲁日 287130100 路易斯安那 287130000 美国 287000000
MSY 2 新奥尔良 287130200 路易斯安那 287130000 美国 287000000
SHV 3 什里夫波特 287130300 路易斯安那 287130000 美国 287000000
RDU 1 洛利杜罕都会区 287140100 北卡罗来纳 287140000 美国 287000000
RAG 2 罗利 287140200 北卡罗来纳 287140000 美国 287000000
CRQ 3 夏洛特 287140300 北卡罗来纳 287140000 美国 287000000
CHE 4 教堂山 287140400 北卡罗来纳 287140000 美国 287000000
AEV 5 艾许维尔 287140500 北卡罗来纳 287140000 美国 287000000
GBO 6 格林斯伯勒 287140600 北卡罗来纳 287140000 美国 287000000
DHH 7 杜罕 287140700 北卡罗来纳 287140000 美国 287000000
FAR 1 法戈 287150100 北达科他 287150000 美国 287000000
GFK 2 大福克斯 287150200 北达科他 287150000 美国 287000000
MOT 3 迈诺特 287150300 北达科他 287150000 美国 287000000
BIS 4 俾斯麦 287150400 北达科他 287150000 美国 287000000
OMA 1 奥马哈 287160100 内布拉斯加 287160000 美国 287000000
XDE 2 贝尔维尤 287160200 内布拉斯加 287160000 美国 287000000
LNK 3 林肯 287160300 内布拉斯加 287160000 美国 287000000
TRI 1 金斯波特 287170100 田纳西 287170000 美国 287000000
CHA 2 查塔努加 287170200 田纳西 287170000 美国 287000000
MEM 3 孟菲斯 287170300 田纳西 287170000 美国 287000000
JCY 4 约翰逊城 287170400 田纳西 287170000 美国 287000000
BSJ 5 布利斯托 287170500 田纳西 287170000 美国 287000000
MQY 6 士麦那 287170600 田纳西 287170000 美国 287000000
RGI 7 斯普林希尔 287170700 田纳西 287170000 美国 287000000
BNA 8 纳什维尔 287170800 田纳西 287170000 美国 287000000
YTC 9 三城区 287170900 田纳西 287170000 美国 287000000
TYS 10 诺克斯维尔 287171000 田纳西 287170000 美国 287000000
FFO 1 布法罗 287180100 纽约 287180000 美国 287000000
ROC 2 罗切斯特 287180200 纽约 287180000 美国 287000000
QEE 3 纽约市 287180300 纽约 287180000 美国 287000000
PHL 1 费城 287190100 宾夕法尼亚 287190000 美国 287000000
PIT 2 匹兹堡 287190200 宾夕法尼亚 287190000 美国 287000000
AEW 3 阿伦敦 287190300 宾夕法尼亚 287190000 美国 287000000
SFO 1 旧金山 287200100 加利福尼亚 287200000 美国 287000000
LAX 2 洛杉矶 287200200 加利福尼亚 287200000 美国 287000000
SAN 3 圣迭戈 287200300 加利福尼亚 287200000 美国 287000000
SJC 4 圣何塞 287200400 加利福尼亚 287200000 美国 287000000
EKO 1 埃尔科 287210100 内华达 287210000 美国 287000000
CSN 2 卡森城 287210200 内华达 287210000 美国 287000000
NVS 3 北拉斯维加斯 287210300 内华达 287210000 美国 287000000
VGI 4 弗吉尼亚城 287210400 内华达 287210000 美国 287000000
SPK 5 斯帕克斯 287210500 内华达 287210000 美国 287000000
RNO 6 里诺 287210600 内华达 287210000 美国 287000000
HNZ 7 亨德森 287210700 内华达 287210000 美国 287000000
LAS 8 拉斯维加斯 287210800 内华达 287210000 美国 287000000
VAB 1 弗吉尼亚比奇 287220100 维吉尼亚 287220000 美国 287000000
ORF 2 诺福克 287220200 维吉尼亚 287220000 美国 287000000
HTW 3 切萨皮克 287220300 维吉尼亚 287220000 美国 287000000
COS 1 科罗拉多斯普林斯 287230100 科罗拉多 287230000 美国 287000000
WBU 2 博尔德 287230200 科罗拉多 287230000 美国 287000000
ASE 3 阿斯彭 287230300 科罗拉多 287230000 美国 287000000
VAC 4 韦尔 287230400 科罗拉多 287230000 美国 287000000
GJT 5 大章克申 287230500 科罗拉多 287230000 美国 287000000
DEN 6 丹佛 287230600 科罗拉多 287230000 美国 287000000
AUX 7 奥罗拉 287230700 科罗拉多 287230000 美国 287000000
FNL 8 柯林斯堡 287230800 科罗拉多 287230000 美国 287000000
ANC 1 安克雷奇 287240100 阿拉斯加 287240000 美国 287000000
FAI 2 费尔班克斯 287240200 阿拉斯加 287240000 美国 287000000
JNU 3 朱诺 287240300 阿拉斯加 287240000 美国 287000000
MOB 1 莫比尔 287250100 阿拉巴马 287250000 美国 287000000
BHM 2 伯明罕 287250200 阿拉巴马 287250000 美国 287000000
MGM 3 蒙哥马利 287250300 阿拉巴马 287250000 美国 287000000
LIT 1 小石城 287260100 阿肯色 287260000 美国 287000000
FYV 2 费耶特维尔 287260200 阿肯色 287260000 美国 287000000
FSM 3 史密斯堡 287260300 阿肯色 287260000 美国 287000000
BTV 1 伯灵顿 287270100 佛蒙特 287270000 美国 287000000
ZBR 2 南伯灵顿 287270200 佛蒙特 287270000 美国 287000000
RUT 3 拉特兰 287270300 佛蒙特 287270000 美国 287000000
ALN 1 奥尔顿 287280100 伊利诺斯 287280000 美国 287000000
NOM 2 诺黙尔 287280200 伊利诺斯 287280000 美国 287000000
MDH 3 卡本代尔 287280300 伊利诺斯 287280000 美国 287000000
DEC 4 迪凯持 287280400 伊利诺斯 287280000 美国 287000000
DVI 5 丹维尓 287280500 伊利诺斯 287280000 美国 287000000
UGN 6 沃其根 287280600 伊利诺斯 287280000 美国 287000000
CMI 7 厄巴纳-香槟 287280700 伊利诺斯 287280000 美国 287000000
CHI 8 芝加哥 287280800 伊利诺斯 287280000 美国 287000000
ESL 9 东圣路易斯 287280900 伊利诺斯 287280000 美国 287000000
SPI 10 斯普林菲尔德 287281000 伊利诺斯 287280000 美国 287000000
BLO 11 布卢明顿 287281100 伊利诺斯 287280000 美国 287000000
DEK 12 迪卡尔布 287281200 伊利诺斯 287280000 美国 287000000
PLA 13 皮奥里亚 287281300 伊利诺斯 287280000 美国 287000000
RFD 14 罗克福德 287281400 伊利诺斯 287280000 美国 287000000
GSU 15 盖尔斯堡 287281500 伊利诺斯 287280000 美国 287000000
AUZ 16 奥罗拉 287281600 伊利诺斯 287280000 美国 287000000
CRA 17 森特勒利亚 287281700 伊利诺斯 287280000 美国 287000000
RKI 18 罗克艾兰 287281800 伊利诺斯 287280000 美国 287000000
TAT 1 亚特兰大 287290100 佐治亚 287290000 美国 287000000
MCN 2 梅肯 287290200 佐治亚 287290000 美国 287000000
CZX 3 哥伦布 287290300 佐治亚 287290000 美国 287000000
AUT 4 奥古斯塔 287290400 佐治亚 287290000 美国 287000000
SAV 5 沙瓦纳 287290500 佐治亚 287290000 美国 287000000
IND 1 印第安纳波利斯 287300100 印第安那 287300000 美国 287000000
FWA 2 韦恩堡 287300200 印第安那 287300000 美国 287000000
EVV 3 埃文斯维尔 287300300 印第安那 287300000 美国 287000000
DVN 1 达文波特 287310100 爱荷华 287310000 美国 287000000
CID 2 锡达拉皮兹 287310200 爱荷华 287310000 美国 287000000
DSM 3 得梅因 287310300 爱荷华 287310000 美国 287000000
BZD 1 波士顿 287320100 马萨诸塞 287320000 美国 287000000
SFY 2 斯普林菲尔德 287320200 马萨诸塞 287320000 美国 287000000
ORH 3 伍斯特 287320300 马萨诸塞 287320000 美国 287000000
MQA 1 梅萨 287330100 亚利桑那 287330000 美国 287000000
TPE 2 坦普 287330200 亚利桑那 287330000 美国 287000000
GDA 3 格兰代尔 287330300 亚利桑那 287330000 美国 287000000
PHX 4 凤凰城 287330400 亚利桑那 287330000 美国 287000000
YUM 5 优玛 287330500 亚利桑那 287330000 美国 287000000
TUC 6 图森 287330600 亚利桑那 287330000 美国 287000000
STZ 7 史卡兹代尔 287330700 亚利桑那 287330000 美国 287000000
PIH 1 波卡特洛 287340100 爱达荷 287340000 美国 287000000
YAF 2 亚美利加瀑布城 287340200 爱达荷 287340000 美国 287000000
QKM 3 岂彻姆 287340300 爱达荷 287340000 美国 287000000
MJL 4 莫斯科 287340400 爱达荷 287340000 美国 287000000
LWS 5 刘易斯顿 287340500 爱达荷 287340000 美国 287000000
NPA 6 楠帕 287340600 爱达荷 287340000 美国 287000000
BOI 7 博伊西 287340700 爱达荷 287340000 美国 287000000
COE 8 科达伦 287340800 爱达荷 287340000 美国 287000000
BLK 9 布莱克富特 287340900 爱达荷 287340000 美国 287000000
SVY 10 森瓦利 287341000 爱达荷 287340000 美国 287000000
ZMU 11 墨菲 287341100 爱达荷 287340000 美国 287000000
IDA 12 爱达荷福尔斯 287341200 爱达荷 287340000 美国 287000000
NWT 1 新不列颠 287350100 康涅狄格 287350000 美国 287000000
HVN 2 纽黑文 287350200 康涅狄格 287350000 美国 287000000
WPT 3 韦斯特波特 287350300 康涅狄格 287350000 美国 287000000
XIN 4 米德尔顿 287350400 康涅狄格 287350000 美国 287000000
DAQ 5 达里恩 287350500 康涅狄格 287350000 美国 287000000
BDR 6 布里奇波特 287350600 康涅狄格 287350000 美国 287000000
WAT 7 沃特伯里 287350700 康涅狄格 287350000 美国 287000000
HFD 8 哈特福德 287350800 康涅狄格 287350000 美国 287000000
GRH 9 格林尼治 287350900 康涅狄格 287350000 美国 287000000
QLW 1 刘易斯顿 287360100 缅因 287360000 美国 287000000
BNQ 2 班戈 287360200 缅因 287360000 美国 287000000
POL 3 波特兰 287360300 缅因 287360000 美国 287000000
BAL 1 巴尔的摩 287370100 马里兰 287370000 美国 287000000
RKV 2 罗克维尔 287370200 马里兰 287370000 美国 287000000
GAI 3 盖瑟斯堡 287370300 马里兰 287370000 美国 287000000
OKC 1 俄克拉荷马城 287380100 俄克拉荷马 287380000 美国 287000000
TUL 2 塔尔萨 287380200 俄克拉荷马 287380000 美国 287000000
OUN 3 诺曼 287380300 俄克拉荷马 287380000 美国 287000000
CZX 1 哥伦布 287390100 俄亥俄 287390000 美国 287000000
DYT 2 代顿 287390200 俄亥俄 287390000 美国 287000000
CLE 3 克利夫兰 287390300 俄亥俄 287390000 美国 287000000
TOL 4 托莱多 287390400 俄亥俄 287390000 美国 287000000
CVG 5 辛辛那提 287390500 俄亥俄 287390000 美国 287000000
PVU 1 普罗沃 287400100 犹他 287400000 美国 287000000
WVC 2 西瓦利城 287400200 犹他 287400000 美国 287000000
SGU 3 圣乔治 287400300 犹他 287400000 美国 287000000
OEU 4 欧仁 287400400 犹他 287400000 美国 287000000
PAC 5 帕克城 287400500 犹他 287400000 美国 287000000
LTJ 6 雷登 287400600 犹他 287400000 美国 287000000
OGD 7 奥格登 287400700 犹他 287400000 美国 287000000
SLC 8 盐湖城 287400800 犹他 287400000 美国 287000000
MKC 1 堪萨斯城 287410100 密苏里 287410000 美国 287000000
COV 2 哥伦比亚 287410200 密苏里 287410000 美国 287000000
STL 3 圣路易斯 287410300 密苏里 287410000 美国 287000000
JEF 4 杰佛逊市 287410400 密苏里 287410000 美国 287000000
SGF 5 斯普林菲尔德 287410500 密苏里 287410000 美国 287000000
RST 1 罗切斯特 287420100 明尼苏达 287420000 美国 287000000
STP 2 圣保罗 287420200 明尼苏达 287420000 美国 287000000
MES 3 明尼阿波利斯 287420300 明尼苏达 287420000 美国 287000000
MKG 1 马斯基根 287430100 密歇根 287430000 美国 287000000
LAN 2 兰辛 287430200 密歇根 287430000 美国 287000000
FNT 3 弗林特 287430300 密歇根 287430000 美国 287000000
GRR 4 大急流城 287430400 密歇根 287430000 美国 287000000
PHN 5 休伦港 287430500 密歇根 287430000 美国 287000000
AZO 6 卡拉马袓 287430600 密歇根 287430000 美国 287000000
DET 7 底特律 287430700 密歇根 287430000 美国 287000000
WAM 8 沃伦 287430800 密歇根 287430000 美国 287000000
SSM 9 苏圣玛丽 287430900 密歇根 287430000 美国 287000000
PTK 10 庞菷亚克 287431000 密歇根 287430000 美国 287000000
ARB 11 安娜堡 287431100 密歇根 287430000 美国 287000000
WYD 12 怀恩多特 287431200 密歇根 287430000 美国 287000000
SGM 13 萨吉诺 287431300 密歇根 287430000 美国 287000000
BCY 14 贝城 287431400 密歇根 287430000 美国 287000000
DEO 15 迪尔伯恩 287431500 密歇根 287430000 美国 287000000
BTL 16 巴特尔克里克 287431600 密歇根 287430000 美国 287000000
XIA 1 莱文沃思 287440100 堪萨斯 287440000 美国 287000000
MHK 2 曼哈顿 287440200 堪萨斯 287440000 美国 287000000
TOP 3 托皮卡 287440300 堪萨斯 287440000 美国 287000000
KCK 4 堪萨斯城 287440400 堪萨斯 287440000 美国 287000000
LWC 5 劳伦斯 287440500 堪萨斯 287440000 美国 287000000
ABZ 6 阿比林 287440600 堪萨斯 287440000 美国 287000000
HCH 7 哈钦森 287440700 堪萨斯 287440000 美国 287000000
OVL 8 奥弗兰公园 287440800 堪萨斯 287440000 美国 287000000
ICT 9 威奇托 287440900 堪萨斯 287440000 美国 287000000
MSO 1 米苏拉 287450100 蒙大拿 287450000 美国 287000000
BGS 2 比灵斯 287450200 蒙大拿 287450000 美国 287000000
GTF 3 大瀑布村 287450300 蒙大拿 287450000 美国 287000000
GLH 1 格林维尔 287460100 密西西比 287460000 美国 287000000
HBG 2 哈蒂斯堡 287460200 密西西比 287460000 美国 287000000
VKS 3 维克斯堡 287460300 密西西比 287460000 美国 287000000
MEI 4 默里迪恩 287460400 密西西比 287460000 美国 287000000
JAN 5 杰克逊 287460500 密西西比 287460000 美国 287000000
BIX 6 比洛克西 287460600 密西西比 287460000 美国 287000000
GPT 7 格尔夫波特 287460700 密西西比 287460000 美国 287000000
COV 1 哥伦比亚 287470100 南卡罗来纳 287470000 美国 287000000
NTS 2 北查尔斯顿 287470200 南卡罗来纳 287470000 美国 287000000
CHS 3 查尔斯顿 287470300 南卡罗来纳 287470000 美国 287000000
LEX 1 列克星敦 287480100 肯塔基 287480000 美国 287000000
LUI 2 路易斯维尔 287480200 肯塔基 287480000 美国 287000000
OWB 3 欧文斯伯勒 287480300 肯塔基 287480000 美国 287000000
NPO 1 纽波特 287490100 罗德岛 287490000 美国 287000000
CQH 2 克兰斯顿 287490200 罗德岛 287490000 美国 287000000
PAW 3 波塔基特 287490300 罗德岛 287490000 美国 287000000
SFN 4 文索基特 287490400 罗德岛 287490000 美国 287000000
UZO 5 沃威克 287490500 罗德岛 287490000 美国 287000000
WST 6 韦斯特利 287490600 罗德岛 287490000 美国 287000000
PVD 7 普罗维登斯 287490700 罗德岛 287490000 美国 287000000
SPY 1 斯普林菲尔德 287500100 俄勒冈 287500000 美国 287000000
CTR 2 火山口湖 287500200 俄勒冈 287500000 美国 287000000
PDX 3 波特兰 287500300 俄勒冈 287500000 美国 287000000
EUG 4 尤金 287500400 俄勒冈 287500000 美国 287000000
DAC 5 达拉斯 287500500 俄勒冈 287500000 美国 287000000
STH 6 圣海伦斯 287500600 俄勒冈 287500000 美国 287000000
YCV 7 科瓦利斯 287500700 俄勒冈 287500000 美国 287000000
DLS 8 达尔斯 287500800 俄勒冈 287500000 美国 287000000
XFX 9 格兰茨帕斯 287500900 俄勒冈 287500000 美国 287000000
MFR 10 梅德福 287501000 俄勒冈 287500000 美国 287000000
COB 11 库斯贝 287501100 俄勒冈 287500000 美国 287000000
BZO 12 本德 287501200 俄勒冈 287500000 美国 287000000
SLE 13 塞勒姆 287501300 俄勒冈 287500000 美国 287000000
HDX 14 胡德里弗 287501400 俄勒冈 287500000 美国 287000000
TLM 15 蒂拉穆克 287501500 俄勒冈 287500000 美国 287000000
ABK 1 阿伯丁 287510100 南达科他 287510000 美国 287000000
FSD 2 苏福尔斯 287510200 南达科他 287510000 美国 287000000
RAP 3 拉皮德城 287510300 南达科他 287510000 美国 287000000
DSG 1 达城郡 296030100 大邱 296030000 韩国 296000000
SUS 2 寿城区 296030200 大邱 296030000 韩国 296000000
TAE 3 大邱 296030300 大邱 296030000 韩国 296000000
USG 1 义城郡 296040100 庆尚北道 296040000 韩国 296000000
KMC 2 金泉市 296040200 庆尚北道 296040000 韩国 296000000
GJU 3 庆州市 296040300 庆尚北道 296040000 韩国 296000000
GWI 4 军威郡 296040400 庆尚北道 296040000 韩国 296000000
KUM 5 龟尾市 296040500 庆尚北道 296040000 韩国 296000000
CGK 6 漆谷郡 296040600 庆尚北道 296040000 韩国 296000000
YDK 7 盈德郡 296040700 庆尚北道 296040000 韩国 296000000
GYS 8 庆山市 296040800 庆尚北道 296040000 韩国 296000000
SEJ 9 星州郡 296040900 庆尚北道 296040000 韩国 296000000
CSG 10 靑松郡 296041000 庆尚北道 296040000 韩国 296000000
SJU 11 尙州市 296041100 庆尚北道 296040000 韩国 296000000
GRG 12 高灵郡 296041200 庆尚北道 296040000 韩国 296000000
UJN 13 蔚珍郡 296041300 庆尚北道 296040000 韩国 296000000
YCH 14 永川市 296041400 庆尚北道 296040000 韩国 296000000
ULG 15 郁陵郡 296041500 庆尚北道 296040000 韩国 296000000
KPO 16 浦项市 296041600 庆尚北道 296040000 韩国 296000000
YEJ 17 荣州市 296041700 庆尚北道 296040000 韩国 296000000
MGG 18 闻庆市 296041800 庆尚北道 296040000 韩国 296000000
ADG 19 安东市 296041900 庆尚北道 296040000 韩国 296000000
BHA 20 奉化郡 296042000 庆尚北道 296040000 韩国 296000000
YEC 21 醴泉郡 296042100 庆尚北道 296040000 韩国 296000000
CDO 22 淸道郡 296042200 庆尚北道 296040000 韩国 296000000
YYG 23 英阳郡 296042300 庆尚北道 296040000 韩国 296000000
JDO 1 珍岛郡 296050100 全罗南道 296050000 韩国 296000000
JHG 2 长兴郡 296050200 全罗南道 296050000 韩国 296000000
GJN 3 康津郡 296050300 全罗南道 296050000 韩国 296000000
GHG 4 高兴郡 296050400 全罗南道 296050000 韩国 296000000
GSE 5 谷城郡 296050500 全罗南道 296050000 韩国 296000000
MOK 6 木浦市 296050600 全罗南道 296050000 韩国 296000000
SAN 7 新安郡 296050700 全罗南道 296050000 韩国 296000000
WND 8 莞岛郡 296050800 全罗南道 296050000 韩国 296000000
YOS 9 丽水市 296050900 全罗南道 296050000 韩国 296000000
JSN 10 长城郡 296051000 全罗南道 296050000 韩国 296000000
HSN 11 和顺郡 296051100 全罗南道 296050000 韩国 296000000
NJU 12 罗州市 296051200 全罗南道 296050000 韩国 296000000
BSG 13 宝城郡 296051300 全罗南道 296050000 韩国 296000000
DYA 14 潭阳郡 296051400 全罗南道 296050000 韩国 296000000
HAE 15 海南郡 296051500 全罗南道 296050000 韩国 296000000
YAM 16 灵岩郡 296051600 全罗南道 296050000 韩国 296000000
GRE 17 求礼郡 296051700 全罗南道 296050000 韩国 296000000
HPG 18 咸平郡 296051800 全罗南道 296050000 韩国 296000000
YGG 19 灵光郡 296051900 全罗南道 296050000 韩国 296000000
KAN 20 光阳市 296052000 全罗南道 296050000 韩国 296000000
SYS 21 顺天市 296052100 全罗南道 296050000 韩国 296000000
MAN 22 务安郡 296052200 全罗南道 296050000 韩国 296000000
BCN 1 富川市 296060100 京畿道 296060000 韩国 296000000
SUO 2 水原市 296060200 京畿道 296060000 韩国 296000000
YNG 3 龙仁市 296060300 京畿道 296060000 韩国 296000000
HNM 4 河南市 296060400 京畿道 296060000 韩国 296000000
GUN 5 军浦市 296060500 京畿道 296060000 韩国 296000000
NYU 6 南杨州市 296060600 京畿道 296060000 韩国 296000000
YJU 7 骊州郡 296060700 京畿道 296060000 韩国 296000000
GYG 8 高阳市 296060800 京畿道 296060000 韩国 296000000
PTK 9 平泽市 296060900 京畿道 296060000 韩国 296000000
UIJ 10 议政府市 296061000 京畿道 296060000 韩国 296000000
ASG 11 安城市 296061100 京畿道 296060000 韩国 296000000
OSN 12 乌山市 296061200 京畿道 296060000 韩国 296000000
SEO 13 城南市 296061300 京畿道 296060000 韩国 296000000
KWU 14 广州市 296061400 京畿道 296060000 韩国 296000000
ASN 15 安山市 296061500 京畿道 296060000 韩国 296000000
POC 16 抱川市 296061600 京畿道 296060000 韩国 296000000
YPG 17 扬平郡 296061700 京畿道 296060000 韩国 296000000
GPG 18 加平郡 296061800 京畿道 296060000 韩国 296000000
GMG 19 光明市 296061900 京畿道 296060000 韩国 296000000
ICE 20 利川市 296062000 京畿道 296060000 韩国 296000000
GCN 21 果川市 296062100 京畿道 296060000 韩国 296000000
YCN 22 涟川郡 296062200 京畿道 296060000 韩国 296000000
DDC 23 东豆川市 296062300 京畿道 296060000 韩国 296000000
HCH 24 华城市 296062400 京畿道 296060000 韩国 296000000
GMP 25 金浦市 296062500 京畿道 296060000 韩国 296000000
GRI 26 九里市 296062600 京畿道 296060000 韩国 296000000
YYU 27 杨州市 296062700 京畿道 296060000 韩国 296000000
UWN 28 仪旺市 296062800 京畿道 296060000 韩国 296000000
PJU 29 坡州市 296062900 京畿道 296060000 韩国 296000000
ANY 30 安养市 296063000 京畿道 296060000 韩国 296000000
SHE 31 始兴市 296063100 京畿道 296060000 韩国 296000000
GYE 1 鸡龙市 296070100 忠清南道 296070000 韩国 296000000
NSN 2 论山市 296070200 忠清南道 296070000 韩国 296000000
GOJ 3 公州市 296070300 忠清南道 296070000 韩国 296000000
SCE 4 舒川郡 296070400 忠清南道 296070000 韩国 296000000
SSA 5 瑞山市 296070500 忠清南道 296070000 韩国 296000000
BOR 6 保宁市 296070600 忠清南道 296070000 韩国 296000000
HSE 7 洪城郡 296070700 忠清南道 296070000 韩国 296000000
YGI 8 燕岐郡 296070800 忠清南道 296070000 韩国 296000000
GSA 9 锦山郡 296070900 忠清南道 296070000 韩国 296000000
BYO 10 扶余郡 296071000 忠清南道 296070000 韩国 296000000
ASA 11 牙山市 296071100 忠清南道 296070000 韩国 296000000
CYG 12 青阳郡 296071200 忠清南道 296070000 韩国 296000000
TAN 13 泰安郡 296071300 忠清南道 296070000 韩国 296000000
CHO 14 天安市 296071400 忠清南道 296070000 韩国 296000000
YOS 15 礼山郡 296071500 忠清南道 296070000 韩国 296000000
TJI 16 唐津郡 296071600 忠清南道 296070000 韩国 296000000
JSE 1 旌善郡 296080100 江原道 296080000 韩国 296000000
CHC 2 春川市 296080200 江原道 296080000 韩国 296000000
KAG 3 江陵市 296080300 江原道 296080000 韩国 296000000
HSG 4 横城郡 296080400 江原道 296080000 韩国 296000000
WJU 5 原州市 296080500 江原道 296080000 韩国 296000000
SUK 6 三陟市 296080600 江原道 296080000 韩国 296000000
YGU 7 杨口郡 296080700 江原道 296080000 韩国 296000000
TBK 8 太白市 296080800 江原道 296080000 韩国 296000000
IJE 9 麟蹄郡 296080900 江原道 296080000 韩国 296000000
GSG 10 高城郡 296081000 江原道 296080000 韩国 296000000
CWN 11 铁原郡 296081100 江原道 296080000 韩国 296000000
YNY 12 襄阳郡 296081200 江原道 296080000 韩国 296000000
POG 13 平昌郡 296081300 江原道 296080000 韩国 296000000
TGH 14 东海市 296081400 江原道 296080000 韩国 296000000
YWL 15 宁越郡 296081500 江原道 296080000 韩国 296000000
HCN 16 洪川郡 296081600 江原道 296080000 韩国 296000000
HCH 17 华川郡 296081700 江原道 296080000 韩国 296000000
SHO 18 束草市 296081800 江原道 296080000 韩国 296000000
IKS 1 益山市 296140100 全罗北道 296140000 韩国 296000000
WAJ 2 完州郡 296140200 全罗北道 296140000 韩国 296000000
GCG 3 高敞郡 296140300 全罗北道 296140000 韩国 296000000
JSU 4 长水郡 296140400 全罗北道 296140000 韩国 296000000
KUV 5 群山市 296140500 全罗北道 296140000 韩国 296000000
SCG 6 淳昌郡 296140600 全罗北道 296140000 韩国 296000000
JAN 7 鎭安郡 296140700 全罗北道 296140000 韩国 296000000
MJU 8 茂朱郡 296140800 全罗北道 296140000 韩国 296000000
ISL 9 任实郡 296140900 全罗北道 296140000 韩国 296000000
JNJ 10 全州市 296141000 全罗北道 296140000 韩国 296000000
NWN 11 南原市 296141100 全罗北道 296140000 韩国 296000000
GJE 12 金堤市 296141200 全罗北道 296140000 韩国 296000000
JEO 13 井邑市 296141300 全罗北道 296140000 韩国 296000000
PUS 14 扶安郡 296141400 全罗北道 296140000 韩国 296000000
CJJ 1 淸州市 296150100 忠清北道 296150000 韩国 296000000
BEN 2 报恩郡 296150200 忠清北道 296150000 韩国 296000000
OCN 3 沃川郡 296150300 忠清北道 296150000 韩国 296000000
YDG 4 永同郡 296150400 忠清北道 296150000 韩国 296000000
ESG 5 阴城郡 296150500 忠清北道 296150000 韩国 296000000
JYG 6 曾坪郡 296150600 忠清北道 296150000 韩国 296000000
CHU 7 忠州市 296150700 忠清北道 296150000 韩国 296000000
CWO 8 淸原郡 296150800 忠清北道 296150000 韩国 296000000
JCN 9 鎭川郡 296150900 忠清北道 296150000 韩国 296000000
DYG 10 丹阳郡 296151000 忠清北道 296150000 韩国 296000000
JCH 11 堤川市 296151100 忠清北道 296150000 韩国 296000000
GSN 12 槐山郡 296151200 忠清北道 296150000 韩国 296000000
NHE 1 南海郡 296160100 庆尚南道 296160000 韩国 296000000
MAS 2 马山市 296160200 庆尚南道 296160000 韩国 296000000
MIR 3 密阳市 296160300 庆尚南道 296160000 韩国 296000000
HYG 4 咸阳郡 296160400 庆尚南道 296160000 韩国 296000000
YSN 5 梁山市 296160500 庆尚南道 296160000 韩国 296000000
HAN 6 咸安郡 296160600 庆尚南道 296160000 韩国 296000000
KJE 7 巨济市 296160700 庆尚南道 296160000 韩国 296000000
HCE 8 陜川郡 296160800 庆尚南道 296160000 韩国 296000000
GCH 9 居昌郡 296160900 庆尚南道 296160000 韩国 296000000
TYG 10 统营市 296161000 庆尚南道 296160000 韩国 296000000
CHF 11 鎭海市 296161100 庆尚南道 296160000 韩国 296000000
KMH 12 金海市 296161200 庆尚南道 296160000 韩国 296000000
HDG 13 河东郡 296161300 庆尚南道 296160000 韩国 296000000
CNG 14 昌宁郡 296161400 庆尚南道 296160000 韩国 296000000
URG 15 宜宁郡 296161500 庆尚南道 296160000 韩国 296000000
SAH 16 泗川市 296161600 庆尚南道 296160000 韩国 296000000
HIN 17 晋州市 296161700 庆尚南道 296160000 韩国 296000000
CHW 18 昌原市 296161800 庆尚南道 296160000 韩国 296000000
GSO 19 固城郡 296161900 庆尚南道 296160000 韩国 296000000
SCH 20 山淸郡 296162000 庆尚南道 296160000 韩国 296000000
