﻿RADIO GAGA	佚名	2014/1/31 12:39:35	北京音乐广播				
真爱如水	DJ	2014/1/31 17:46:58	北京音乐广播				
盖房子	佚名	2014/2/1 11:11:55	北京音乐广播				
找爸爸	佚名	2014/2/1 14:11:40	北京音乐广播				
女友嫁人新郎不是我	佚名	2014/2/2 11:42:57	北京音乐广播				
ONE DAY	佚名	2014/2/2 15:15:37	北京音乐广播				
对你没办法	佚名	2014/2/2 17:40:43	北京音乐广播				
奉天承运小端打造嗨客听旨	DJ	2014/2/3 2:29:43	北京音乐广播				
FREE LOOP	佚名	2014/2/5 12:22:19	北京音乐广播				
找爸爸	佚名	2014/2/5 14:11:17	北京音乐广播				
DJ酬仔中文超爽旋律嗨曲	DJ	2014/2/5 17:11:18	北京音乐广播				
GOODBYE I LOVE U BOYZ	佚名	2014/2/7 8:44:31	北京音乐广播				
DJ JK迎接2012年首张劲爆嗨曲	DJ	2014/2/7 17:35:50	北京音乐广播				
青色的马路	佚名	2014/2/7 23:53:13	北京音乐广播				
行船阿郎	佚名	2014/2/8 2:14:00	北京音乐广播				
快乐歌声	佚名	2014/2/8 22:56:07	北京音乐广播				
祈祷你幸福	佚名	2014/2/9 0:26:04	北京音乐广播				
OH HOW LOVELY IS THE EVENING	佚名	2014/2/9 11:13:43	北京音乐广播				
安慰	佚名	2014/2/9 16:55:55	北京音乐广播				
数羊	佚名	2014/2/10 5:35:58	北京音乐广播				
轻轻的告诉你	馨梓	2014/2/10 6:13:03	北京音乐广播				
轻轻的告诉你	杨钰莹	2014/2/10 6:13:43	北京音乐广播				
NULL	"UNKLE"	2014/2/10 6:44:57	北京音乐广播				
NULL	"m e l l o w d r o n e"	2014/2/10 6:55:41	北京音乐广播				
별처럼	K.Will	2014/2/10 10:25:09	北京音乐广播				
我心生爱苗	佚名	2014/2/10 13:41:40	北京音乐广播				
痴心误会	佚名	2014/2/10 17:20:06	北京音乐广播				
마음으로만	朴正炫	2014/2/11 8:50:31	北京音乐广播				
별에서 온 그대 (Inst.)	Younha	2014/2/11 10:53:30	北京音乐广播				
怨你一世人	佚名	2014/2/11 15:05:13	北京音乐广播				
快乐行	佚名	2014/2/11 16:37:16	北京音乐广播				
大悲咒	佚名	2014/2/11 18:38:33	北京音乐广播				
Quik's Groove 6	DJ Quik	2014/2/11 22:39:33	北京音乐广播				
文明用语	佚名	2014/2/12 0:15:56	北京音乐广播				
PAINT MY LOVE	佚名	2014/2/13 6:34:25	北京音乐广播				
Jetti Live at Signals and Systems (01.22, 2003)	Jetti (Eric Gunther and Todd Gys)	2014/2/13 7:48:45	北京音乐广播				
绿野仙踪	佚名	2014/2/14 6:23:40	北京音乐广播				
电台情歌	DJ	2014/2/14 10:54:46	北京音乐广播				
Shall We Dance?	Broadway	2014/2/14 13:26:41	北京音乐广播				
我不是坏小孩	丢丢_FEATURING_潘艺	2014/2/14 18:50:28	北京音乐广播				
Jetti Live at Signals and Systems 	Jetti (Eric Gunther and Todd Gys)	2014/2/14 20:10:49	北京音乐广播				
别让自己活得不好	佚名	2014/2/14 21:44:13	北京音乐广播				
ÎÒÒªÎÒÃÇÔÚÒ»Æð	G.E.M. µË×ÏÆå	2014/2/14 22:49:26	北京音乐广播
本事	佚名	2014/1/31 1:44:12	楚天音乐广播
No F****All	Nid & Sancy	2014/1/31 6:20:17	楚天音乐广播
永远不回头	佚名	2014/1/31 7:58:56	楚天音乐广播
开路先锋	佚名	2014/1/31 8:00:16	楚天音乐广播
ÎÒÆÚ´ý	ÂÞçù	2014/1/31 8:59:33	楚天音乐广播
´ºÀ´ÁË(live°æ)	ÁõÏàËÉ	2014/1/31 11:30:35	楚天音乐广播
深更的吉他	佚名	2014/1/31 15:44:19	楚天音乐广播
ÎÒÆÚ´ý	ÂÞçù	2014/1/31 16:00:00	楚天音乐广播
ÎÒÒªÎÒÃÇÔÚÒ»Æð	G.E.M. µË×ÏÆå	2014/1/31 16:59:18	楚天音乐广播
贺新春劲爆串烧DJ叮咚	DJ	2014/1/31 17:11:20	楚天音乐广播
大家来环保	佚名	2014/1/31 18:40:58	楚天音乐广播
ÎÒÆÚ´ý	ÂÞçù	2014/1/31 22:57:24	楚天音乐广播
节约用水才应该	佚名	2014/2/1 2:07:40	楚天音乐广播
ÎÒÒªÎÒÃÇÔÚÒ»Æð	G.E.M. µË×ÏÆå	2014/2/1 7:59:03	楚天音乐广播
ÎÒÆÚ´ý	ÂÞçù	2014/2/1 8:59:27	楚天音乐广播
¾íÖéÁ±(live°æ)	»ô×ð	2014/2/1 11:23:23	楚天音乐广播
等我凯旋	佚名	2014/2/2 5:29:00	楚天音乐广播
报花名	佚名	2014/2/2 9:21:20	楚天音乐广播
ÎÒÆÚ´ý	ÂÞçù	2014/2/2 10:44:45	楚天音乐广播
ÎÒÆÚ´ý	ÂÞçù	2014/2/2 17:59:30	楚天音乐广播
¾íÖéÁ±(live°æ)	»ô×ð	2014/2/5 14:53:17	楚天音乐广播
你和我的爱	大大朋	2014/2/5 18:54:24	楚天音乐广播
ÎÒÒªÎÒÃÇÔÚÒ»Æð	G.E.M. µË×ÏÆå	2014/2/5 21:59:04	楚天音乐广播
2010最新电子HOUSE	DJ	2014/2/6 0:16:21	楚天音乐广播
¾íÖéÁ±(live°æ)	»ô×ð	2014/2/6 2:11:05	楚天音乐广播
我不是坏小孩	丢丢_FEATURING_潘艺	2014/2/6 3:19:52	楚天音乐广播
Buy, Buy, Buy (TRL Mix)	Smartypants	2014/2/6 5:51:29	楚天音乐广播
ANOTHER DAY IN PARADISE	佚名	2014/2/6 7:36:31	楚天音乐广播
OFFICE LADY	佚名	2014/2/6 13:47:17	楚天音乐广播
顶级热播午夜DJ全中文	DJ	2014/2/6 14:52:42	楚天音乐广播
ÎÒÆÚ´ý	ÂÞçù	2014/2/6 15:44:18	楚天音乐广播
Track 03	Kevin Blechdom	2014/2/6 15:47:21	楚天音乐广播
ÎÒÒªÎÒÃÇÔÚÒ»Æð	G.E.M. µË×ÏÆå	2014/2/6 17:59:02	楚天音乐广播
ÎÒÒªÎÒÃÇÔÚÒ»Æð	G.E.M. µË×ÏÆå	2014/2/6 20:59:05	楚天音乐广播
ÎÒÆÚ´ý	ÂÞçù	2014/2/6 21:59:42	楚天音乐广播
皇冠一刻钟	DJ	2014/2/6 23:33:25	楚天音乐广播
火辣辣的风	DJ	2014/2/7 8:33:20	楚天音乐广播
我是推销员	菜鸟_董へ	2014/2/7 11:04:22	楚天音乐广播
´æÔÚ	G.E.M. µË×ÏÆå	2014/2/7 14:57:48	楚天音乐广播
篱笆墙的影子		2014/2/7 17:14:09	楚天音乐广播
ÎÒÆÚ´ý	ÂÞçù	2014/2/7 17:59:30	楚天音乐广播
噢!圣诞树	佚名	2014/2/7 22:46:16	楚天音乐广播
ANOTHER DAY IN PARADISE	佚名	2014/2/8 15:25:39	楚天音乐广播
DONNA DONNA	佚名	2014/2/8 16:07:41	楚天音乐广播
付送折磨	小馨&满溢_小馨&满溢	2014/2/9 0:14:25	楚天音乐广播
Goma Second Half (2nd Time)	Legend of Zelda : The Wind Waker	2014/2/9 16:54:36	楚天音乐广播
ÎÒÒªÎÒÃÇÔÚÒ»Æð	G.E.M. µË×ÏÆå	2014/2/10 11:44:38	楚天音乐广播
ÎÒÆÚ´ý	ÂÞçù	2014/2/10 18:59:44	楚天音乐广播
DJ兆祺全中文劲爆串烧	DJ	2014/2/11 2:02:07	楚天音乐广播
Oh Well/Out	DJ Quik	2014/2/11 6:15:44	楚天音乐广播
ÎÒÒªÎÒÃÇÔÚÒ»Æð	G.E.M. µË×ÏÆå	2014/2/11 6:59:21	楚天音乐广播
¾íÖéÁ±(live°æ)	»ô×ð	2014/2/11 12:28:05	楚天音乐广播
文明用语	佚名	2014/2/11 16:28:34	楚天音乐广播
ÎÒÒªÎÒÃÇÔÚÒ»Æð	G.E.M. µË×ÏÆå	2014/2/11 20:25:13	楚天音乐广播
MARIA MARIA	佚名	2014/2/12 10:22:52	楚天音乐广播
望星空-探戈	佚名	2014/2/12 20:29:00	楚天音乐广播
ÎÒÆÚ´ý	ÂÞçù	2014/2/12 21:00:06	楚天音乐广播
猜拳歌	佚名	2014/2/12 23:07:41	楚天音乐广播
人民警察职业道德之歌	佚名	2014/2/13 10:32:31	楚天音乐广播
摇摆的世界	DJ	2014/2/13 13:39:11	楚天音乐广播
闪亮的心永远爱你	佚名	2014/2/13 17:38:37	楚天音乐广播
停在我心里的温柔	佚名	2014/2/14 2:58:38	楚天音乐广播
ÎÒÒªÎÒÃÇÔÚÒ»Æð	G.E.M. µË×ÏÆå	2014/2/14 12:29:01	楚天音乐广播
ÎÒÒªÎÒÃÇÔÚÒ»Æð	G.E.M. µË×ÏÆå	2014/2/14 14:59:37	楚天音乐广播
»­(live°æ)	ÕÔÀ×	2014/2/14 16:12:00	楚天音乐广播
Ò»¸ö¸èÊÖµÄÇéÊé(live°æ)	ÖÜÈý	2014/2/14 16:18:39	楚天音乐广播
ÎÒÆÚ´ý	ÂÞçù	2014/2/14 18:00:05	楚天音乐广播
ÎÒÒªÎÒÃÇÔÚÒ»Æð	G.E.M. µË×ÏÆå	2014/2/14 21:59:23	楚天音乐广播
´æÔÚ	G.E.M. µË×ÏÆå	2014/1/31 0:31:05	贵州音乐广播
BWV 807 - Bourree II - Bourre	Bach, Johann Sebastian	2014/1/31 2:08:08	贵州音乐广播
今宵的霓虹为你开	佚名	2014/1/31 10:15:12	贵州音乐广播
爱到如今	佚名	2014/1/31 18:27:33	贵州音乐广播
Music For Girl (Featuring Lisa Milberg)	Kleerup	2014/1/31 22:29:33	贵州音乐广播
响当当的连队呱呱叫的兵	3D动漫	2014/1/31 22:55:15	贵州音乐广播
发财又兴旺	王雪晶_庄群施	2014/1/31 23:18:57	贵州音乐广播
KEEP ON LOVING YOU	佚名	2014/2/1 4:02:39	贵州音乐广播
NULL	NULL	2014/2/1 4:47:00	贵州音乐广播
说好不在为你哭	晓依	2014/2/1 8:06:37	贵州音乐广播
春天到	佚名	2014/2/1 11:19:00	贵州音乐广播
恍如一梦	佚名	2014/2/1 12:08:02	贵州音乐广播
SHOWER THE PEOPLE	佚名	2014/2/1 13:12:55	贵州音乐广播
人生走马灯	容儿	2014/2/1 14:55:58	贵州音乐广播
AIN'T THAT A SHAME	佚名	2014/2/1 22:24:03	贵州音乐广播
红了不着时	樱桃姐妹_黄西田	2014/2/2 1:16:01	贵州音乐广播
不做花心男	王昊	2014/2/2 8:40:42	贵州音乐广播
在那下雪的夜晚	沙子浪	2014/2/2 8:52:43	贵州音乐广播
你怎么忍心让我一个人生活	凌志辉	2014/2/2 19:48:04	贵州音乐广播
我还年轻	佚名	2014/2/5 10:37:32	贵州音乐广播
草堂秋雨	陈小汉_曹秀琴	2014/2/5 17:05:33	贵州音乐广播
翠玉情缘	巫淑琳	2014/2/5 17:16:54	贵州音乐广播
非主流初恋	赛娅_胡小宝	2014/2/6 10:56:40	贵州音乐广播
The First Time: "Pleasure Of S"	Solomon & Socalled	2014/2/6 11:49:40	贵州音乐广播
Freak-A-Holic (12" Dub Mix)	The Egyptian Lover	2014/2/6 14:00:17	贵州音乐广播
爱你却只能给你玫瑰	谢知言	2014/2/6 15:28:21	贵州音乐广播
百花亭赠剑	曹秀琴_吴国华	2014/2/6 17:48:23	贵州音乐广播
[b1] k-reg micra	Fzv	2014/2/6 19:26:44	贵州音乐广播
´æÔÚ	G.E.M. µË×ÏÆå	2014/2/7 0:30:43	贵州音乐广播
爱的路上千万里	佚名	2014/2/7 1:35:48	贵州音乐广播
ÎÒÒªÎÒÃÇÔÚÒ»Æð	G.E.M. µË×ÏÆå	2014/2/7 8:49:45	贵州音乐广播
一千零一次的想起你	寒雨	2014/2/7 10:11:50	贵州音乐广播
让地球绽放出笑容	佚名	2014/2/7 12:54:51	贵州音乐广播
蒙古牧歌	佚名	2014/2/7 14:44:42	贵州音乐广播
YOU'VE GOT A FRIEND	佚名	2014/2/7 19:51:25	贵州音乐广播
02. piano sonata no.16 in g,op.31 no.1 - adagio grazioso	Beethoven	2014/2/7 22:20:43	贵州音乐广播
和你一起飞	金波	2014/2/7 22:55:08	贵州音乐广播
傲慢与偏见	佚名	2014/2/8 17:19:34	贵州音乐广播
脆弱的感情	郑晓飞	2014/2/8 19:36:51	贵州音乐广播
想找个人来伤我的心	乔海清	2014/2/9 16:23:14	贵州音乐广播
为你而醉	翁汕汕	2014/2/9 21:09:14	贵州音乐广播
离开后才想起她的温柔	凌志辉	2014/2/9 22:24:36	贵州音乐广播
文明用语	佚名	2014/2/9 23:24:57	贵州音乐广播
第一次亲密接触之板砖脸	佚名	2014/2/10 21:25:19	贵州音乐广播
姑娘你真美	佚名	2014/2/10 23:20:39	贵州音乐广播
´æÔÚ	G.E.M. µË×ÏÆå	2014/2/11 0:31:19	贵州音乐广播
金枕情	黄伟坤_李池湘	2014/2/11 1:37:01	贵州音乐广播
四渡赤水出奇兵	佚名	2014/2/11 2:23:33	贵州音乐广播
乡音乡情	佚名	2014/2/11 10:07:16	贵州音乐广播
关东风	张波	2014/2/11 12:14:18	贵州音乐广播
相爱是一种错	轲然	2014/2/11 12:50:56	贵州音乐广播
The Sailor in Love With the Sea (feat. Gary Numan)	The 6ths	2014/2/12 0:55:29	贵州音乐广播
[b1] k-reg micra	Fzv	2014/2/12 0:55:49	贵州音乐广播
Day's End featuring Kazufumi Kodama	DJ Krush	2014/1/31 22:13:17	江西音乐广播
THERE YOU'LL BE	佚名	2014/1/31 22:37:38	江西音乐广播
LOVE WILL KEEP US ALIVE	佚名	2014/2/1 2:02:22	江西音乐广播
CAN'T FIGHT THE MOONLIGHT	佚名	2014/2/1 14:05:27	江西音乐广播
贺新春劲爆串烧DJ叮咚	DJ	2014/2/1 18:33:51	江西音乐广播
无语问苍天	佚名	2014/2/2 2:47:40	江西音乐广播
NULL	"DJ Cheb I Sabbah"	2014/2/2 16:27:02	江西音乐广播
我的心一路向北	DJ	2014/2/5 14:04:25	江西音乐广播
十五的月亮	佚名	2014/2/5 19:36:03	江西音乐广播
你把我灌醉	应豪	2014/2/6 19:38:36	江西音乐广播
演艺舞台	群星	2014/2/7 3:10:15	江西音乐广播
Testure (12" Mix)	Skinny Puppy	2014/2/7 14:58:28	江西音乐广播
I LOVE YOU ALWAYS FOREVER	佚名	2014/2/7 19:29:54	江西音乐广播
真心英雄-双语种	群星	2014/2/7 22:56:17	江西音乐广播
文明用语	佚名	2014/2/8 20:15:05	江西音乐广播
(Everything I Do) I Do It for You	Bryan Adams	2014/2/8 23:42:04	江西音乐广播
谢谢	佚名	2014/2/9 12:10:42	江西音乐广播
Omni Trio - Trippin' on Broken Beats 'Carlito rmx'	Doc Scott	2014/2/9 16:10:04	江西音乐广播
每当我走过老师的窗前	佚名	2014/2/9 23:11:31	江西音乐广播
情深深雨濛濛	馨梓	2014/2/10 2:44:53	江西音乐广播
冬季校园	佚名	2014/2/10 15:39:33	江西音乐广播
收不回的爱	佚名	2014/2/11 3:38:56	江西音乐广播
爱诗	佚名	2014/2/11 5:49:23	江西音乐广播
FATHER AND SON	佚名	2014/2/11 7:02:27	江西音乐广播
我的心一路向北	DJ	2014/2/11 9:52:25	江西音乐广播
해지면...	Psy	2014/2/11 17:22:55	江西音乐广播
The Triple Wide >	Umphrey's McGee	2014/2/11 17:52:34	江西音乐广播
前进歌	佚名	2014/2/11 22:49:13	江西音乐广播
面子问题	佚名	2014/2/12 0:21:55	江西音乐广播
05. serenade for flute,violin & viola in d,op.25 - tempo ordinario d'un minuetto	Beethoven	2014/2/12 2:03:35	江西音乐广播
遇到	佚名	2014/2/12 8:21:54	江西音乐广播
大家来恋爱	群星	2014/2/12 11:20:35	江西音乐广播
The Watcher 2 feat. Dr. Dre, Rakim and Truth Hurts	Jay-Z	2014/2/12 12:17:37	江西音乐广播
尽头	不辣	2014/2/13 4:07:23	江西音乐广播
选择是错	DJ	2014/2/13 8:52:04	江西音乐广播
Walk Through Walls	I'm Not a Gun	2014/2/13 13:25:23	江西音乐广播
飘洋过海来看你	娃娃	2014/2/13 13:34:03	江西音乐广播
情人	CT_GIRLS	2014/2/13 15:06:03	江西音乐广播
Stewart Walker - Recoil	Theorem	2014/2/13 16:09:24	江西音乐广播
Cartoon Capers (feat. Sinister 6000)	Dan the Automator	2014/2/13 16:53:07	江西音乐广播
gizfam	gloob(ic)	2014/2/13 20:27:58	江西音乐广播
夏日时节拍	DJ	2014/2/14 1:58:21	江西音乐广播
OH HOW LOVELY IS THE EVENING	佚名	2014/2/14 2:06:40	江西音乐广播
大家来恋爱	群星	2014/2/14 8:06:56	江西音乐广播
我是真的爱你	应豪	2014/2/14 13:51:16	江西音乐广播
Vad Forgive Me (Bullfrog Kid Koala Mix)	DJ Vadim	2014/2/14 14:48:19	江西音乐广播
triptych part one	blockhead	2014/2/14 14:50:01	江西音乐广播
If That Diamond Ring Don't Sin	By The End Of Tonight	2014/2/14 21:21:42	江西音乐广播
最爱的人	佚名	2014/2/14 22:06:03	江西音乐广播
I SWEAR	群星	2014/2/14 23:02:25	江西音乐广播
满怀深情望北京	佚名	2014/1/31 0:55:39	重庆音乐广播
拉萨姑娘	王森	2014/1/31 10:53:16	重庆音乐广播
离乡之歌	余天	2014/1/31 17:36:30	重庆音乐广播
幻觉离恨天	尹光_胡美仪	2014/1/31 20:45:09	重庆音乐广播
There's Nothing Better than Love (feat. Gregory Hines)	Luther Vandross	2014/1/31 23:59:34	重庆音乐广播
The Frog featuring Q-Tip and will.i.am of The Black Eyed Peas	Sergio Mendes	2014/2/1 3:37:53	重庆音乐广播
Planet Telex (L.F.O. JD mix)	Radiohead	2014/2/1 5:56:10	重庆音乐广播
Bodyjoya Mix Pt 12 / Dreaming Into the Locked Groove	Rafael Toral	2014/2/1 6:47:27	重庆音乐广播
Äã°ÑÎÒ¹à×í	G.E.M. µË×ÏÆå	2014/2/1 9:18:08	重庆音乐广播
旺财	黄文格	2014/2/1 22:15:29	重庆音乐广播
泪蛋蛋抛在沙蒿林	佚名	2014/2/2 3:51:46	重庆音乐广播
Lullaby (extended mix)	The Cure	2014/2/2 17:21:52	重庆音乐广播
Please Sing My Spring Reverb (Amx)	Mm	2014/2/2 17:59:11	重庆音乐广播
我为小平来站岗	佚名	2014/2/2 21:21:32	重庆音乐广播
春天的模样	杨妃	2014/2/2 21:21:48	重庆音乐广播
Hold Me in Your Arms (and Let Me Fall)	Brad Paisley	2014/2/2 23:48:26	重庆音乐广播
只要为你活一天	佚名	2014/2/3 2:39:50	重庆音乐广播
谁人知	佚名	2014/2/5 10:34:44	重庆音乐广播
YOU'VE GOT A FRIEND	佚名	2014/2/5 15:15:15	重庆音乐广播
GET ME TO THE CHURCH ON TIME	佚名	2014/2/5 17:28:52	重庆音乐广播
1加1	王梓轩	2014/2/5 19:51:55	重庆音乐广播
躺在青青草地上	邹江华	2014/2/5 20:07:49	重庆音乐广播
YOU'VE GOT A FRIEND	佚名	2014/2/5 20:43:26	重庆音乐广播
Weed & Hennessey feat C-Murder & Silkk The Shocker	Master P	2014/2/5 21:36:26	重庆音乐广播
流浪到台北	佚名	2014/2/6 7:13:04	重庆音乐广播
烟雨濛濛	佚名	2014/2/6 13:22:57	重庆音乐广播
回忆的夏季	凤飞飞	2014/2/6 21:18:11	重庆音乐广播
爱人是行船人	佚名	2014/2/7 2:02:04	重庆音乐广播
STEEP	佚名	2014/2/7 9:05:20	重庆音乐广播
Lullaby (extended mix)	The Cure	2014/2/7 17:19:47	重庆音乐广播
火山孝子	尹光	2014/2/7 21:51:28	重庆音乐广播
绝口不提!爱你	郑中基	2014/2/7 23:57:49	重庆音乐广播
绝口不提爱你	张新	2014/2/7 23:58:26	重庆音乐广播
你还好吗	佚名	2014/2/8 4:43:03	重庆音乐广播
相思夜绵绵	佚名	2014/2/8 16:23:52	重庆音乐广播
桃花源	羽泉	2014/2/8 17:51:33	重庆音乐广播
桃花源	腾格尔	2014/2/8 17:54:10	重庆音乐广播
谁人会了解	佚名	2014/2/8 21:43:31	重庆音乐广播
穆棱河我的母亲河	魏伽妮	2014/2/8 23:35:32	重庆音乐广播
Here I Am (Just When I Thought I Was Over You)	Air Supply	2014/2/9 10:12:34	重庆音乐广播
CREATEST LOVE OF ALL	佚名	2014/2/9 10:48:43	重庆音乐广播
腊月过小年	佚名	2014/2/9 16:30:54	重庆音乐广播
彩虹是我的桥	李全伟	2014/2/9 16:56:10	重庆音乐广播
我是苗家小咪采	佚名	2014/2/9 17:45:12	重庆音乐广播
Diskostatic [Tarrentalla V. Redanka Mix]	Soul Mekanik	2014/2/9 20:21:08	重庆音乐广播
脸儿甜如蜜	宝佩如_田蕊妮	2014/2/9 20:33:45	重庆音乐广播
帝女花之忆主	刘惠鸣	2014/2/9 22:45:06	重庆音乐广播
拼一场	佚名	2014/2/10 3:19:57	重庆音乐广播
Here I Am (Just When I Thought I Was Over You)	Air Supply	2014/2/10 5:06:56	重庆音乐广播
再见阿郎	佚名	2014/2/10 5:55:58	重庆音乐广播
美女啊嫁给我	胡杰夕	2014/2/10 12:27:12	重庆音乐广播
YOU'VE GOT A FRIEND	佚名	2014/2/10 13:13:52	重庆音乐广播
爱情不是打游戏	凝听	2014/2/10 13:17:08	重庆音乐广播
拉萨姑娘	王森	2014/2/10 13:42:51	重庆音乐广播
万物生 - 百字明咒 唱	萨顶顶	2014/2/10 15:33:34	重庆音乐广播
Erotic Discourse - (with Paul Woolford)	Vitalic	2014/2/10 16:34:15	重庆音乐广播
CAN YOU FEEL THE LOVE TONIGHT	佚名	2014/2/10 18:38:38	重庆音乐广播
请相信我会给你幸福	孙青	2014/2/10 19:55:56	重庆音乐广播
熊猫下的毒	刘航	2014/2/10 22:41:40	重庆音乐广播
¾íÖéÁ±(live°æ)	»ô×ð	2014/2/10 23:14:02	重庆音乐广播
¾íÖéÁ±(live°æ)	»ô×ð	2014/2/11 3:14:06	重庆音乐广播
별처럼	K.Will	2014/2/11 9:55:20	重庆音乐广播
Mix Set Part 3	Nigo	2014/2/11 16:14:56	重庆音乐广播
十二生肖	王力宏	2014/2/11 18:42:07	重庆音乐广播
星座	王力宏	2014/2/11 18:42:47	重庆音乐广播
Neuflex (Decal Remix)	Two Lone Swordsmen	2014/2/12 1:39:32	重庆音乐广播
Victor - Go On Do It (Radio Version)	morgan geist	2014/2/12 5:42:09	重庆音乐广播
HEAVEN IN YOUR EYES	佚名	2014/2/12 22:51:47	重庆音乐广播
Down in the Ground	The Handsome Family	2014/2/13 2:14:09	重庆音乐广播
我们的爱在赎罪	COCO_FEI_TONY	2014/2/13 9:47:30	重庆音乐广播
The Girl From Ipanema - 45 rpm issue	GETZ GILBERTO GILBERTO	2014/2/13 10:24:28	重庆音乐广播
YOU'VE GOT A FRIEND	佚名	2014/2/13 10:50:11	重庆音乐广播
花山谣	姚林辉	2014/2/13 11:08:32	重庆音乐广播
´æÔÚ	G.E.M. µË×ÏÆå	2014/2/13 12:29:03	重庆音乐广播
白鹅学唱歌	佚名	2014/2/13 12:48:27	重庆音乐广播
HAVE YOU EVEN SEEN THE RAIN	佚名	2014/2/13 21:13:21	重庆音乐广播
思啊思想起	佚名	2014/2/14 2:15:55	重庆音乐广播
记得我们	蓝喆	2014/2/14 3:04:18	重庆音乐广播
The Girl From Ipanema - 45 rpm issue	GETZ GILBERTO GILBERTO	2014/2/14 5:21:16	重庆音乐广播
MAGIC TOUCH	佚名	2014/2/14 6:26:24	重庆音乐广播
无奈的相思	佚名	2014/2/14 15:52:35	重庆音乐广播
Best Friends (Featuring Aaliyah)	Missy 'Misdemeanor' Elliott	2014/2/14 17:45:27	重庆音乐广播
SexyBack (ft. Timbaland)	Justin Timberlake	2014/2/14 17:55:31	重庆音乐广播
哗笑的街	佚名	2014/2/14 21:33:48	重庆音乐广播
你是幸福的我是快乐的	任静_付笛声	2014/1/31 2:07:43	山西文艺广播
你是幸福的我是快乐的	付笛声_任静	2014/1/31 2:08:47	山西文艺广播
CAN'T FIGHT THE MOONLIGHT	佚名	2014/1/31 11:23:15	山西文艺广播
极品又见极品全中文伤感CLUB慢摇T1004	DJ	2014/1/31 17:09:36	山西文艺广播
叹十声	佚名	2014/1/31 17:17:17	山西文艺广播
你是幸福的我是快乐的	任静_付笛声	2014/1/31 18:08:35	山西文艺广播
你是幸福的我是快乐的	付笛声_任静	2014/1/31 18:10:35	山西文艺广播
国盛家和万事兴	群星	2014/1/31 18:15:34	山西文艺广播
大年三十	群星	2014/1/31 18:16:34	山西文艺广播
心会跟爱一起走	郭峰,陈洁仪	2014/1/31 20:48:45	山西文艺广播
心会跟爱一起走	陈洁仪_郭峰	2014/1/31 20:49:25	山西文艺广播
你是幸福的我是快乐的	任静_付笛声	2014/1/31 22:07:11	山西文艺广播
你是幸福的我是快乐的	付笛声_任静	2014/1/31 22:07:31	山西文艺广播
国盛家和万事兴	群星	2014/1/31 22:12:29	山西文艺广播
恭贺新禧	孙悦	2014/1/31 22:21:48	山西文艺广播
ㄠ妹	佚名	2014/2/1 0:24:26	山西文艺广播
美丽新世界	王力宏_羽泉	2014/2/1 2:08:27	山西文艺广播
美丽新世界	羽泉	2014/2/1 2:11:30	山西文艺广播
不能不想你	佚名	2014/2/1 4:57:29	山西文艺广播
老鼠爱大米	王志	2014/2/2 7:45:42	山西文艺广播
老鼠爱大米	王启文	2014/2/2 7:46:02	山西文艺广播
白龙马	佚名	2014/2/2 9:09:27	山西文艺广播
海阔天空	李维真	2014/2/2 12:13:40	山西文艺广播
海阔天空	信乐团	2014/2/2 12:17:02	山西文艺广播
无奈无奈	佚名	2014/2/2 14:38:44	山西文艺广播
VEGETABLE SONG	佚名	2014/2/2 17:38:24	山西文艺广播
老鼠爱大米	王志	2014/2/2 18:47:21	山西文艺广播
老鼠爱大米	王启文	2014/2/2 18:48:05	山西文艺广播
相亲相爱	群星	2014/2/2 20:54:03	山西文艺广播
相亲相爱	孙楠_陈慧琳_古卓文_张惠妹	2014/2/2 20:54:46	山西文艺广播
假情假爱	佚名	2014/2/5 16:21:20	山西文艺广播
Run - Smiles - Step Into The Breeze - Symphony Space	Spiritualized	2014/2/5 17:40:58	山西文艺广播
signals_03.20.02_DM_archival.mp3	Signals & Systems	2014/2/5 18:04:18	山西文艺广播
梦中的爱人	佚名	2014/2/5 22:56:01	山西文艺广播
Violin Concerto No.5 in A, K.219 "Turkish" - Adagio	Vladimir Spivakov	2014/2/6 4:34:39	山西文艺广播
重归锡尼河	佚名	2014/2/6 7:36:20	山西文艺广播
套马杆	乌兰托娅	2014/2/6 15:39:44	山西文艺广播
新套马杆	乌兰托娅	2014/2/6 15:51:42	山西文艺广播
DANNY'S SONG	佚名	2014/2/6 17:09:42	山西文艺广播
再见啦别说什么	佚名	2014/2/6 23:25:43	山西文艺广播
你是我这辈子最爱的人	云开	2014/2/7 6:26:05	山西文艺广播
有一点动心	张信哲,刘嘉玲	2014/2/7 12:52:58	山西文艺广播
有一点动心	张信哲_刘嘉玲	2014/2/7 12:54:41	山西文艺广播
Variations In U.S.S.R. (Reflection Mix)	DJ Vadim	2014/2/8 2:26:15	山西文艺广播
解放军同志请你停一停	佚名	2014/2/8 3:56:20	山西文艺广播
这么好的妹子见不上面	佚名	2014/2/8 15:18:40	山西文艺广播
Different Times (feat. T-Boz)	Raphael Saadiq	2014/2/9 10:42:27	山西文艺广播
Too Fortiche (Beatnik T	Pierre Henry	2014/2/9 18:54:49	山西文艺广播
不愿感情甲人分	佚名	2014/2/9 23:19:26	山西文艺广播
断桥	史啸吟	2014/2/10 10:25:20	山西文艺广播
花花我	段丽阳_徐英翰	2014/2/10 11:25:41	山西文艺广播
不如梦一场	佚名	2014/2/10 16:14:42	山西文艺广播
Am I Worth You? (feat. Glenn Lewis)	De La Soul	2014/2/11 12:46:51	山西文艺广播
喂鸡	佚名	2014/2/11 20:09:39	山西文艺广播
Shout (Hello Kitty)	Devo	2014/2/11 23:52:56	山西文艺广播
Music on a Long Thin Wire 1	Alvin Lucier	2014/2/11 23:55:18	山西文艺广播
点仔点水缸	佚名	2014/2/12 21:11:36	山西文艺广播
op10no6	null	2014/2/12 21:13:56	山西文艺广播
竹叶船	佚名	2014/2/13 21:51:34	山西文艺广播
我们的小世界 (春晓)(铃声)	彭坦	2014/2/14 15:07:02	山西文艺广播
嗨到神经崩溃	DJ	2014/2/14 20:09:38	山西文艺广播
我们共有一个家	刘斌	2014/2/14 21:34:42	山西文艺广播
