2014-01-17 14:10:46.330641 韩红 青藏高原 http://www.yymp3.com/Play/2811/32648.htm
2014-01-17 14:10:46.331111 韩红 青藏高原 http://www.yymp3.com/Play/3422/40799.htm
2014-01-17 14:10:49.301335 韩红 青藏高原 http://music.sina.com.cn/yueku/i/367987.html
2014-01-17 14:10:54.749577 韩红 青藏高原 http://www.yue365.com/play/1069/92299.shtml
