{
    "code":200,
    "song_timeline":[
        {
            "h":17,
            "play_count":91,
            "time":"2013-12-26 17:00:14"
        },
        {
            "h":18,
            "play_count":96,
            "time":"2013-12-26 18:01:56"
        },
        {
            "h":19,
            "play_count":115,
            "time":"2013-12-26 19:01:28"
        },
        {
            "h":20,
            "play_count":118,
            "time":"2013-12-26 20:03:19"
        },
        {
            "h":21,
            "play_count":93,
            "time":"2013-12-26 21:02:03"
        },
        {
            "h":22,
            "play_count":124,
            "time":"2013-12-26 22:01:53"
        },
        {
            "h":23,
            "play_count":119,
            "time":"2013-12-26 23:01:04"
        },
        {
            "h":0,
            "play_count":114,
            "time":"2013-12-27 00:00:05"
        },
        {
            "h":1,
            "play_count":126,
            "time":"2013-12-27 01:00:07"
        },
        {
            "h":2,
            "play_count":120,
            "time":"2013-12-27 02:00:13"
        },
        {
            "h":3,
            "play_count":120,
            "time":"2013-12-27 03:00:31"
        },
        {
            "h":4,
            "play_count":139,
            "time":"2013-12-27 04:01:14"
        },
        {
            "h":5,
            "play_count":98,
            "time":"2013-12-27 05:00:19"
        },
        {
            "h":6,
            "play_count":121,
            "time":"2013-12-27 06:01:33"
        },
        {
            "h":7,
            "play_count":104,
            "time":"2013-12-27 07:00:17"
        },
        {
            "h":8,
            "play_count":110,
            "time":"2013-12-27 08:00:38"
        },
        {
            "h":9,
            "play_count":107,
            "time":"2013-12-27 09:01:50"
        },
        {
            "h":10,
            "play_count":105,
            "time":"2013-12-27 10:00:45"
        },
        {
            "h":11,
            "play_count":105,
            "time":"2013-12-27 11:01:43"
        },
        {
            "h":12,
            "play_count":88,
            "time":"2013-12-27 12:00:15"
        },
        {
            "h":13,
            "play_count":111,
            "time":"2013-12-27 13:03:12"
        },
        {
            "h":14,
            "play_count":91,
            "time":"2013-12-27 14:00:04"
        },
        {
            "h":15,
            "play_count":78,
            "time":"2013-12-27 15:00:01"
        },
        {
            "h":16,
            "play_count":78,
            "time":"2013-12-27 16:01:47"
        }
    ],
    "song_top100_timeline":[
        {
            "h":17,
            "play_count":14,
            "time":"2013-12-26 17:04:09"
        },
        {
            "h":18,
            "play_count":13,
            "time":"2013-12-26 18:57:24"
        },
        {
            "h":19,
            "play_count":12,
            "time":"2013-12-26 19:01:35"
        },
        {
            "h":20,
            "play_count":25,
            "time":"2013-12-26 20:16:03"
        },
        {
            "h":21,
            "play_count":12,
            "time":"2013-12-26 21:28:28"
        },
        {
            "h":22,
            "play_count":14,
            "time":"2013-12-26 22:16:58"
        },
        {
            "h":23,
            "play_count":6,
            "time":"2013-12-26 23:34:50"
        },
        {
            "h":0,
            "play_count":13,
            "time":"2013-12-27 00:51:25"
        },
        {
            "h":1,
            "play_count":8,
            "time":"2013-12-27 01:26:34"
        },
        {
            "h":2,
            "play_count":11,
            "time":"2013-12-27 02:42:05"
        },
        {
            "h":3,
            "play_count":9,
            "time":"2013-12-27 03:17:26"
        },
        {
            "h":4,
            "play_count":16,
            "time":"2013-12-27 04:36:25"
        },
        {
            "h":5,
            "play_count":15,
            "time":"2013-12-27 05:33:55"
        },
        {
            "h":6,
            "play_count":16,
            "time":"2013-12-27 06:30:05"
        },
        {
            "h":7,
            "play_count":21,
            "time":"2013-12-27 07:26:14"
        },
        {
            "h":8,
            "play_count":14,
            "time":"2013-12-27 08:05:08"
        },
        {
            "h":9,
            "play_count":15,
            "time":"2013-12-27 09:43:22"
        },
        {
            "h":10,
            "play_count":14,
            "time":"2013-12-27 10:19:43"
        },
        {
            "h":11,
            "play_count":10,
            "time":"2013-12-27 11:40:48"
        },
        {
            "h":12,
            "play_count":7,
            "time":"2013-12-27 12:25:04"
        },
        {
            "h":13,
            "play_count":9,
            "time":"2013-12-27 13:38:40"
        },
        {
            "h":14,
            "play_count":7,
            "time":"2013-12-27 14:03:00"
        },
        {
            "h":15,
            "play_count":9,
            "time":"2013-12-27 15:12:12"
        },
        {
            "h":16,
            "play_count":9,
            "time":"2013-12-27 16:07:52"
        }
    ],
    "station_timeline":[
        {
            "h":17,
            "station_count":17,
            "time":"2013-12-26 17:00:14"
        },
        {
            "h":18,
            "station_count":18,
            "time":"2013-12-26 18:01:56"
        },
        {
            "h":19,
            "station_count":19,
            "time":"2013-12-26 19:01:28"
        },
        {
            "h":20,
            "station_count":19,
            "time":"2013-12-26 20:03:19"
        },
        {
            "h":21,
            "station_count":18,
            "time":"2013-12-26 21:02:03"
        },
        {
            "h":22,
            "station_count":20,
            "time":"2013-12-26 22:01:53"
        },
        {
            "h":23,
            "station_count":20,
            "time":"2013-12-26 23:01:04"
        },
        {
            "h":0,
            "station_count":19,
            "time":"2013-12-27 00:00:05"
        },
        {
            "h":1,
            "station_count":19,
            "time":"2013-12-27 01:00:07"
        },
        {
            "h":2,
            "station_count":19,
            "time":"2013-12-27 02:00:13"
        },
        {
            "h":3,
            "station_count":19,
            "time":"2013-12-27 03:00:31"
        },
        {
            "h":4,
            "station_count":19,
            "time":"2013-12-27 04:01:14"
        },
        {
            "h":5,
            "station_count":19,
            "time":"2013-12-27 05:00:19"
        },
        {
            "h":6,
            "station_count":20,
            "time":"2013-12-27 06:01:33"
        },
        {
            "h":7,
            "station_count":20,
            "time":"2013-12-27 07:00:17"
        },
        {
            "h":8,
            "station_count":19,
            "time":"2013-12-27 08:00:38"
        },
        {
            "h":9,
            "station_count":19,
            "time":"2013-12-27 09:01:50"
        },
        {
            "h":10,
            "station_count":19,
            "time":"2013-12-27 10:00:45"
        },
        {
            "h":11,
            "station_count":19,
            "time":"2013-12-27 11:01:43"
        },
        {
            "h":12,
            "station_count":16,
            "time":"2013-12-27 12:00:15"
        },
        {
            "h":13,
            "station_count":20,
            "time":"2013-12-27 13:03:12"
        },
        {
            "h":14,
            "station_count":19,
            "time":"2013-12-27 14:00:04"
        },
        {
            "h":15,
            "station_count":19,
            "time":"2013-12-27 15:00:01"
        },
        {
            "h":16,
            "station_count":14,
            "time":"2013-12-27 16:01:47"
        }
    ]
}